Expiry/Strike	0.5	0.55	0.6	0.65	0.7	0.75	0.8	0.85	0.9	0.95	1.0	1.05	1.1	1.15	1.2	1.25	1.3	1.35	1.4	1.45	1.5
91D	0.391430609600000030000	0.365950287800000000000	0.341146558900000010000	0.316780175399999970000	0.292651851099999970000	0.268606494000000030000	0.244564241800000000000	0.220613837700000010000	0.197259431800000000000	0.175994365900000000000	0.160108880000000010000	0.153744872499999990000	0.157375332699999980000	0.167118232300000000000	0.179256392100000020000	0.191861553900000010000	0.204142183200000020000	0.215816802799999980000	0.226813327400000010000	0.237142849400000020000	0.246847440499999990000
182D	0.357569272100000060000	0.334249305800000010000	0.311705168500000020000	0.289778491600000020000	0.268379475200000000000	0.247505917100000000000	0.227287656700000010000	0.208066869300000010000	0.190512897000000010000	0.175708617700000010000	0.165009099999999990000	0.159457236000000000000	0.159067551400000010000	0.162791802700000020000	0.169199412200000010000	0.177080145000000020000	0.185619754199999990000	0.194332560600000010000	0.202948616500000010000	0.211326530099999990000	0.219398359200000000000
273D	0.338305555200000000000	0.316841262600000010000	0.296207965099999970000	0.276290089900000040000	0.257046606200000030000	0.238528094300000020000	0.220908914700000010000	0.204530051800000000000	0.189929377900000000000	0.177801204000000020000	0.168814300000000000000	0.163318219500000000000	0.161149280000000010000	0.161718761900000010000	0.164281970200000020000	0.168162237800000000000	0.172841858400000020000	0.177960882400000020000	0.183282228500000010000	0.188654778599999990000	0.193984558100000010000
365D	0.323468222500000010000	0.303517599199999990000	0.284437374800000030000	0.266139033100000030000	0.248607161100000000000	0.231910808400000000000	0.216221580400000000000	0.201829204900000000000	0.189133340600000010000	0.178580645500000020000	0.170534480000000020000	0.165127932199999990000	0.162200692000000010000	0.161366402600000010000	0.162148764100000010000	0.164096107699999990000	0.166837693100000020000	0.170093870300000010000	0.173663937100000000000	0.177408032800000000000	0.181230467799999990000
547D	0.292066714600000000000	0.275995825000000030000	0.260765177700000020000	0.246304311099999980000	0.232595750700000020000	0.219676045900000010000	0.207638716300000000000	0.196634194500000000000	0.186859101199999990000	0.178526395100000010000	0.171814570000000000000	0.166810232700000010000	0.163472499600000020000	0.161640217800000010000	0.161075499000000010000	0.161517021099999990000	0.162720407500000000000	0.164478769599999990000	0.166627677400000010000	0.169041575700000000000	0.171626988200000020000
730D	0.272428303099999990000	0.258840222600000000000	0.246047118900000000000	0.233984559600000000000	0.222628883199999990000	0.211994467299999990000	0.202132019200000010000	0.193125118900000000000	0.185081654999999980000	0.178117149700000000000	0.172329819999999990000	0.167772834900000000000	0.164434292300000010000	0.162234319600000010000	0.161040227600000000000	0.160691523300000000000	0.161024131500000000000	0.161887263800000010000	0.163151828100000010000	0.164712441600000010000	0.166485762900000000000
1095D	0.233898889600000020000	0.224745449200000000000	0.216332672700000010000	0.208600517900000000000	0.201510297800000020000	0.195038913900000000000	0.189174301900000010000	0.183911485999999990000	0.179248937400000000000	0.175185160800000020000	0.171715609999999990000	0.168830154900000000000	0.166511356500000010000	0.164733742200000010000	0.163464126100000000000	0.162662839000000000000	0.162285586000000010000	0.162285579900000000000	0.162615619600000010000	0.163229870500000010000	0.164085213799999990000