Expiry/Strike	0.5	0.55	0.6	0.65	0.7	0.75	0.8	0.85	0.9	0.95	1.0	1.05	1.1	1.15	1.2	1.25	1.3	1.35	1.4	1.45	1.5
91D	0.327241950000000000000	0.309686730000000020000	0.291918180000000030000	0.273535470000000000000	0.253255640000000000000	0.230729380000000010000	0.207546769999999990000	0.186172800000000000000	0.167411190000000020000	0.151644510000000010000	0.139150580000000000000	0.132693260000000010000	0.133450590000000010000	0.139261100000000000000	0.147859980000000000000	0.157482130000000000000	0.166936790000000000000	0.175904800000000000000	0.184280760000000020000	0.192123170000000010000	0.199472570000000020000
182D	0.281642610000000020000	0.266847749999999990000	0.251217440000000010000	0.234341810000000010000	0.216485470000000010000	0.199039949999999990000	0.183009910000000000000	0.169382790000000010000	0.158243230000000010000	0.149086300000000000000	0.141820660000000020000	0.137741450000000020000	0.137041450000000010000	0.138822960000000000000	0.142488580000000000000	0.147447770000000010000	0.153405180000000000000	0.159869630000000010000	0.166245310000000010000	0.172279779999999990000	0.177953560000000010000
273D	0.254575290000000010000	0.241446050000000000000	0.227568220000000020000	0.212714980000000000000	0.197673650000000010000	0.183894570000000010000	0.172448920000000010000	0.163377170000000020000	0.155985299999999990000	0.149429200000000010000	0.144424650000000020000	0.141978159999999990000	0.141940999999999980000	0.143416020000000010000	0.145710460000000010000	0.148719049999999990000	0.152390920000000010000	0.156817310000000020000	0.161739810000000010000	0.166543379999999990000	0.171093490000000010000
365D	0.239537840000000000000	0.227490500000000010000	0.214983239999999990000	0.201898640000000020000	0.189028550000000020000	0.178061610000000010000	0.169389619999999990000	0.162609499999999990000	0.157123860000000000000	0.151937400000000000000	0.148246190000000000000	0.146649130000000020000	0.147143260000000000000	0.148935470000000010000	0.151029660000000010000	0.153521940000000000000	0.156412360000000000000	0.159799050000000000000	0.163683980000000010000	0.167539980000000010000	0.171234210000000000000
547D	0.222255640000000000000	0.211172690000000000000	0.200136510000000020000	0.189487550000000000000	0.180539090000000010000	0.173678140000000010000	0.168406580000000000000	0.164030819999999990000	0.160350770000000000000	0.156773080000000010000	0.154288790000000010000	0.153100050000000020000	0.153004570000000010000	0.154002300000000010000	0.155495529999999990000	0.157097770000000000000	0.158993250000000000000	0.160888740000000000000	0.163079759999999990000	0.165344049999999990000	0.167594470000000000000
730D	0.212259670000000010000	0.202120260000000000000	0.192667380000000000000	0.184378180000000000000	0.177788270000000000000	0.172696080000000000000	0.168701570000000000000	0.165405510000000010000	0.162609460000000010000	0.160013419999999990000	0.158216600000000010000	0.157518190000000000000	0.157618990000000010000	0.158518190000000000000	0.159718190000000010000	0.161417389999999990000	0.163117390000000000000	0.164816590000000010000	0.166614999999999990000	0.168450180000000000000	0.170300620000000010000
1095D	0.203088430000000010000	0.193903340000000010000	0.185987770000000000000	0.179887780000000000000	0.175285080000000010000	0.171685750000000000000	0.168789130000000010000	0.166393199999999990000	0.164497950000000000000	0.162904789999999990000	0.162010970000000000000	0.161815120000000010000	0.162217190000000010000	0.163018580000000000000	0.164318579999999990000	0.165917189999999990000	0.167715800000000000000	0.169316500000000010000	0.170817880000000010000	0.172317370000000000000	0.173826139999999990000