Expiry/Strike	0.5	0.55	0.6	0.65	0.7	0.75	0.8	0.85	0.9	0.95	1.0	1.05	1.1	1.15	1.2	1.25	1.3	1.35	1.4	1.45	1.5
91D	0.407089560000000020000	0.384639359999999990000	0.361471980000000030000	0.337169140000000030000	0.311429340000000000000	0.284049720000000010000	0.254733560000000030000	0.225543890000000000000	0.198240020000000020000	0.174372890000000000000	0.154208270000000010000	0.143833099999999990000	0.146997740000000020000	0.157667830000000010000	0.171130740000000000000	0.184984070000000000000	0.198072190000000010000	0.210100819999999990000	0.221121600000000000000	0.231399120000000010000	0.241017910000000000000
182D	0.357611110000000010000	0.337838790000000000000	0.317124350000000000000	0.294972840000000010000	0.271804150000000020000	0.249826330000000010000	0.227328900000000000000	0.204831350000000000000	0.186834229999999990000	0.170700000000000020000	0.156795610000000000000	0.148030460000000000000	0.146698429999999990000	0.150583479999999990000	0.155328170000000020000	0.163538060000000010000	0.173107630000000010000	0.182429680000000010000	0.190670780000000010000	0.198433310000000000000	0.205759310000000000000
273D	0.322398670000000000000	0.303780300000000000000	0.285108330000000020000	0.266372720000000010000	0.247999760000000010000	0.231071340000000010000	0.214862740000000000000	0.196010120000000010000	0.183016680000000010000	0.170700000000000020000	0.160117890000000010000	0.153072060000000010000	0.150798679999999990000	0.152306799999999990000	0.154958760000000000000	0.159433350000000000000	0.164780449999999990000	0.170422780000000000000	0.175850399999999990000	0.181102340000000000000	0.186146140000000020000
365D	0.302722670000000030000	0.284705660000000030000	0.267175070000000010000	0.250414809999999990000	0.234835790000000020000	0.220818930000000000000	0.208169140000000000000	0.191320810000000010000	0.181024400000000000000	0.170700000000000020000	0.161797950000000000000	0.155598309999999990000	0.152862130000000010000	0.153184480000000010000	0.154768660000000000000	0.157283220000000000000	0.160334930000000010000	0.163913540000000000000	0.167729190000000000000	0.171520370000000010000	0.175219879999999990000
547D	0.269397959999999990000	0.254263250000000000000	0.240200009999999990000	0.227761240000000000000	0.216855949999999990000	0.207354380000000000000	0.194307620000000010000	0.183845740000000010000	0.177054190000000000000	0.170046110000000000000	0.163817030000000000000	0.159808690000000000000	0.157372690000000010000	0.156757910000000000000	0.157188420000000000000	0.158171620000000010000	0.159558969999999990000	0.161298550000000010000	0.163344930000000000000	0.165468720000000010000	0.167609480000000010000
730D	0.246628950000000010000	0.233931880000000010000	0.222650390000000000000	0.213458390000000000000	0.205779960000000010000	0.199268379999999990000	0.184647980000000020000	0.179089610000000010000	0.174403150000000010000	0.169519030000000010000	0.164946480000000010000	0.162417680000000010000	0.160338940000000010000	0.159326680000000000000	0.159159150000000000000	0.159501720000000010000	0.160245630000000000000	0.161136539999999990000	0.162248229999999990000	0.163466350000000010000	0.164747530000000000000
1095D	0.225086330000000000000	0.214391329999999990000	0.204782850000000020000	0.196775570000000010000	0.190232550000000000000	0.184824660000000000000	0.179084109999999990000	0.175165560000000000000	0.171482589999999990000	0.168087980000000000000	0.165311970000000000000	0.163200280000000000000	0.161388780000000010000	0.160176770000000000000	0.159499880000000010000	0.159299539999999990000	0.159575910000000020000	0.159887770000000010000	0.160323340000000010000	0.160826890000000000000	0.161367260000000010000