Expiry/Strike	0.5	0.55	0.6	0.65	0.7	0.75	0.8	0.85	0.9	0.95	1.0	1.05	1.1	1.15	1.2	1.25	1.3	1.35	1.4	1.45	1.5
91D	0.367306689999999990000	0.346540779999999990000	0.326150260000000030000	0.305953260000000000000	0.284314459999999990000	0.260202990000000020000	0.233899130000000010000	0.206190299999999990000	0.180241380000000010000	0.158476190000000020000	0.141924460000000000000	0.136115170000000010000	0.142251230000000010000	0.154474320000000000000	0.168601030000000010000	0.182658660000000000000	0.195576279999999990000	0.207207510000000010000	0.217647129999999990000	0.227332280000000000000	0.236398240000000010000
182D	0.329892190000000030000	0.311359769999999980000	0.293071410000000030000	0.274908560000000020000	0.255926749999999980000	0.235788150000000000000	0.215122680000000010000	0.193809260000000010000	0.176100000000000010000	0.161697160000000010000	0.150303860000000010000	0.144812169999999990000	0.146064190000000010000	0.151694720000000010000	0.159826880000000000000	0.168995430000000000000	0.177942580000000020000	0.186342120000000000000	0.194113340000000000000	0.201415520000000010000	0.208307620000000000000
273D	0.304444050000000020000	0.287100799999999990000	0.269920300000000000000	0.252963200000000000000	0.236435720000000020000	0.220946270000000000000	0.206438590000000010000	0.189645929999999990000	0.176100000000000010000	0.165012200000000000000	0.156055959999999990000	0.150929929999999990000	0.150192240000000000000	0.152777589999999990000	0.157015340000000000000	0.162040049999999990000	0.167322300000000010000	0.172696740000000020000	0.178048280000000000000	0.183213910000000010000	0.188161500000000010000
365D	0.290772870000000020000	0.274059329999999990000	0.257462150000000000000	0.241144910000000020000	0.225974110000000010000	0.213073100000000020000	0.201919510000000000000	0.187512210000000010000	0.176100000000000010000	0.166658279999999990000	0.158876590000000010000	0.153921670000000010000	0.152230709999999990000	0.153320559999999990000	0.155578810000000010000	0.158418210000000000000	0.161704540000000010000	0.165392039999999990000	0.169373420000000000000	0.173315560000000010000	0.177139629999999990000
547D	0.261015780000000030000	0.246412280000000010000	0.232605720000000020000	0.219995720000000010000	0.208862830000000000000	0.199715520000000010000	0.192696320000000000000	0.182836710000000010000	0.175259150000000000000	0.168468260000000010000	0.162773350000000010000	0.158732710000000000000	0.156571910000000010000	0.156099839999999990000	0.156580909999999990000	0.157674640000000000000	0.159169129999999990000	0.161014030000000000000	0.163215749999999990000	0.165494010000000000000	0.167771859999999990000
730D	0.240527670000000000000	0.227508760000000000000	0.215903730000000020000	0.206262590000000000000	0.198122400000000000000	0.191325410000000000000	0.186720310000000000000	0.179812060000000000000	0.174626930000000010000	0.169411640000000000000	0.164964530000000000000	0.161542900000000020000	0.159265800000000010000	0.158018440000000010000	0.157680619999999990000	0.158029090000000010000	0.158695129999999990000	0.159587339999999990000	0.160790300000000000000	0.162109310000000010000	0.163483469999999990000
1095D	0.216250230000000020000	0.206175870000000010000	0.197702870000000000000	0.191383560000000010000	0.186298720000000000000	0.181879150000000020000	0.178227360000000000000	0.174706930000000010000	0.171533180000000010000	0.168340660000000000000	0.165759999999999990000	0.163810810000000000000	0.162412050000000000000	0.161643260000000010000	0.161233469999999990000	0.161343270000000010000	0.161753070000000000000	0.162362880000000010000	0.163092350000000000000	0.163887000000000000000	0.164735440000000010000