Expiry/Strike	0.5	0.55	0.6	0.65	0.7	0.75	0.8	0.85	0.9	0.95	1.0	1.05	1.1	1.15	1.2	1.25	1.3	1.35	1.4	1.45	1.5
91D	0.321220820000000020000	0.303888380000000010000	0.286220110000000030000	0.267761020000000020000	0.247668440000000020000	0.226853770000000010000	0.205240830000000010000	0.183914990000000000000	0.164917570000000010000	0.149239180000000000000	0.137093369999999990000	0.131196979999999990000	0.132662709999999990000	0.138776609999999990000	0.147284790000000000000	0.156454520000000010000	0.165881160000000000000	0.174885550000000000000	0.183309530000000000000	0.191198760000000000000	0.198583559999999990000
182D	0.282452399999999990000	0.267344440000000020000	0.251337680000000010000	0.234107490000000000000	0.216274960000000020000	0.198941860000000000000	0.182993390000000010000	0.169248220000000000000	0.157839289999999990000	0.148313760000000020000	0.140538500000000010000	0.136025420000000010000	0.134973249999999990000	0.136517279999999990000	0.139859199999999990000	0.144652360000000010000	0.150465090000000000000	0.156646680000000010000	0.162979160000000010000	0.169040120000000020000	0.174735570000000010000
273D	0.255509600000000000000	0.242070810000000000000	0.227768909999999990000	0.212474550000000010000	0.197463950000000000000	0.183811680000000010000	0.172264599999999990000	0.162930360000000000000	0.155126039999999990000	0.148205179999999990000	0.142668679999999990000	0.139615120000000010000	0.139180580000000000000	0.140352239999999990000	0.142265840000000000000	0.145008450000000010000	0.148483090000000010000	0.152661720000000000000	0.157366239999999990000	0.161980299999999990000	0.166360430000000000000
365D	0.239788270000000000000	0.227365829999999990000	0.214517070000000000000	0.201221840000000010000	0.188505690000000000000	0.177711490000000000000	0.168993220000000000000	0.162115860000000000000	0.156212190000000000000	0.150695510000000000000	0.146458510000000010000	0.144186680000000010000	0.144051600000000000000	0.145109610000000000000	0.146688650000000000000	0.148739979999999990000	0.151184640000000010000	0.154202190000000020000	0.157606780000000000000	0.160985839999999990000	0.164250360000000010000
547D	0.225886510000000010000	0.214132590000000010000	0.202593080000000010000	0.191641869999999990000	0.182384740000000020000	0.175100000000000010000	0.169379809999999990000	0.164530860000000000000	0.160189480000000000000	0.156026300000000010000	0.152863240000000010000	0.150970670000000000000	0.150263289999999990000	0.150633750000000010000	0.151696909999999990000	0.153082200000000000000	0.154652860000000000000	0.156330890000000000000	0.158194389999999990000	0.160117940000000010000	0.162060390000000000000
730D	0.218721870000000010000	0.207474070000000010000	0.197136600000000000000	0.188192710000000010000	0.180854700000000010000	0.175100000000000010000	0.170428410000000000000	0.166256900000000010000	0.162674039999999990000	0.158991209999999990000	0.156302680000000000000	0.154508430000000000000	0.153702690000000000000	0.153691230000000010000	0.154279770000000010000	0.155468330000000020000	0.156662620000000000000	0.158051200000000000000	0.159439799999999990000	0.160854300000000010000	0.162320330000000010000
1095D	0.212808639999999990000	0.202597100000000000000	0.193273850000000000000	0.185299960000000010000	0.178816950000000000000	0.173735560000000010000	0.169757400000000000000	0.166379410000000010000	0.163600000000000000000	0.161125570000000000000	0.159448150000000010000	0.158466030000000010000	0.158179110000000010000	0.158487309999999990000	0.159192240000000010000	0.160592220000000010000	0.161993849999999990000	0.163495489999999990000	0.164997120000000000000	0.166452960000000010000	0.167865550000000000000