Expiry/Strike	0.5	0.55	0.6	0.65	0.7	0.75	0.8	0.85	0.9	0.95	1.0	1.05	1.1	1.15	1.2	1.25	1.3	1.35	1.4	1.45	1.5
91D	0.377972530000000030000	0.346218790000000000000	0.318178279999999980000	0.295275669999999990000	0.275913450000000000000	0.258271619999999980000	0.240339140000000010000	0.220571740000000020000	0.199939150000000010000	0.180319540000000000000	0.162085690000000000000	0.147159740000000010000	0.138801940000000010000	0.138530270000000010000	0.144365340000000010000	0.151602540000000010000	0.158792550000000000000	0.166335050000000010000	0.174503600000000010000	0.182434870000000000000	0.189905230000000010000
182D	0.322135840000000010000	0.302242610000000020000	0.281787920000000030000	0.260970480000000000000	0.241530030000000010000	0.223448890000000010000	0.206708900000000000000	0.191411610000000010000	0.177857280000000010000	0.165703710000000000000	0.155171859999999990000	0.147783280000000020000	0.144713250000000020000	0.145276199999999990000	0.148334190000000000000	0.152913180000000010000	0.158592189999999990000	0.164971220000000000000	0.171829360000000010000	0.178464340000000000000	0.184712300000000000000
273D	0.269430500000000020000	0.254142499999999990000	0.237744070000000000000	0.220206270000000010000	0.206671260000000000000	0.195549710000000020000	0.185106960000000010000	0.175750770000000000000	0.167259110000000020000	0.159063210000000010000	0.151799770000000000000	0.146288900000000000000	0.142969640000000010000	0.141363750000000010000	0.140838200000000000000	0.141074910000000000000	0.142177420000000000000	0.144084629999999990000	0.147745230000000010000	0.153275700000000010000	0.158485210000000020000
365D	0.251200609999999990000	0.236461580000000000000	0.222600000000000020000	0.209935490000000000000	0.198157770000000010000	0.187516980000000000000	0.178326130000000000000	0.170453410000000000000	0.163489840000000000000	0.156830980000000010000	0.151395380000000000000	0.147983690000000000000	0.146682559999999990000	0.147182740000000010000	0.148379299999999990000	0.149867119999999990000	0.152035900000000000000	0.154595110000000010000	0.157649509999999990000	0.160764900000000020000	0.163812230000000000000
547D	0.233917430000000010000	0.222239230000000010000	0.210457079999999990000	0.198683020000000020000	0.187711999999999990000	0.178438630000000010000	0.171258550000000010000	0.165275110000000000000	0.160288230000000000000	0.155500740000000000000	0.152108159999999990000	0.150509649999999990000	0.150704449999999990000	0.152394100000000000000	0.154583849999999990000	0.156973680000000000000	0.159564320000000010000	0.162353600000000010000	0.165542260000000000000	0.168745090000000010000	0.171848190000000010000
730D	0.209376239999999990000	0.199259550000000010000	0.190030060000000000000	0.182080910000000010000	0.175340630000000000000	0.169889400000000000000	0.165526979999999990000	0.161856060000000000000	0.158679450000000000000	0.155600000000000020000	0.153214729999999990000	0.151814740000000000000	0.151305890000000000000	0.151588250000000010000	0.152370670000000010000	0.153356070000000010000	0.154635720000000000000	0.155918329999999990000	0.157495250000000000000	0.159157550000000010000	0.160821850000000020000
1095D	0.194791750000000010000	0.186151870000000000000	0.178711100000000010000	0.173011580000000000000	0.168810409999999990000	0.165509939999999990000	0.162910410000000010000	0.160811360000000010000	0.159012540000000010000	0.157514190000000000000	0.156415859999999990000	0.155518010000000010000	0.155019690000000020000	0.154721870000000010000	0.154923079999999990000	0.155424289999999990000	0.156025510000000010000	0.156726969999999990000	0.157428440000000000000	0.158119100000000010000	0.158804110000000000000