Expiry/Strike	0.5	0.55	0.6	0.65	0.7	0.75	0.8	0.85	0.9	0.95	1.0	1.05	1.1	1.15	1.2	1.25	1.3	1.35	1.4	1.45	1.5
91D	0.369307490000000020000	0.348637540000000020000	0.328379990000000010000	0.308487310000000010000	0.287568810000000010000	0.263580900000000010000	0.236072960000000000000	0.207441010000000010000	0.181532810000000020000	0.160584019999999990000	0.144300400000000000000	0.137624000000000000000	0.142333850000000010000	0.153593449999999990000	0.168043830000000010000	0.182344110000000000000	0.195190530000000000000	0.206463540000000000000	0.216644710000000020000	0.226132749999999990000	0.235023620000000020000
182D	0.340234370000000010000	0.321813220000000010000	0.303107750000000010000	0.283591330000000030000	0.261716559999999990000	0.238528920000000010000	0.215698970000000020000	0.195316519999999990000	0.178591069999999990000	0.164608010000000000000	0.153463040000000000000	0.147795879999999990000	0.148572040000000020000	0.153487920000000000000	0.160839879999999990000	0.170142199999999990000	0.180147229999999990000	0.189892360000000010000	0.198992500000000020000	0.207492590000000000000	0.215440880000000000000
273D	0.323113419999999980000	0.304624039999999980000	0.286317600000000010000	0.268092280000000020000	0.246578900000000020000	0.228282700000000010000	0.209624800000000000000	0.192558320000000010000	0.179944319999999990000	0.169136780000000010000	0.160212410000000000000	0.155005869999999990000	0.154016030000000000000	0.156264750000000010000	0.159940200000000000000	0.164711830000000000000	0.170111060000000010000	0.175795390000000000000	0.181669340000000010000	0.187357860000000010000	0.192770860000000020000
365D	0.313465700000000010000	0.294874340000000010000	0.276855840000000020000	0.259380390000000020000	0.238229180000000010000	0.222583560000000010000	0.206257429999999990000	0.191039050000000020000	0.180506250000000010000	0.171287080000000010000	0.163463080000000010000	0.158502820000000020000	0.156700620000000010000	0.157665290000000010000	0.159536850000000010000	0.162010800000000010000	0.164978500000000000000	0.168442239999999990000	0.172493709999999990000	0.176563860000000020000	0.180499490000000010000
547D	0.282794720000000000000	0.262582220000000030000	0.247805379999999990000	0.233170790000000020000	0.218536380000000000000	0.205795129999999990000	0.195654479999999990000	0.186131889999999990000	0.177662770000000000000	0.170898059999999990000	0.165349460000000000000	0.161565470000000020000	0.159697980000000020000	0.159617100000000010000	0.160641480000000000000	0.162335320000000010000	0.164330380000000000000	0.166695050000000010000	0.169264870000000010000	0.171857120000000000000	0.174436129999999990000
730D	0.266066489999999990000	0.244768790000000010000	0.231852119999999990000	0.218831760000000010000	0.207947579999999990000	0.196827270000000000000	0.190108410000000010000	0.183618800000000000000	0.176217890000000020000	0.170702410000000000000	0.166288460000000000000	0.163081400000000020000	0.161181789999999990000	0.160588070000000000000	0.161193210000000000000	0.162498000000000000000	0.164004030000000000000	0.165810930000000000000	0.167620380000000010000	0.169444800000000010000	0.171311110000000020000
1095D	0.230828599999999990000	0.219890489999999990000	0.210183340000000000000	0.202163380000000000000	0.195447120000000000000	0.189626670000000000000	0.184719930000000000000	0.180212580000000010000	0.175901100000000000000	0.171895600000000010000	0.168491960000000000000	0.165690510000000010000	0.163690870000000020000	0.162194140000000010000	0.161399260000000020000	0.161204800000000010000	0.161210390000000010000	0.161715280000000020000	0.162419440000000000000	0.163167790000000010000	0.163946680000000010000