Expiry/Strike	0.5	0.55	0.6	0.65	0.7	0.75	0.8	0.85	0.9	0.95	1.0	1.05	1.1	1.15	1.2	1.25	1.3	1.35	1.4	1.45	1.5
91D	0.470705340000000030000	0.443258880000000020000	0.412994250000000010000	0.379424460000000020000	0.346315770000000020000	0.315684970000000010000	0.287207999999999960000	0.259504569999999990000	0.232382980000000020000	0.207293860000000000000	0.184088050000000000000	0.167466820000000020000	0.163180140000000000000	0.168318440000000010000	0.178266260000000010000	0.190209390000000010000	0.203016680000000000000	0.215389370000000000000	0.226933899999999990000	0.237739110000000000000	0.247861860000000020000
182D	0.387423010000000010000	0.361070029999999990000	0.335388420000000020000	0.310979490000000030000	0.288681650000000010000	0.267615900000000020000	0.247184840000000020000	0.227841830000000000000	0.210003059999999990000	0.193301649999999990000	0.178073640000000010000	0.166223460000000020000	0.160095900000000010000	0.159337709999999990000	0.162075909999999990000	0.167198450000000000000	0.173724030000000000000	0.180920550000000010000	0.188554110000000000000	0.195954220000000010000	0.202960389999999990000
273D	0.338229820000000010000	0.314531039999999980000	0.293691079999999990000	0.276444420000000020000	0.260331839999999980000	0.244713430000000010000	0.229592290000000000000	0.215432170000000010000	0.202085950000000010000	0.188728230000000000000	0.176477450000000010000	0.166588220000000010000	0.160535520000000010000	0.157962240000000000000	0.157439970000000010000	0.158496169999999990000	0.160960319999999990000	0.164432710000000010000	0.168410380000000000000	0.172409499999999990000	0.176331630000000020000
365D	0.311730440000000000000	0.292044379999999990000	0.274652730000000010000	0.260119380000000010000	0.246476020000000020000	0.233643519999999990000	0.221632710000000010000	0.210401750000000000000	0.199661110000000000000	0.188478580000000010000	0.178407420000000010000	0.170204610000000010000	0.164637140000000020000	0.161826320000000000000	0.160904660000000000000	0.161150600000000000000	0.162175149999999990000	0.163867879999999990000	0.166061190000000000000	0.168396910000000010000	0.170788090000000000000
547D	0.274897810000000020000	0.259552840000000010000	0.246099310000000020000	0.235003280000000010000	0.224716890000000000000	0.215435720000000000000	0.207036210000000000000	0.199142089999999990000	0.191643920000000000000	0.183551490000000010000	0.176450159999999990000	0.170629780000000010000	0.166284910000000010000	0.163705040000000000000	0.162599999999999990000	0.162194969999999990000	0.162479879999999990000	0.163069839999999990000	0.163954800000000010000	0.165008560000000000000	0.166184980000000010000
730D	0.249765340000000000000	0.236920300000000000000	0.225791170000000010000	0.216854270000000020000	0.208926430000000000000	0.202098720000000010000	0.195771169999999990000	0.190034730000000010000	0.184589339999999990000	0.178662359999999990000	0.173517300000000010000	0.169263200000000000000	0.165990790000000000000	0.163800000000000000000	0.162599999999999990000	0.162090790000000010000	0.162090790000000010000	0.162481590000000010000	0.163072390000000010000	0.163783130000000000000	0.164600230000000010000
1095D	0.233009350000000000000	0.222399890000000020000	0.212654189999999990000	0.204152640000000000000	0.196849520000000000000	0.190846409999999990000	0.185647979999999990000	0.181049560000000000000	0.176854260000000010000	0.172865240000000000000	0.169474680000000020000	0.166682570000000000000	0.164387310000000010000	0.162592060000000010000	0.161492059999999990000	0.160888890000000010000	0.160782570000000010000	0.161076260000000000000	0.161471530000000000000	0.161903240000000000000	0.162371729999999990000