Expiry/Strike	0.5	0.55	0.6	0.65	0.7	0.75	0.8	0.85	0.9	0.95	1.0	1.05	1.1	1.15	1.2	1.25	1.3	1.35	1.4	1.45	1.5
91D	0.370009630000000030000	0.349266740000000020000	0.329012870000000010000	0.309150560000000020000	0.288050819999999990000	0.263950820000000030000	0.236341689999999990000	0.207715620000000020000	0.181518050000000010000	0.160393520000000010000	0.143993640000000010000	0.137188610000000020000	0.141923429999999990000	0.153318270000000010000	0.167822130000000010000	0.182191170000000010000	0.195122270000000010000	0.206459010000000000000	0.216601330000000010000	0.226032029999999990000	0.234874589999999990000
182D	0.333370360000000030000	0.313862179999999990000	0.294973959999999980000	0.276664110000000020000	0.255159580000000000000	0.235945830000000000000	0.216675499999999990000	0.197281210000000010000	0.179624339999999990000	0.167362410000000020000	0.156574889999999990000	0.150510000000000000000	0.150361980000000010000	0.154420329999999990000	0.160418599999999990000	0.166942850000000000000	0.173471530000000010000	0.179841439999999990000	0.186088730000000010000	0.192087540000000000000	0.197806620000000020000
273D	0.319949849999999980000	0.300848690000000030000	0.282419809999999990000	0.264648720000000000000	0.242898580000000000000	0.225639129999999990000	0.209658840000000010000	0.193697239999999990000	0.179006400000000010000	0.169670180000000000000	0.160631260000000000000	0.154814690000000000000	0.153210580000000010000	0.154942429999999990000	0.158006600000000000000	0.161605770000000010000	0.165622620000000000000	0.169989710000000020000	0.174645860000000010000	0.179227770000000010000	0.183645620000000010000
365D	0.313099999999999990000	0.294200000000000020000	0.276000000000000020000	0.258500000000000010000	0.236600000000000000000	0.220363710000000020000	0.206100380000000000000	0.191900000000000020000	0.178700000000000000000	0.170800000000000010000	0.162599999999999990000	0.156900000000000010000	0.154600000000000020000	0.155200000000000000000	0.156799999999999990000	0.158900000000000010000	0.161600000000000020000	0.164900000000000020000	0.168700000000000020000	0.172513859999999990000	0.176222010000000010000
547D	0.282868860000000000000	0.262720400000000020000	0.247972480000000000000	0.233377710000000020000	0.218529859999999990000	0.205438120000000000000	0.195835079999999990000	0.186205740000000010000	0.176464180000000000000	0.170338490000000010000	0.164718200000000010000	0.161954190000000000000	0.158250119999999990000	0.157983509999999990000	0.158852040000000000000	0.160354849999999990000	0.162260450000000000000	0.164504390000000000000	0.166989169999999990000	0.169513730000000000000	0.172029840000000020000
730D	0.266354079999999990000	0.245348680000000010000	0.232587790000000020000	0.219645540000000000000	0.208841850000000000000	0.197497640000000000000	0.190457900000000010000	0.183272110000000020000	0.175327800000000010000	0.170105680000000010000	0.165774339999999990000	0.164439870000000020000	0.160056220000000000000	0.159366440000000000000	0.159875140000000000000	0.161082310000000010000	0.162591930000000000000	0.164304869999999990000	0.166121220000000010000	0.167983090000000000000	0.169880210000000000000
1095D	0.229437790000000000000	0.218451950000000010000	0.208737900000000000000	0.200708240000000010000	0.193884980000000010000	0.187953290000000000000	0.182842480000000000000	0.178228050000000000000	0.174007219999999990000	0.169901109999999990000	0.166396690000000010000	0.163604990000000010000	0.161591740000000010000	0.160096140000000000000	0.159303329999999990000	0.159011690000000010000	0.159219009999999990000	0.159626380000000010000	0.160233240000000000000	0.160920600000000000000	0.161648900000000010000