Expiry/Strike	0.5	0.55	0.6	0.65	0.7	0.75	0.8	0.85	0.9	0.95	1.0	1.05	1.1	1.15	1.2	1.25	1.3	1.35	1.4	1.45	1.5
91D	0.364421735199999990000	0.340515016200000020000	0.317174431799999990000	0.294148616499999960000	0.271206137100000020000	0.248126233099999980000	0.224703003500000000000	0.200788901400000000000	0.176475898300000020000	0.152782796400000000000	0.133785790000000020000	0.127656702300000010000	0.135254066199999990000	0.148538525100000010000	0.162688578599999990000	0.176223473500000010000	0.188808606400000000000	0.200438417300000000000	0.211194718799999990000	0.221174766500000010000	0.230470008800000010000
182D	0.317430734900000010000	0.298298936199999980000	0.279775969800000020000	0.261696018899999990000	0.243929993500000000000	0.226389850800000010000	0.209051529000000010000	0.192017117000000010000	0.175663687600000010000	0.160950597899999990000	0.149767879999999990000	0.144302985900000010000	0.144787147600000030000	0.149200679800000010000	0.155474903899999990000	0.162411609300000010000	0.169440624900000000000	0.176309210300000020000	0.182912572499999980000	0.189214398099999990000	0.195210183300000010000
273D	0.299232072799999970000	0.281667869400000050000	0.264765945900000020000	0.248403847699999990000	0.232507809200000000000	0.217062636499999990000	0.202137855100000010000	0.187937630700000000000	0.174877347100000020000	0.163653133600000000000	0.155170570000000010000	0.150151895200000000000	0.148616131700000010000	0.149856376000000010000	0.152930608899999990000	0.157060489799999980000	0.161726050600000000000	0.166612406400000000000	0.171537453100000010000	0.176398820400000020000	0.181140832400000010000
365D	0.290636770399999970000	0.273470569500000040000	0.257065072399999980000	0.241333484699999990000	0.226247098700000010000	0.211843578600000000000	0.198243002100000010000	0.185667523899999990000	0.174451664800000020000	0.165016120600000010000	0.157774190000000010000	0.152979630600000000000	0.150602799500000000000	0.150335481400000000000	0.151716086499999990000	0.154272410700000000000	0.157606763799999990000	0.161419754000000000000	0.165500374300000000000	0.169705670500000020000	0.173941252100000000000
547D	0.271416736800000000000	0.255394069200000020000	0.240432195299999980000	0.226491922700000010000	0.213582673799999980000	0.201754468800000000000	0.191088533400000010000	0.181684236100000010000	0.173641370300000010000	0.167039039599999990000	0.161915090000000010000	0.158251675200000000000	0.155971594500000000000	0.154946425100000010000	0.155013194100000000000	0.155993939499999980000	0.157712993199999980000	0.160009121400000010000	0.162742089000000010000	0.165794719499999990000	0.169072000400000010000
730D	0.260352595299999990000	0.245131508899999990000	0.231194703800000010000	0.218495899899999980000	0.207020495800000010000	0.196772636199999990000	0.187763362999999990000	0.179999729800000010000	0.173475500200000020000	0.168164398900000010000	0.164016770000000010000	0.160959957600000010000	0.158901983400000000000	0.157737457100000010000	0.157354362000000000000	0.157640471399999980000	0.158488548799999990000	0.159799958899999980000	0.161486719300000000000	0.163472255900000000000	0.165691221000000000000
1095D	0.226324945000000000000	0.216816470000000010000	0.208161305500000000000	0.200301180600000020000	0.193198058600000000000	0.186827122800000000000	0.181171128800000000000	0.176215684900000000000	0.171945348000000030000	0.168340609000000000000	0.165375899999999990000	0.163018712000000010000	0.161229786600000010000	0.159964203599999990000	0.159173073899999990000	0.158805502200000000000	0.158810514600000010000	0.159138726499999990000	0.159743625199999990000	0.160582433100000000000	0.161616584300000000000