Expiry/Strike	0.5	0.55	0.6	0.65	0.7	0.75	0.8	0.85	0.9	0.95	1.0	1.05	1.1	1.15	1.2	1.25	1.3	1.35	1.4	1.45	1.5
91D	0.453720300000000020000	0.415952470000000020000	0.380953590000000010000	0.350193560000000010000	0.324098229999999990000	0.301535429999999990000	0.280470649999999990000	0.258502080000000020000	0.234339540000000010000	0.209629650000000000000	0.185858980000000010000	0.165516379999999990000	0.154755499999999990000	0.156599810000000010000	0.162623460000000000000	0.170548560000000020000	0.179574089999999990000	0.189758979999999990000	0.200344620000000000000	0.210447940000000000000	0.219916710000000020000
182D	0.405956810000000000000	0.379323220000000020000	0.353012930000000000000	0.327557900000000010000	0.303036770000000010000	0.280459689999999980000	0.257930510000000000000	0.238188979999999990000	0.219634440000000010000	0.201724370000000010000	0.185122289999999990000	0.171748459999999990000	0.164331520000000010000	0.163004110000000010000	0.165518150000000000000	0.170342190000000000000	0.176254660000000010000	0.182951260000000000000	0.190218580000000000000	0.197323510000000010000	0.204090050000000000000
273D	0.372712980000000030000	0.352036100000000020000	0.330882550000000000000	0.309317029999999990000	0.285314789999999980000	0.263795669999999980000	0.241929810000000000000	0.226869790000000020000	0.212583780000000000000	0.198035250000000000000	0.184729940000000010000	0.174046620000000010000	0.167700600000000010000	0.165789180000000010000	0.166106040000000010000	0.167687300000000010000	0.170237360000000000000	0.173604029999999990000	0.177728479999999990000	0.181953010000000000000	0.186101750000000010000
365D	0.350111129999999990000	0.332122470000000000000	0.313612220000000000000	0.294373290000000010000	0.272626519999999980000	0.252348699999999980000	0.232445500000000000000	0.219988010000000010000	0.207646650000000020000	0.195284600000000000000	0.184043520000000020000	0.174960260000000010000	0.169161460000000010000	0.166800100000000010000	0.166080630000000010000	0.166342640000000010000	0.167486340000000010000	0.169353490000000000000	0.171926479999999990000	0.174676059999999990000	0.177456890000000010000
547D	0.317979120000000000000	0.301520679999999990000	0.285382609999999980000	0.268993370000000010000	0.253577400000000010000	0.235901810000000020000	0.221162150000000000000	0.211450650000000020000	0.200429219999999990000	0.191038870000000000000	0.182498529999999990000	0.175401909999999990000	0.170155300000000010000	0.167076119999999990000	0.165473530000000010000	0.165073490000000020000	0.165500260000000010000	0.166430369999999990000	0.167791589999999990000	0.169321589999999990000	0.170946309999999990000
730D	0.297335560000000000000	0.282032960000000000000	0.267544700000000020000	0.253244179999999990000	0.241492089999999990000	0.226189000000000000000	0.214648120000000000000	0.206544420000000010000	0.196681400000000010000	0.188934380000000010000	0.181876780000000020000	0.175869749999999990000	0.171025240000000000000	0.167677350000000000000	0.165651369999999990000	0.164860449999999990000	0.164869839999999990000	0.165305320000000010000	0.166028120000000000000	0.166903849999999990000	0.167896950000000020000
1095D	0.259289040000000030000	0.247320730000000020000	0.236519160000000010000	0.227301480000000000000	0.219183830000000000000	0.212081040000000000000	0.205518609999999990000	0.199553280000000000000	0.193530380000000000000	0.187647580000000010000	0.182370410000000010000	0.177773970000000000000	0.174041590000000000000	0.171093910000000020000	0.168914380000000000000	0.167500760000000000000	0.166866740000000010000	0.166814530000000020000	0.166978729999999990000	0.167249680000000010000	0.167616660000000000000