Expiry/Strike	0.5	0.55	0.6	0.65	0.7	0.75	0.8	0.85	0.9	0.95	1.0	1.05	1.1	1.15	1.2	1.25	1.3	1.35	1.4	1.45	1.5
91D	0.352815173000000040000	0.329738576100000010000	0.307213219099999990000	0.284997257700000010000	0.262868548500000020000	0.240615949899999990000	0.218043834100000000000	0.195015146700000000000	0.171629606900000010000	0.148902588100000010000	0.130899760000000000000	0.125798288799999990000	0.134221710300000020000	0.147978258200000020000	0.162378160200000010000	0.176051833100000000000	0.188719158499999980000	0.200400364000000000000	0.211190170699999990000	0.221192742200000010000	0.230503454200000010000
182D	0.319476874000000020000	0.300001026899999970000	0.281122424900000000000	0.262667306300000010000	0.244496563700000000000	0.226508877299999990000	0.208662416300000010000	0.191037510500000010000	0.173996457800000000000	0.158545102299999990000	0.146831390000000010000	0.141520320200000020000	0.142892480000000020000	0.148449776200000020000	0.155802345900000000000	0.163673864199999990000	0.171503283000000010000	0.179062958200000010000	0.186270905999999990000	0.193108555000000020000	0.199584737000000010000
273D	0.304415459200000020000	0.286330005300000020000	0.268887312500000030000	0.251951582100000020000	0.235432893900000020000	0.219296561199999990000	0.203590826900000020000	0.188505203699999980000	0.174473590200000000000	0.162301133399999990000	0.153142809999999990000	0.147992858200000020000	0.146881005600000000000	0.148843212800000010000	0.152687202800000000000	0.157514331699999980000	0.162774584400000010000	0.168159710800000000000	0.173503839100000000000	0.178720659400000010000	0.183767796299999980000
365D	0.297409172999999970000	0.279679546400000030000	0.262665931100000030000	0.246263258599999980000	0.230422692000000010000	0.215162372699999990000	0.200590666300000000000	0.186941674199999990000	0.174611818700000000000	0.164158046600000000000	0.156186369999999990000	0.151104113999999980000	0.148886389500000020000	0.149084625600000020000	0.151058803299999990000	0.154206266799999990000	0.158063431900000000000	0.162310145500000000000	0.166737749200000010000	0.171214637300000000000	0.175659703500000010000
547D	0.271676440600000010000	0.256298879900000000000	0.241746619499999980000	0.227967863700000000000	0.214967292600000000000	0.202807930500000010000	0.191612975999999990000	0.181560704800000000000	0.172863135000000000000	0.165721892400000010000	0.160268070000000010000	0.156511764299999990000	0.154330665000000010000	0.153503607800000000000	0.153766171799999990000	0.154859660399999990000	0.156559683300000000000	0.158685835000000000000	0.161099886400000000000	0.163699096500000000000	0.166408569199999990000
730D	0.255858950799999980000	0.242027467000000000000	0.229113341500000010000	0.217089815899999980000	0.205976686900000010000	0.195832289500000010000	0.186741534999999990000	0.178797341400000000000	0.172076059600000030000	0.166612453800000000000	0.162383200000000010000	0.159305725900000000000	0.157251929600000010000	0.156069588499999990000	0.155602957600000010000	0.155707409200000010000	0.156257150999999980000	0.157147533399999980000	0.158294067999999980000	0.159629890299999990000	0.161102771400000010000
1095D	0.226130337800000000000	0.216514376200000000000	0.207770251900000010000	0.199848733599999990000	0.192720743599999990000	0.186369287599999990000	0.180782540199999980000	0.175947887700000000000	0.171847142000000010000	0.168453306400000000000	0.165729180000000000000	0.163627806100000000000	0.162094421000000020000	0.161069312500000010000	0.160490936000000000000	0.160298747500000010000	0.160435425100000000000	0.160848363200000010000	0.161490483699999990000	0.162320494600000000000	0.163302752500000010000