Expiry/Strike	0.5	0.55	0.6	0.65	0.7	0.75	0.8	0.85	0.9	0.95	1.0	1.05	1.1	1.15	1.2	1.25	1.3	1.35	1.4	1.45	1.5
91D	0.448807369999999980000	0.423678380000000020000	0.394870830000000010000	0.361679890000000000000	0.328641210000000020000	0.298297220000000030000	0.270693330000000010000	0.244107629999999990000	0.217301390000000010000	0.191569620000000000000	0.167443399999999990000	0.149501570000000000000	0.145048819999999990000	0.151235260000000010000	0.161961130000000010000	0.174472860000000010000	0.187525290000000010000	0.199923970000000010000	0.211298610000000000000	0.221888969999999990000	0.231793930000000010000
182D	0.391033350000000000000	0.373006669999999980000	0.350698310000000010000	0.323409480000000030000	0.294669850000000010000	0.267692140000000020000	0.247259460000000010000	0.227453469999999990000	0.208645550000000010000	0.190494370000000000000	0.173718240000000000000	0.160798749999999990000	0.154972350000000010000	0.155415119999999990000	0.159138560000000010000	0.164446250000000020000	0.170999660000000000000	0.178152499999999990000	0.185494960000000010000	0.192585930000000020000	0.199329890000000010000
273D	0.358516590000000020000	0.346665449999999990000	0.329174699999999990000	0.305025329999999980000	0.276990120000000010000	0.250253439999999990000	0.234480650000000010000	0.219407740000000020000	0.205100310000000010000	0.190415439999999990000	0.176803140000000000000	0.165833430000000000000	0.159356820000000010000	0.157412460000000000000	0.157351720000000000000	0.158407700000000010000	0.160775809999999990000	0.164092180000000000000	0.168194719999999990000	0.172392060000000010000	0.176502930000000000000
365D	0.338289080000000020000	0.327422350000000030000	0.311741529999999990000	0.290170419999999980000	0.265482319999999990000	0.240870430000000000000	0.227266070000000010000	0.212778630000000000000	0.200490290000000020000	0.188074460000000000000	0.176656769999999990000	0.167279640000000010000	0.161162730000000000000	0.158460500000000000000	0.157419590000000000000	0.157469429999999990000	0.158670129999999990000	0.160664320000000000000	0.163385809999999990000	0.166272649999999990000	0.169169910000000010000
547D	0.314029380000000020000	0.302472020000000010000	0.288241609999999980000	0.270245940000000020000	0.251482670000000020000	0.230645430000000010000	0.219181920000000000000	0.203978730000000000000	0.193678090000000000000	0.184062620000000010000	0.175388889999999990000	0.168090090000000000000	0.162782719999999990000	0.159574610000000010000	0.158128760000000010000	0.157925410000000020000	0.158619450000000000000	0.159751580000000000000	0.161305360000000010000	0.163019900000000000000	0.164814700000000010000
730D	0.293825229999999990000	0.281855130000000010000	0.268736089999999980000	0.253660410000000000000	0.238984310000000010000	0.222079490000000020000	0.212370229999999990000	0.198825900000000000000	0.190135920000000010000	0.182189690000000020000	0.175128869999999990000	0.169090209999999990000	0.164429010000000010000	0.161242310000000000000	0.159642480000000000000	0.159257150000000010000	0.159650630000000020000	0.160344370000000010000	0.161338360000000010000	0.162484750000000010000	0.163732480000000010000
1095D	0.251258409999999990000	0.238879189999999990000	0.227954880000000000000	0.218973980000000010000	0.211174140000000010000	0.204394920000000010000	0.198275740000000010000	0.192596430000000010000	0.187096450000000000000	0.181475310000000000000	0.176615010000000020000	0.172455230000000010000	0.169135659999999990000	0.166715680000000000000	0.165035469999999990000	0.164195340000000000000	0.164015830000000000000	0.164156920000000010000	0.164618370000000010000	0.165217990000000010000	0.165898519999999990000