Expiry/Strike	0.5	0.55	0.6	0.65	0.7	0.75	0.8	0.85	0.9	0.95	1.0	1.05	1.1	1.15	1.2	1.25	1.3	1.35	1.4	1.45	1.5
91D	0.448055722599999980000	0.418079645700000060000	0.388865248300000020000	0.360127938599999970000	0.331626453900000010000	0.303163617700000000000	0.274610914400000020000	0.245983285299999990000	0.217626080300000000000	0.190624357600000020000	0.167443399999999990000	0.151955507299999990000	0.146984742900000020000	0.151304305899999990000	0.161163227200000010000	0.173414763700000000000	0.186307827699999980000	0.199028432700000010000	0.211238201599999980000	0.222819403500000010000	0.233753181800000020000
182D	0.395232634100000040000	0.369398407900000000000	0.344408079400000010000	0.320074300699999980000	0.296275458599999990000	0.272967552300000030000	0.250216116200000000000	0.228255364999999990000	0.207576195700000020000	0.189012705799999990000	0.173718240000000000000	0.162859848199999990000	0.157049873000000010000	0.155968810500000000000	0.158581006499999980000	0.163674341600000000000	0.170238517000000010000	0.177566536500000010000	0.185208704600000000000	0.192894440000000000000	0.200467385400000000000
273D	0.366898375999999970000	0.343179648600000000000	0.320434411300000000000	0.298540226599999960000	0.277449037200000030000	0.257194356500000000000	0.237905729300000010000	0.219824895999999990000	0.203311233700000010000	0.188815701799999990000	0.176803140000000000000	0.167627872500000000000	0.161412768400000020000	0.158002236299999990000	0.157016544099999990000	0.157966025799999990000	0.160359759999999990000	0.163771787000000000000	0.167864527700000020000	0.172385523600000010000	0.177152937400000020000
365D	0.346525811500000000000	0.324734838700000030000	0.303938613199999990000	0.284038884600000040000	0.265007025399999980000	0.246886666399999980000	0.229799376899999990000	0.213947310499999990000	0.199603302799999990000	0.187077568000000000000	0.176656769999999990000	0.168528692700000010000	0.162723706700000000000	0.159102674300000000000	0.157395051300000010000	0.157263366599999980000	0.158364050600000000000	0.160387563500000000000	0.163076332800000000000	0.166227049600000010000	0.169684793899999990000
547D	0.319758654599999970000	0.300988134299999990000	0.283126222600000030000	0.266087443400000010000	0.249846580500000000000	0.234440163700000010000	0.219970129399999990000	0.206603991900000010000	0.194562926800000010000	0.184088786199999990000	0.175388889999999990000	0.168574511799999990000	0.163622350700000000000	0.160379632400000000000	0.158606423499999980000	0.158029566300000010000	0.158385716399999990000	0.159445438800000010000	0.161021306100000010000	0.162966381700000000000	0.165168444100000010000
730D	0.297452416700000000000	0.281296868200000050000	0.265988614700000010000	0.251452226900000020000	0.237662736500000000000	0.224644972100000010000	0.212474338999999980000	0.201274682800000020000	0.191207147500000010000	0.182444200099999980000	0.175128869999999990000	0.169330995700000010000	0.165020896700000000000	0.162074366400000000000	0.160304003200000020000	0.159498623099999990000	0.159454716800000010000	0.159994177800000000000	0.160970386400000000000	0.162267235400000010000	0.163794976600000000000
1095D	0.247685209800000000000	0.238180570500000020000	0.229271194200000000000	0.220893153300000010000	0.213007982299999980000	0.205599904800000010000	0.198674811700000010000	0.192259875599999990000	0.186402252400000000000	0.181164615199999990000	0.176615010000000020000	0.172810154900000010000	0.169775840799999990000	0.167493068600000020000	0.165897987700000000000	0.164895622300000020000	0.164379210400000000000	0.164246317000000000000	0.164407926700000010000	0.164791357200000020000	0.165339477500000000000