Expiry/Strike	0.5	0.55	0.6	0.65	0.7	0.75	0.8	0.85	0.9	0.95	1.0	1.05	1.1	1.15	1.2	1.25	1.3	1.35	1.4	1.45	1.5
91D	0.324212280000000020000	0.306411319999999990000	0.288912969999999990000	0.271601729999999990000	0.253058480000000030000	0.231630910000000000000	0.208028700000000010000	0.184814120000000000000	0.164625590000000020000	0.148837950000000000000	0.137175670000000000000	0.132331709999999990000	0.134970810000000000000	0.142604150000000010000	0.153189340000000010000	0.164417780000000010000	0.174809109999999990000	0.184207900000000010000	0.192716930000000010000	0.200641470000000020000	0.208076920000000000000
182D	0.285472950000000000000	0.270554620000000020000	0.255462620000000030000	0.239891830000000000000	0.222334280000000000000	0.204156339999999990000	0.186228380000000000000	0.171796880000000010000	0.160615300000000020000	0.151784680000000010000	0.145374770000000010000	0.142305210000000020000	0.142754570000000000000	0.145589429999999990000	0.150336429999999990000	0.156681950000000010000	0.163987059999999990000	0.171405439999999990000	0.178565830000000010000	0.185312860000000000000	0.191633000000000000000
273D	0.266263719999999980000	0.253254280000000000000	0.239362130000000010000	0.225544700000000010000	0.209836150000000000000	0.197165060000000000000	0.180523500000000000000	0.171045830000000010000	0.163600820000000010000	0.157367999999999980000	0.152956500000000000000	0.150772160000000020000	0.150877530000000010000	0.152585190000000010000	0.155582020000000020000	0.159429380000000010000	0.163893030000000000000	0.168511240000000010000	0.173138610000000000000	0.177614420000000000000	0.181897940000000010000
365D	0.255836280000000030000	0.243890870000000010000	0.230655169999999990000	0.217807820000000010000	0.203117390000000010000	0.193475609999999990000	0.177521770000000000000	0.170658740000000000000	0.165113430000000010000	0.160160370000000000000	0.156708519999999990000	0.154941660000000010000	0.154884570000000000000	0.156056880000000010000	0.158208950000000010000	0.160822419999999990000	0.163844700000000010000	0.167005050000000020000	0.170283540000000010000	0.173527180000000000000	0.176688860000000000000
547D	0.244206630000000010000	0.233369049999999990000	0.220957569999999990000	0.209295590000000000000	0.195990930000000010000	0.189424440000000000000	0.174704909999999990000	0.170393700000000010000	0.166673409999999990000	0.162974139999999990000	0.160450520000000010000	0.159112120000000000000	0.158943060000000000000	0.159658510000000000000	0.161058410000000010000	0.162573810000000010000	0.164284030000000000000	0.166083890000000010000	0.168068230000000010000	0.170109450000000000000	0.172162879999999990000
730D	0.223885690000000000000	0.213838959999999990000	0.203894159999999990000	0.195339700000000000000	0.187136660000000010000	0.182266520000000020000	0.174764680000000010000	0.171531160000000020000	0.168771800000000000000	0.166277719999999990000	0.164661010000000000000	0.164049900000000000000	0.164244969999999990000	0.165142410000000020000	0.166541930000000000000	0.168239140000000010000	0.170070390000000020000	0.171869739999999990000	0.173671360000000000000	0.175494470000000010000	0.177338350000000010000
1095D	0.208777149999999990000	0.200108940000000010000	0.192500709999999990000	0.186437010000000010000	0.181813060000000000000	0.178314090000000010000	0.175638530000000010000	0.173387130000000000000	0.171596539999999990000	0.170326930000000020000	0.169698900000000010000	0.169743770000000020000	0.170345520000000000000	0.171465499999999990000	0.172882050000000010000	0.174655410000000010000	0.176528940000000000000	0.178345649999999990000	0.180083930000000000000	0.181781799999999990000	0.183450720000000010000