Expiry/Strike	0.5	0.55	0.6	0.65	0.7	0.75	0.8	0.85	0.9	0.95	1.0	1.05	1.1	1.15	1.2	1.25	1.3	1.35	1.4	1.45	1.5
91D	0.342325500000000000000	0.323855920000000020000	0.305433190000000020000	0.286555370000000030000	0.265245200000000010000	0.241656850000000010000	0.217087350000000010000	0.193561380000000010000	0.172946960000000010000	0.155933710000000000000	0.142455420000000000000	0.135399899999999990000	0.136622150000000000000	0.143178680000000000000	0.153047160000000020000	0.164059800000000010000	0.174826970000000000000	0.184694160000000000000	0.193661379999999990000	0.202013480000000000000	0.209839210000000000000
182D	0.291804950000000010000	0.276239689999999980000	0.259701039999999990000	0.241822449999999990000	0.223225289999999990000	0.205109480000000010000	0.188355020000000010000	0.173742160000000010000	0.161689320000000000000	0.151675460000000010000	0.143620790000000000000	0.138783250000000000000	0.137841600000000010000	0.139616939999999990000	0.143430720000000010000	0.148565880000000010000	0.154901600000000000000	0.161599080000000010000	0.168237520000000000000	0.174543000000000000000	0.180470570000000000000
273D	0.271408330000000030000	0.256961949999999990000	0.241640190000000000000	0.225253360000000010000	0.208881650000000000000	0.193643260000000010000	0.180423690000000000000	0.169509590000000020000	0.160416290000000020000	0.152121430000000000000	0.145460120000000000000	0.141699850000000020000	0.141272299999999990000	0.142824530000000010000	0.145335839999999990000	0.148576180000000000000	0.152851190000000000000	0.157728810000000000000	0.163126180000000010000	0.168399980000000000000	0.173384999999999980000
365D	0.256917970000000000000	0.243559350000000010000	0.229474240000000000000	0.214523650000000010000	0.199777570000000020000	0.186549500000000010000	0.175526270000000010000	0.166694449999999990000	0.159149349999999990000	0.152195379999999990000	0.146946350000000000000	0.144293000000000000000	0.144516440000000000000	0.146639940000000000000	0.149554049999999990000	0.152663450000000010000	0.156453979999999990000	0.160635119999999990000	0.165311640000000010000	0.169925760000000010000	0.174320389999999990000
547D	0.232350960000000000000	0.220757330000000000000	0.209100000000000010000	0.197400000000000020000	0.186200000000000000000	0.176800000000000010000	0.169200000000000020000	0.163300000000000000000	0.158000000000000000000	0.153200000000000000000	0.149700000000000000000	0.148100000000000010000	0.148300000000000020000	0.149999999999999990000	0.152300000000000020000	0.154800000000000020000	0.157500000000000000000	0.160300000000000000000	0.163500000000000010000	0.166719900000000000000	0.169838099999999990000
730D	0.208688500000000000000	0.198589470000000020000	0.189444150000000010000	0.181595100000000010000	0.174754949999999990000	0.169306730000000020000	0.164944420000000010000	0.161273600000000020000	0.157900000000000010000	0.154820640000000010000	0.152435440000000010000	0.151135440000000010000	0.150626550000000000000	0.150811780000000010000	0.151691180000000010000	0.152773600000000010000	0.153956080000000000000	0.155335730000000010000	0.156815450000000000000	0.158326799999999990000	0.159859279999999990000
1095D	0.194581649999999990000	0.185804360000000000000	0.178300000000000010000	0.172600000000000000000	0.168400000000000020000	0.165400000000000020000	0.163000000000000010000	0.161000000000000000000	0.159200000000000010000	0.157900000000000010000	0.156900000000000010000	0.156200000000000010000	0.155799999999999990000	0.155600000000000020000	0.155900000000000010000	0.156400000000000010000	0.157100000000000020000	0.157800000000000000000	0.158500000000000000000	0.159197540000000000000	0.159887850000000000000