Expiry/Strike	0.5	0.55	0.6	0.65	0.7	0.75	0.8	0.85	0.9	0.95	1.0	1.05	1.1	1.15	1.2	1.25	1.3	1.35	1.4	1.45	1.5
91D	0.367270570500000000000	0.343294033200000010000	0.319898146399999970000	0.296834397499999960000	0.273876629500000020000	0.250813532700000010000	0.227456496799999990000	0.203691021600000020000	0.179674393700000020000	0.156542487000000010000	0.138421710000000000000	0.132931112500000000000	0.140525603800000010000	0.153657420200000010000	0.167720789000000010000	0.181236012199999990000	0.193844173700000010000	0.205522151600000010000	0.216341083699999990000	0.226391859599999990000	0.235762083700000010000
182D	0.340384791500000010000	0.318160090499999990000	0.296592291199999970000	0.275501209100000030000	0.254758181300000000000	0.234299827000000020000	0.214169653200000000000	0.194611722800000000000	0.176253304100000010000	0.160372368200000000000	0.148971789999999990000	0.143923665400000010000	0.145340317300000020000	0.151421635799999980000	0.160015956600000010000	0.169628455200000000000	0.179441624500000010000	0.189058485799999980000	0.198303683499999990000	0.207112030200000020000	0.215471666399999980000
273D	0.319820695400000020000	0.299848972199999950000	0.280591485300000050000	0.261917216100000020000	0.243755862500000000000	0.226113721200000010000	0.209110026600000000000	0.193040097500000010000	0.178458132400000020000	0.166217322500000010000	0.157307720000000010000	0.152383269900000010000	0.151307465300000000000	0.153249774399999980000	0.157189270599999990000	0.162285098699999990000	0.167965578800000010000	0.173877792200000020000	0.179814771900000000000	0.185659415599999990000	0.191348201200000010000
365D	0.307057897099999980000	0.288326759000000040000	0.270373671400000020000	0.253102583599999990000	0.236483319300000020000	0.220564633200000000000	0.205498242300000020000	0.191568513000000000000	0.179207558600000010000	0.168951628999999990000	0.161293570000000000000	0.156467112599999990000	0.154319152299999980000	0.154386129799999990000	0.156091864400000000000	0.158909710399999990000	0.162430115200000000000	0.166361987300000010000	0.170508587900000010000	0.174740771900000010000	0.178975422100000000000
547D	0.272208056199999990000	0.257589109900000000000	0.243786442400000000000	0.230740500600000010000	0.218440091199999990000	0.206921998200000010000	0.196271757500000000000	0.186621470900000000000	0.178138866200000020000	0.171001806900000030000	0.165357560000000010000	0.161277346800000000000	0.158726611699999990000	0.157567448400000000000	0.157591003600000000000	0.158561362200000000000	0.160252070900000020000	0.162467152700000010000	0.165048194600000000000	0.167872808200000000000	0.170849243600000010000
730D	0.253111124600000010000	0.240706768999999990000	0.229189523199999990000	0.218502458500000000000	0.208621025500000000000	0.199546526600000000000	0.191300362400000010000	0.183917894199999990000	0.177441214800000020000	0.171910685900000000000	0.167355830000000010000	0.163786892699999990000	0.161188782199999990000	0.159518837299999990000	0.158708943999999990000	0.158671307699999990000	0.159306272300000000000	0.160510341899999990000	0.162182963900000000000	0.164231344199999990000	0.166573215900000020000
1095D	0.227450789399999990000	0.219255234400000000000	0.211607669300000000000	0.204458475800000010000	0.197783204800000000000	0.191580895400000010000	0.185873580300000010000	0.180705038399999990000	0.176135755000000000000	0.172230486400000020000	0.169037380000000010000	0.166565024100000010000	0.164770654300000010000	0.163568187300000000000	0.162850193000000000000	0.162509902900000000000	0.162454525900000010000	0.162609645599999990000	0.162918273700000000000	0.163337821600000020000	0.163836812900000020000