Expiry/Strike	0.5	0.55	0.6	0.65	0.7	0.75	0.8	0.85	0.9	0.95	1.0	1.05	1.1	1.15	1.2	1.25	1.3	1.35	1.4	1.45	1.5
91D	0.327758080000000010000	0.309565950000000030000	0.291748369999999980000	0.274160020000000000000	0.255352370000000000000	0.234321699999999990000	0.210925720000000010000	0.186698940000000010000	0.165219590000000000000	0.148414540000000010000	0.136270809999999990000	0.131474940000000010000	0.134918650000000000000	0.143727460000000000000	0.155353220000000010000	0.167026060000000000000	0.178018290000000000000	0.187910529999999990000	0.196802770000000020000	0.205071190000000010000	0.212821979999999990000
182D	0.269098129999999990000	0.254359110000000000000	0.239240070000000000000	0.223725970000000000000	0.208470650000000010000	0.193706770000000000000	0.179906559999999990000	0.167846100000000000000	0.158061680000000010000	0.150132180000000000000	0.143887309999999990000	0.140255750000000010000	0.139502030000000000000	0.140897030000000010000	0.143695280000000010000	0.147565950000000000000	0.152174460000000010000	0.156967190000000010000	0.162025720000000010000	0.166967740000000000000	0.171749550000000000000
273D	0.248280250000000010000	0.235093390000000010000	0.221251090000000010000	0.206781960000000010000	0.193132749999999990000	0.181123930000000020000	0.171266800000000000000	0.163381740000000000000	0.156745880000000000000	0.150787090000000010000	0.145999030000000000000	0.143194030000000000000	0.142544229999999990000	0.143154250000000010000	0.144380819999999990000	0.146222910000000010000	0.148751400000000010000	0.151879860000000010000	0.155537239999999990000	0.159189849999999990000	0.162703249999999990000
365D	0.237007350000000010000	0.224807079999999990000	0.212160340000000000000	0.199215630000000000000	0.187492679999999990000	0.177679820000000020000	0.169852270000000000000	0.163706400000000000000	0.158354610000000010000	0.153493519999999990000	0.149632760000000000000	0.147552510000000000000	0.147255810000000010000	0.148152499999999990000	0.149449190000000010000	0.151142589999999990000	0.153322889999999990000	0.155803280000000020000	0.158770780000000000000	0.161787480000000010000	0.164721900000000000000
547D	0.219653800000000010000	0.208754280000000010000	0.198100000000000000000	0.188100000000000020000	0.179900000000000000000	0.173600000000000000000	0.168700000000000020000	0.164600000000000000000	0.161000000000000000000	0.157700000000000010000	0.155100000000000020000	0.153700000000000000000	0.153300000000000020000	0.153800000000000020000	0.154800000000000020000	0.156000000000000000000	0.157400000000000010000	0.159000000000000000000	0.160700000000000010000	0.162437460000000010000	0.164201509999999990000
730D	0.209727400000000010000	0.199637070000000000000	0.190700000000000010000	0.183400000000000010000	0.177500000000000020000	0.172900000000000000000	0.169200000000000020000	0.166000000000000010000	0.163200000000000010000	0.160400000000000010000	0.158200000000000010000	0.156799999999999990000	0.156100000000000020000	0.156100000000000020000	0.156500000000000000000	0.157200000000000010000	0.158200000000000010000	0.159100000000000020000	0.160200000000000010000	0.161402170000000010000	0.162649290000000000000
1095D	0.205634080000000000000	0.196263340000000010000	0.188100000000000020000	0.181600000000000010000	0.176300000000000010000	0.172100000000000000000	0.168899999999999990000	0.166100000000000000000	0.163900000000000020000	0.162000000000000010000	0.160600000000000020000	0.159900000000000010000	0.159600000000000020000	0.159700000000000010000	0.160400000000000010000	0.161300000000000000000	0.162400000000000020000	0.163500000000000010000	0.164700000000000010000	0.165895370000000010000	0.167048090000000010000