Expiry/Strike	0.5	0.55	0.6	0.65	0.7	0.75	0.8	0.85	0.9	0.95	1.0	1.05	1.1	1.15	1.2	1.25	1.3	1.35	1.4	1.45	1.5
91D	0.372969940000000000000	0.352115230000000000000	0.331463090000000020000	0.310861940000000000000	0.289166040000000010000	0.265414150000000020000	0.239260200000000010000	0.211810980000000010000	0.186804580000000000000	0.166984650000000010000	0.152170150000000000000	0.144443210000000020000	0.148749560000000000000	0.159609380000000000000	0.173488090000000010000	0.187285250000000010000	0.199898620000000000000	0.211456110000000000000	0.221860180000000020000	0.231512450000000010000	0.240553460000000000000
182D	0.345979370000000010000	0.326980480000000020000	0.307896229999999990000	0.288396839999999990000	0.266863779999999990000	0.243830160000000020000	0.220172960000000000000	0.199858289999999990000	0.183272250000000000000	0.169118579999999990000	0.157804950000000000000	0.149837379999999990000	0.149701649999999990000	0.154436740000000020000	0.161910909999999990000	0.170883280000000000000	0.180241240000000000000	0.189422289999999990000	0.197890790000000010000	0.205798970000000000000	0.213232050000000010000
273D	0.331485380000000000000	0.312716900000000020000	0.293936250000000010000	0.275084200000000000000	0.254570540000000010000	0.234572130000000020000	0.213208349999999990000	0.197429230000000010000	0.184890040000000010000	0.172890580000000020000	0.162759640000000010000	0.155650879999999990000	0.153634360000000000000	0.155353629999999990000	0.158725229999999990000	0.162994210000000000000	0.167917929999999990000	0.173315770000000010000	0.178867970000000020000	0.184247970000000010000	0.189394310000000010000
365D	0.319213430000000020000	0.300866880000000000000	0.282758630000000010000	0.265007439999999980000	0.246098320000000010000	0.227797580000000000000	0.209014499999999990000	0.196162640000000000000	0.185023780000000000000	0.174370680000000000000	0.165141780000000020000	0.158573510000000000000	0.155728720000000010000	0.155926879999999990000	0.157359210000000000000	0.159479890000000010000	0.162262250000000000000	0.165707529999999990000	0.169616970000000010000	0.173527359999999990000	0.177331779999999990000
547D	0.290164320000000030000	0.273298309999999990000	0.257704500000000000000	0.243802250000000000000	0.230311080000000000000	0.214144450000000010000	0.202699070000000010000	0.194754790000000010000	0.183032030000000010000	0.174663999999999990000	0.167373860000000010000	0.161747520000000010000	0.158314060000000010000	0.156865960000000000000	0.156772920000000010000	0.157722510000000010000	0.159160600000000010000	0.161089450000000000000	0.163311470000000010000	0.165599830000000000000	0.167907850000000000000
730D	0.272344060000000000000	0.256599499999999980000	0.242648660000000020000	0.231047000000000000000	0.220630710000000010000	0.206248260000000020000	0.198638509999999990000	0.193109710000000020000	0.181714610000000000000	0.174648150000000000000	0.168459450000000010000	0.163430590000000010000	0.159834270000000000000	0.157669030000000020000	0.156843010000000000000	0.157156510000000000000	0.157887670000000010000	0.159010600000000000000	0.160342440000000000000	0.161763610000000000000	0.163255500000000000000
1095D	0.233606210000000010000	0.222723179999999990000	0.213080460000000000000	0.205070699999999990000	0.198051220000000000000	0.192136640000000000000	0.186760960000000000000	0.182080460000000000000	0.177519580000000010000	0.173083510000000000000	0.169247920000000000000	0.166097820000000010000	0.163637969999999990000	0.161863180000000000000	0.160768250000000000000	0.160168260000000010000	0.160153140000000000000	0.160443060000000000000	0.161022950000000000000	0.161701039999999990000	0.162419410000000010000