Expiry/Strike	0.5	0.55	0.6	0.65	0.7	0.75	0.8	0.85	0.9	0.95	1.0	1.05	1.1	1.15	1.2	1.25	1.3	1.35	1.4	1.45	1.5
91D	0.485804820000000030000	0.453159650000000020000	0.418768380000000000000	0.383051240000000020000	0.351035710000000000000	0.322655609999999980000	0.296098900000000000000	0.269036940000000000000	0.239928830000000010000	0.212770490000000010000	0.186835599999999990000	0.166226330000000010000	0.158317039999999990000	0.162122880000000000000	0.171307900000000010000	0.182470190000000000000	0.194730890000000020000	0.207030880000000000000	0.218696350000000010000	0.229637900000000010000	0.239887960000000010000
182D	0.400011769999999990000	0.371154580000000010000	0.344265949999999990000	0.320107310000000030000	0.298493380000000030000	0.278165050000000020000	0.257766979999999980000	0.237667190000000000000	0.215487459999999990000	0.197138120000000000000	0.179982489999999990000	0.165856549999999990000	0.157803130000000010000	0.155931160000000010000	0.158635040000000000000	0.164028370000000010000	0.170404009999999990000	0.177441280000000010000	0.184962610000000000000	0.192280370000000010000	0.199230920000000010000
273D	0.347378620000000030000	0.325137490000000030000	0.304748310000000020000	0.286842770000000020000	0.270336999999999990000	0.254729610000000000000	0.239398250000000010000	0.224584410000000010000	0.207359370000000020000	0.193106270000000000000	0.179934870000000000000	0.168961970000000020000	0.161820600000000010000	0.158701719999999990000	0.158730290000000000000	0.160518980000000010000	0.163134840000000000000	0.166494930000000010000	0.170511269999999990000	0.174618210000000000000	0.178661850000000010000
365D	0.317978970000000030000	0.299635219999999980000	0.283050980000000010000	0.268773099999999990000	0.255181810000000010000	0.242233330000000000000	0.229717919999999990000	0.217786390000000000000	0.203196530000000010000	0.191069700000000010000	0.179911190000000000000	0.170485150000000000000	0.163781680000000010000	0.160061590000000000000	0.158777640000000000000	0.158744990000000000000	0.159396760000000000000	0.160774450000000010000	0.162848369999999990000	0.165133630000000000000	0.167495800000000000000
547D	0.280109490000000020000	0.265967970000000000000	0.253372060000000010000	0.242781620000000000000	0.232741100000000010000	0.223335659999999990000	0.214447620000000010000	0.206095950000000000000	0.196167740000000010000	0.187367400000000020000	0.179411519999999990000	0.172585839999999990000	0.167350169999999990000	0.163850720000000010000	0.161905629999999990000	0.160823820000000010000	0.160387530000000000000	0.160515159999999990000	0.161117239999999990000	0.161928779999999990000	0.162878390000000010000
730D	0.255746850000000030000	0.243981969999999990000	0.233586790000000020000	0.224978290000000000000	0.217188800000000020000	0.210164200000000000000	0.203648689999999990000	0.197570240000000010000	0.191140869999999990000	0.184667980000000010000	0.178934640000000010000	0.173924550000000010000	0.169890770000000000000	0.166861250000000020000	0.164873200000000000000	0.163620390000000000000	0.163055800000000000000	0.162926729999999990000	0.163057340000000000000	0.163347949999999990000	0.163774110000000000000
1095D	0.239970250000000000000	0.229761290000000010000	0.220222740000000000000	0.211719830000000000000	0.204440500000000000000	0.198322550000000010000	0.192981930000000000000	0.188196599999999990000	0.183617940000000010000	0.179209100000000010000	0.175476540000000010000	0.172248619999999990000	0.169497500000000000000	0.167267720000000010000	0.165645400000000000000	0.164554010000000000000	0.164110160000000000000	0.164066350000000000000	0.164066350000000000000	0.164113620000000020000	0.164226669999999990000