Expiry/Strike	0.5	0.55	0.6	0.65	0.7	0.75	0.8	0.85	0.9	0.95	1.0	1.05	1.1	1.15	1.2	1.25	1.3	1.35	1.4	1.45	1.5
91D	0.429534510000000040000	0.405089250000000010000	0.380884590000000020000	0.356602079999999990000	0.330236430000000030000	0.300703979999999980000	0.269307540000000010000	0.238076580000000010000	0.209692519999999990000	0.185331200000000000000	0.164878370000000000000	0.154474180000000020000	0.157702740000000010000	0.168629780000000010000	0.183248910000000010000	0.198529170000000000000	0.212657930000000000000	0.225386510000000010000	0.236928260000000000000	0.247672270000000000000	0.257736780000000000000
182D	0.378374920000000000000	0.352893139999999990000	0.327229190000000000000	0.301905839999999980000	0.279036080000000020000	0.257749700000000030000	0.237060330000000010000	0.216825140000000000000	0.197863230000000000000	0.180053430000000010000	0.163622780000000000000	0.151011819999999990000	0.145310170000000020000	0.145549110000000010000	0.149707620000000010000	0.156305780000000010000	0.163877390000000010000	0.172034070000000010000	0.180438480000000010000	0.188486550000000000000	0.196053380000000000000
273D	0.327678730000000030000	0.304278170000000010000	0.283458790000000020000	0.265945939999999990000	0.249698030000000020000	0.234093010000000020000	0.219031610000000020000	0.204784999999999990000	0.191488650000000010000	0.178138330000000010000	0.165952779999999990000	0.156399990000000020000	0.151035019999999990000	0.149104290000000000000	0.149063160000000000000	0.150703830000000010000	0.153588610000000010000	0.157503940000000010000	0.161941040000000010000	0.166354730000000010000	0.170636740000000010000
365D	0.302795570000000010000	0.282656400000000030000	0.264773680000000010000	0.249734960000000010000	0.235696110000000010000	0.222560380000000000000	0.210233350000000010000	0.198801310000000010000	0.187965840000000000000	0.176721359999999990000	0.166471399999999990000	0.158493040000000000000	0.153483570000000010000	0.151463490000000010000	0.151250650000000010000	0.152026240000000010000	0.153685070000000010000	0.155940150000000000000	0.158796910000000010000	0.161776260000000010000	0.164740730000000000000
547D	0.268236910000000000000	0.252248950000000030000	0.238116440000000010000	0.226377940000000000000	0.215747450000000010000	0.206216200000000020000	0.197586480000000010000	0.189651310000000020000	0.182215999999999990000	0.174186410000000010000	0.167048040000000010000	0.161589240000000000000	0.157713480000000020000	0.155908080000000000000	0.155398680000000010000	0.155685789999999990000	0.156377190000000000000	0.157461860000000010000	0.158944710000000020000	0.160568240000000000000	0.162260359999999990000
730D	0.244435999999999990000	0.231091960000000010000	0.219436469999999990000	0.210032530000000000000	0.201930680000000000000	0.194928230000000010000	0.188827040000000000000	0.183226300000000010000	0.177929050000000010000	0.172229880000000000000	0.167424850000000010000	0.163619939999999990000	0.160913720000000010000	0.159307030000000020000	0.158701819999999990000	0.158697940000000010000	0.159195350000000010000	0.159893380000000000000	0.160891100000000010000	0.162023660000000010000	0.163229310000000020000
1095D	0.232932069999999990000	0.221931060000000010000	0.211742249999999990000	0.202839839999999990000	0.195535290000000000000	0.189631930000000000000	0.184629980000000000000	0.180228539999999990000	0.176228610000000010000	0.172428370000000000000	0.169325250000000010000	0.166922610000000000000	0.165020190000000010000	0.163517210000000000000	0.162612120000000000000	0.162307120000000000000	0.162403690000000020000	0.162700950000000010000	0.163198260000000010000	0.163765280000000010000	0.164362010000000000000