Expiry/Strike	0.5	0.55	0.6	0.65	0.7	0.75	0.8	0.85	0.9	0.95	1.0	1.05	1.1	1.15	1.2	1.25	1.3	1.35	1.4	1.45	1.5
91D	0.433153650000000000000	0.408237369999999990000	0.382581010000000000000	0.355916459999999990000	0.328184690000000000000	0.298695710000000000000	0.268665580000000010000	0.239336010000000020000	0.211522340000000000000	0.186635930000000010000	0.164647149999999990000	0.151348310000000010000	0.151647160000000000000	0.160502670000000010000	0.173315620000000000000	0.187039879999999990000	0.200092670000000000000	0.212225120000000020000	0.223491429999999990000	0.234028890000000020000	0.243896480000000000000
182D	0.377578420000000030000	0.354368340000000000000	0.329898780000000000000	0.304331420000000020000	0.280503139999999980000	0.258514200000000030000	0.237469409999999990000	0.217149289999999990000	0.198198340000000000000	0.180498490000000010000	0.164283330000000010000	0.152250120000000020000	0.147503280000000010000	0.148969419999999990000	0.154161570000000000000	0.161226480000000010000	0.169121529999999990000	0.177422490000000020000	0.185734990000000020000	0.193665069999999990000	0.201141110000000010000
273D	0.330776169999999980000	0.310149230000000000000	0.289971130000000020000	0.270613539999999990000	0.252592390000000000000	0.236005760000000010000	0.220390660000000020000	0.205664430000000010000	0.191905159999999990000	0.178365750000000020000	0.166153949999999990000	0.156844490000000000000	0.152008560000000010000	0.151375500000000000000	0.153316760000000000000	0.156571199999999990000	0.160592700000000000000	0.165135170000000000000	0.170061860000000010000	0.174942779999999990000	0.179664670000000000000
365D	0.304391890000000000000	0.285199760000000020000	0.267529980000000000000	0.251857520000000000000	0.237237450000000020000	0.223768020000000010000	0.211232660000000020000	0.199607609999999990000	0.188644129999999990000	0.177277889999999990000	0.167091569999999990000	0.159116449999999990000	0.154235890000000010000	0.152577330000000010000	0.152887930000000010000	0.154164500000000010000	0.156104209999999990000	0.158562100000000010000	0.161561660000000000000	0.164670780000000020000	0.167765550000000010000
547D	0.275830720000000030000	0.260144400000000000000	0.246375220000000010000	0.234988050000000000000	0.220172239999999990000	0.206433449999999990000	0.197853890000000000000	0.190023639999999990000	0.182585650000000020000	0.174661110000000010000	0.167687420000000000000	0.162080220000000000000	0.158229060000000000000	0.156273070000000010000	0.155538349999999990000	0.155604230000000010000	0.156175760000000000000	0.157153870000000000000	0.158498300000000010000	0.159983409999999990000	0.161547130000000010000
730D	0.260272029999999990000	0.247399800000000000000	0.236278630000000020000	0.227322280000000020000	0.210712950000000010000	0.195206280000000010000	0.189121669999999990000	0.183596810000000000000	0.178318740000000000000	0.172708040000000010000	0.167856389999999990000	0.163846810000000010000	0.160913830000000010000	0.159082430000000000000	0.158056190000000010000	0.157830169999999990000	0.158025710000000010000	0.158543149999999990000	0.159215330000000020000	0.159994650000000020000	0.160876250000000000000
1095D	0.233044050000000000000	0.222398710000000000000	0.212664390000000010000	0.204272120000000000000	0.195875940000000000000	0.188833390000000020000	0.182814330000000000000	0.178520110000000010000	0.175565760000000020000	0.171761000000000000000	0.168570820000000010000	0.165894400000000000000	0.163844209999999990000	0.162231950000000010000	0.161131980000000010000	0.160703770000000000000	0.160602390000000010000	0.160874320000000020000	0.161173070000000000000	0.161495770000000010000	0.161867559999999990000