Expiry/Strike	0.5	0.55	0.6	0.65	0.7	0.75	0.8	0.85	0.9	0.95	1.0	1.05	1.1	1.15	1.2	1.25	1.3	1.35	1.4	1.45	1.5
91D	0.355302558400000020000	0.331993830100000000000	0.309229085399999990000	0.286759665200000010000	0.264353925800000000000	0.241786251799999990000	0.218837297999999990000	0.195329254300000000000	0.171294787500000020000	0.147696394300000010000	0.129013330000000010000	0.124841765400000000000	0.134922587300000010000	0.149666898600000010000	0.164562478300000010000	0.178499806900000000000	0.191321004399999990000	0.203100353400000020000	0.213957900000000010000	0.224010540900000000000	0.233360477800000020000
182D	0.320685941700000030000	0.300842365599999990000	0.281592619500000030000	0.262760204400000030000	0.244205247399999990000	0.225830112300000000000	0.207607463300000020000	0.189659118200000000000	0.172454819200000030000	0.157240998199999980000	0.146485560000000010000	0.142682901500000010000	0.145328311700000020000	0.151633201899999990000	0.159388544700000000000	0.167491169599999990000	0.175468983200000010000	0.183135431900000010000	0.190427787300000010000	0.197336925299999990000	0.203876560500000000000
273D	0.305079263800000000000	0.286376377100000020000	0.268333719300000000000	0.250821967799999990000	0.233766876100000020000	0.217165120599999980000	0.201122981600000000000	0.185929562100000000000	0.172165571700000020000	0.160777596900000010000	0.152884230000000010000	0.149131367500000000000	0.149150657500000010000	0.151870052900000000000	0.156199667200000000000	0.161359912200000010000	0.166874937300000000000	0.172474469600000010000	0.178010817900000010000	0.183406247999999990000	0.188622474999999980000
365D	0.297982201199999960000	0.279465320300000040000	0.261710100800000010000	0.244627528699999990000	0.228198015499999990000	0.212487490399999980000	0.197675572600000020000	0.184089024999999990000	0.172214810600000020000	0.162638806599999990000	0.155862840000000000000	0.152063227899999990000	0.150984514900000010000	0.152069120300000000000	0.154687881199999990000	0.158299666399999980000	0.162502326899999990000	0.167020380800000010000	0.171673643800000030000	0.176347615000000010000	0.180971219200000010000
547D	0.276590267400000030000	0.259846166599999980000	0.244050673000000000000	0.229171646700000010000	0.215242023000000000000	0.202358709200000010000	0.190677730999999990000	0.180398096300000000000	0.171727896700000020000	0.164833727399999990000	0.159788120000000010000	0.156538926999999990000	0.154916670200000000000	0.154674070299999990000	0.155536036100000000000	0.157240115299999980000	0.159559464500000000000	0.162310492199999990000	0.165351022700000020000	0.168574185000000020000	0.171901287900000000000
730D	0.264907733600000030000	0.248822552099999980000	0.233971281200000020000	0.220331603100000000000	0.207922718100000010000	0.196790893200000010000	0.186993605799999990000	0.178582318300000010000	0.171585738000000020000	0.165996651000000000000	0.161765330000000010000	0.158800909900000010000	0.156979751899999990000	0.156157914999999980000	0.156184297100000010000	0.156911756600000010000	0.158204879500000010000	0.159944291299999990000	0.162028154499999990000	0.164371738399999990000	0.166905878499999990000
1095D	0.226179947400000000000	0.216324404700000000000	0.207393213300000020000	0.199325333299999990000	0.192079376800000010000	0.185626068099999990000	0.179942306100000000000	0.175006429300000020000	0.170794576900000020000	0.167278177500000010000	0.164422600000000000000	0.162186923400000020000	0.160524663099999990000	0.159385189600000000000	0.158715520499999980000	0.158462184199999990000	0.158572910999999980000	0.158998001700000000000	0.159691307799999990000	0.160610830600000000000	0.161718988799999990000