Expiry/Strike	0.5	0.55	0.6	0.65	0.7	0.75	0.8	0.85	0.9	0.95	1.0	1.05	1.1	1.15	1.2	1.25	1.3	1.35	1.4	1.45	1.5
91D	0.323757970000000010000	0.306338659999999980000	0.288433109999999990000	0.269565740000000000000	0.249167740000000000000	0.228388550000000000000	0.206826290000000000000	0.185570010000000010000	0.166835680000000010000	0.151280450000000010000	0.139344540000000020000	0.133371110000000010000	0.134532669999999990000	0.140419090000000000000	0.148634920000000000000	0.157615520000000010000	0.166940230000000000000	0.175983690000000000000	0.184239630000000020000	0.191919470000000010000	0.199123269999999990000
182D	0.284325900000000020000	0.269121669999999980000	0.252884050000000030000	0.235332590000000010000	0.217451450000000020000	0.200209680000000000000	0.184492220000000010000	0.170875980000000010000	0.159545270000000020000	0.150159120000000010000	0.142549230000000000000	0.137898650000000010000	0.136782160000000010000	0.138224590000000010000	0.141418380000000010000	0.145996900000000010000	0.151676430000000000000	0.157872700000000000000	0.164009039999999990000	0.169833999999999980000	0.175324550000000000000
273D	0.258325530000000030000	0.244497110000000020000	0.229832260000000010000	0.214288890000000010000	0.199367729999999990000	0.185913219999999990000	0.174510440000000020000	0.165097860000000010000	0.157303920000000010000	0.150197059999999990000	0.144531920000000010000	0.141245320000000010000	0.140510109999999990000	0.141435670000000010000	0.143184210000000010000	0.145631940000000020000	0.148870530000000000000	0.152813860000000000000	0.157285170000000000000	0.161689210000000000000	0.165884640000000000000
365D	0.243039090000000010000	0.230127970000000020000	0.216783040000000010000	0.203138020000000000000	0.190613570000000010000	0.179895730000000000000	0.171267019999999990000	0.164221100000000010000	0.158163560000000010000	0.152400289999999990000	0.147831149999999990000	0.145243570000000020000	0.144731180000000010000	0.145421899999999990000	0.146909559999999990000	0.148597239999999990000	0.150875790000000010000	0.153548359999999990000	0.156809030000000020000	0.160119960000000010000	0.163320700000000010000
547D	0.227017250000000000000	0.215046650000000010000	0.203403640000000000000	0.192488680000000000000	0.183274350000000000000	0.175947780000000000000	0.170195640000000010000	0.165239390000000010000	0.160874590000000010000	0.156605550000000010000	0.153332200000000000000	0.151250030000000010000	0.150350039999999990000	0.150636670000000000000	0.151618880000000010000	0.152814440000000000000	0.154301130000000010000	0.155987850000000010000	0.157774600000000010000	0.159601930000000000000	0.161457370000000020000
730D	0.218168690000000000000	0.206997050000000020000	0.196681210000000000000	0.187717310000000000000	0.180453570000000010000	0.174780060000000010000	0.170100000000000000000	0.166113330000000000000	0.162526700000000000000	0.158940090000000010000	0.156250169999999990000	0.154553529999999990000	0.153653530000000010000	0.153650170000000000000	0.154246810000000010000	0.155343449999999990000	0.156540100000000020000	0.157933390000000010000	0.159426700000000000000	0.160961080000000010000	0.162530250000000010000
1095D	0.210413280000000010000	0.200239060000000000000	0.190981500000000000000	0.183101170000000010000	0.176716970000000000000	0.171834160000000010000	0.168050129999999990000	0.164768870000000010000	0.162186410000000000000	0.159906820000000010000	0.158424669999999990000	0.157639880000000010000	0.157451010000000000000	0.157857990000000000000	0.158762180000000000000	0.160162169999999990000	0.161662169999999990000	0.163163560000000010000	0.164766350000000010000	0.166345730000000000000	0.167863640000000010000