Expiry/Strike	0.5	0.55	0.6	0.65	0.7	0.75	0.8	0.85	0.9	0.95	1.0	1.05	1.1	1.15	1.2	1.25	1.3	1.35	1.4	1.45	1.5
91D	0.371933424999999980000	0.347582463200000020000	0.323824639700000030000	0.300410517399999970000	0.277115468500000020000	0.253733936800000000000	0.230091231000000010000	0.206103279600000020000	0.181988477399999990000	0.158965718699999980000	0.141017809999999990000	0.135005863500000020000	0.141627067800000010000	0.154185276500000000000	0.168054162100000020000	0.181567234499999980000	0.194259994999999990000	0.206059834400000000000	0.217014866000000000000	0.227205046800000000000	0.236712737100000010000
182D	0.331822952800000020000	0.311087893600000000000	0.291005775699999970000	0.271409493700000000000	0.252180606199999990000	0.233261779800000010000	0.214695359399999980000	0.196711339600000010000	0.179899222700000000000	0.165445590500000020000	0.155109749999999990000	0.150251621499999990000	0.150525052100000000000	0.154273443999999980000	0.159879719300000000000	0.166304189200000010000	0.172981388300000010000	0.179624117900000020000	0.186092809599999990000	0.192324286900000000000	0.198294817900000000000
273D	0.318062231199999990000	0.298133185699999970000	0.278946405200000020000	0.260385042500000000000	0.242400115799999980000	0.225029174200000020000	0.208433806600000020000	0.192955250500000010000	0.179164277700000010000	0.167826851700000000000	0.159672760000000000000	0.155011500000000000000	0.153532976699999990000	0.154510096600000010000	0.157154051999999990000	0.160826063400000000000	0.165079230200000010000	0.169623317700000000000	0.174276933800000010000	0.178929289600000010000	0.183514120499999990000
365D	0.311595875600000020000	0.291716358899999970000	0.272705590400000030000	0.254489238700000010000	0.237072089000000010000	0.220551155500000010000	0.205133407700000020000	0.191145189500000010000	0.179008182500000000000	0.169153893800000010000	0.161881930000000010000	0.157233160900000000000	0.154968618199999990000	0.154664550799999990000	0.155845653400000010000	0.158081481700000000000	0.161027195799999990000	0.164425992100000000000	0.168094806800000000000	0.171906567400000020000	0.175774596000000010000
547D	0.279307058200000010000	0.262731688200000040000	0.247136684199999980000	0.232486527400000000000	0.218805199399999980000	0.206172147200000020000	0.194715009400000000000	0.184593787699999980000	0.175972763700000010000	0.168982033500000020000	0.163678980000000000000	0.160025105500000010000	0.157888724200000000000	0.157070971399999980000	0.157341965400000010000	0.158473212199999990000	0.160258891099999990000	0.162525630400000010000	0.165133984300000010000	0.167975317800000000000	0.170966862600000020000
730D	0.262041810099999990000	0.246957844500000000000	0.233054683800000020000	0.220295315100000000000	0.208679807100000000000	0.198233149200000010000	0.188992858200000000000	0.180995961299999980000	0.174266164300000030000	0.168802951000000010000	0.164574630000000000000	0.161516719600000000000	0.159535734900000000000	0.158517026799999990000	0.158334486899999990000	0.158859941499999990000	0.159970724099999990000	0.161554790000000000000	0.163513451900000000000	0.165762216100000000000	0.168230322500000000000
1095D	0.226499485800000010000	0.217665334500000000000	0.209424404200000020000	0.201739076500000000000	0.194604738200000020000	0.188048931899999990000	0.182128796500000000000	0.176920970200000000000	0.172498218400000010000	0.168895470800000000000	0.166083430000000000000	0.163970407300000010000	0.162430480399999990000	0.161335753200000010000	0.160576011999999990000	0.160064640400000010000	0.159736779000000000000	0.159544905900000010000	0.159454417500000000000	0.159440052899999990000	0.159483238799999980000