Expiry/Strike	0.5	0.55	0.6	0.65	0.7	0.75	0.8	0.85	0.9	0.95	1.0	1.05	1.1	1.15	1.2	1.25	1.3	1.35	1.4	1.45	1.5
91D	0.477107050000000030000	0.444295350000000030000	0.409593290000000000000	0.373590150000000010000	0.341862360000000030000	0.314283660000000020000	0.288791899999999990000	0.262483420000000020000	0.234417999999999990000	0.206703169999999990000	0.179806970000000010000	0.157683350000000000000	0.148593800000000000000	0.152895190000000010000	0.162623209999999990000	0.173944560000000000000	0.186264890000000020000	0.198900380000000020000	0.210797740000000010000	0.221897180000000000000	0.232273910000000000000
182D	0.415265990000000030000	0.392299490000000030000	0.366886839999999990000	0.338807479999999990000	0.310486060000000010000	0.283044510000000030000	0.261838000000000020000	0.241560780000000000000	0.221286559999999990000	0.201447680000000020000	0.182651070000000000000	0.167202020000000010000	0.158865330000000000000	0.157610920000000020000	0.160476160000000010000	0.165400230000000010000	0.171621990000000000000	0.178872270000000000000	0.186505830000000010000	0.193900160000000020000	0.200934670000000010000
273D	0.378491279999999990000	0.363498560000000030000	0.344164399999999980000	0.319601540000000020000	0.291359980000000020000	0.262387729999999990000	0.245567170000000000000	0.230841629999999990000	0.215275220000000020000	0.199186420000000000000	0.183963560000000000000	0.171028509999999990000	0.162481770000000000000	0.158796230000000010000	0.157480590000000000000	0.157656340000000010000	0.159401450000000000000	0.162569650000000010000	0.166541010000000020000	0.170605220000000000000	0.174609729999999990000
365D	0.354925999999999960000	0.342191159999999990000	0.325431880000000010000	0.303658610000000000000	0.278279349999999980000	0.251654319999999990000	0.237526890000000020000	0.223750070000000000000	0.210877960000000000000	0.197202500000000000000	0.184300000000000020000	0.173128430000000000000	0.164991810000000020000	0.160419510000000020000	0.157693809999999990000	0.156404530000000010000	0.156554520000000000000	0.157940440000000020000	0.160127839999999990000	0.162517140000000000000	0.164971220000000000000
547D	0.327072420000000030000	0.314247250000000030000	0.299335279999999980000	0.281452340000000020000	0.262129669999999980000	0.241332419999999990000	0.230215240000000020000	0.215244150000000000000	0.205278250000000000000	0.194455729999999990000	0.184300000000000020000	0.175302340000000000000	0.168044560000000010000	0.162955259999999990000	0.159608959999999990000	0.157957550000000000000	0.157434770000000000000	0.157629650000000010000	0.158417809999999990000	0.159448700000000000000	0.160625710000000000000
730D	0.305780670000000030000	0.293129050000000000000	0.279667329999999990000	0.264758999999999970000	0.249636920000000010000	0.233283980000000000000	0.224029179999999990000	0.210102220000000010000	0.201790240000000010000	0.192688119999999990000	0.184209459999999990000	0.176564230000000020000	0.170050560000000020000	0.165029230000000000000	0.161560260000000010000	0.159723060000000000000	0.158848440000000010000	0.158529809999999990000	0.158673890000000010000	0.159052320000000000000	0.159599820000000000000
1095D	0.260955270000000020000	0.249584350000000010000	0.239296930000000020000	0.230499719999999990000	0.222711949999999990000	0.215594250000000020000	0.209012339999999990000	0.202673380000000010000	0.196288480000000020000	0.189699970000000000000	0.183804100000000000000	0.178410030000000000000	0.173782710000000010000	0.170100320000000000000	0.167264160000000000000	0.165264250000000000000	0.164035970000000000000	0.163579450000000020000	0.163413720000000010000	0.163394850000000010000	0.163513920000000010000