Expiry/Strike	0.5	0.55	0.6	0.65	0.7	0.75	0.8	0.85	0.9	0.95	1.0	1.05	1.1	1.15	1.2	1.25	1.3	1.35	1.4	1.45	1.5
91D	0.359667899999999980000	0.339170250000000010000	0.319064669999999990000	0.299323630000000010000	0.278941480000000020000	0.256733539999999980000	0.231220510000000020000	0.203070740000000000000	0.176117090000000000000	0.154498390000000010000	0.138421710000000000000	0.133151469999999990000	0.139700380000000010000	0.152790700000000000000	0.167974299999999990000	0.182135159999999990000	0.194757400000000000000	0.206042350000000010000	0.216327920000000010000	0.225917910000000000000	0.234896480000000020000
182D	0.334734850000000030000	0.316199579999999980000	0.297859710000000000000	0.279367299999999990000	0.259090109999999980000	0.236798869999999990000	0.213277100000000000000	0.192080670000000010000	0.174579050000000010000	0.160256070000000000000	0.148971789999999990000	0.143700290000000010000	0.145198560000000000000	0.151113720000000010000	0.159510199999999990000	0.169514539999999990000	0.179896379999999990000	0.189678610000000000000	0.198656480000000000000	0.207026110000000010000	0.214861050000000000000
273D	0.317906980000000010000	0.299488309999999980000	0.281380930000000030000	0.263355789999999980000	0.245021250000000000000	0.227378650000000020000	0.207390480000000020000	0.191557770000000020000	0.178373800000000000000	0.166893100000000020000	0.157307720000000010000	0.151734160000000010000	0.150748080000000010000	0.153340930000000010000	0.157349490000000010000	0.162396540000000010000	0.168032359999999990000	0.173921120000000010000	0.179901430000000000000	0.185665730000000000000	0.191147619999999990000
365D	0.306611720000000030000	0.288483429999999990000	0.270779600000000010000	0.253377880000000000000	0.236454360000000000000	0.221452540000000000000	0.203844460000000010000	0.190894120000000000000	0.179947910000000020000	0.169933040000000010000	0.161293570000000000000	0.155694920000000010000	0.153617279999999990000	0.154609379999999990000	0.156527360000000000000	0.159170220000000000000	0.162400280000000010000	0.166203519999999990000	0.170488110000000000000	0.174746680000000020000	0.178855890000000020000
547D	0.273881030000000030000	0.258021730000000000000	0.243152869999999990000	0.229609120000000000000	0.217340280000000000000	0.206684420000000010000	0.195890750000000000000	0.187216490000000010000	0.179512380000000000000	0.171866640000000010000	0.165357560000000010000	0.160576700000000020000	0.157870609999999990000	0.157169040000000010000	0.157586860000000000000	0.158921300000000020000	0.160722860000000000000	0.162855050000000000000	0.165290190000000000000	0.167785910000000010000	0.170276979999999990000
730D	0.255663650000000020000	0.241138010000000010000	0.227937220000000000000	0.216644520000000010000	0.207034260000000000000	0.198818560000000010000	0.191687890000000000000	0.185251470000000000000	0.179209180000000000000	0.172786940000000000000	0.167355830000000010000	0.163008900000000010000	0.160042359999999990000	0.158545730000000000000	0.158228979999999990000	0.158898940000000020000	0.159969069999999990000	0.161242650000000020000	0.162716360000000000000	0.164280440000000000000	0.165902550000000010000
1095D	0.231365939999999990000	0.220304930000000010000	0.210602480000000010000	0.202695039999999990000	0.195885129999999990000	0.190280190000000020000	0.185282660000000020000	0.180785140000000010000	0.176497519999999990000	0.172419900000000010000	0.169037380000000010000	0.166252430000000010000	0.164257459999999990000	0.162859980000000020000	0.162052439999999990000	0.161842400000000000000	0.162029880000000020000	0.162517410000000000000	0.163202480000000010000	0.163952340000000000000	0.164736560000000000000