Expiry/Strike	0.5	0.55	0.6	0.65	0.7	0.75	0.8	0.85	0.9	0.95	1.0	1.05	1.1	1.15	1.2	1.25	1.3	1.35	1.4	1.45	1.5
91D	0.371935520000000020000	0.351127840000000020000	0.330800739999999980000	0.310870060000000000000	0.289667620000000010000	0.265224610000000030000	0.237566799999999990000	0.208802090000000000000	0.182850500000000000000	0.161935200000000000000	0.145586240000000010000	0.138732830000000000000	0.143253120000000010000	0.154400740000000010000	0.168801129999999990000	0.183140520000000000000	0.196153150000000000000	0.207473930000000000000	0.217694780000000000000	0.227228779999999990000	0.236163050000000010000
182D	0.333904509999999990000	0.314386740000000000000	0.295487990000000030000	0.277154879999999990000	0.255552640000000000000	0.236265190000000010000	0.217120440000000000000	0.197783470000000020000	0.181605270000000010000	0.167699190000000000000	0.157827070000000010000	0.152043370000000010000	0.151966939999999990000	0.156067160000000010000	0.162050560000000010000	0.168620670000000000000	0.175177430000000000000	0.181491070000000000000	0.187793800000000010000	0.193874990000000000000	0.199666239999999990000
273D	0.320126400000000030000	0.301039449999999990000	0.282626880000000020000	0.264849410000000010000	0.243000000000000020000	0.225720120000000000000	0.209856590000000010000	0.193988650000000010000	0.181199400000000010000	0.169583440000000000000	0.161723050000000010000	0.156268780000000000000	0.154819800000000010000	0.156693640000000000000	0.159810330000000000000	0.163546950000000000000	0.167629250000000010000	0.171968680000000010000	0.176702630000000000000	0.181385240000000000000	0.185891460000000010000
365D	0.312911019999999980000	0.294027189999999990000	0.275881340000000030000	0.258403260000000020000	0.236457470000000000000	0.220245210000000000000	0.206117810000000010000	0.192053250000000010000	0.180970110000000020000	0.170491910000000000000	0.163609809999999990000	0.158321400000000000000	0.156222510000000010000	0.157015309999999990000	0.158708720000000000000	0.161003800000000000000	0.163796749999999990000	0.167088149999999990000	0.170977510000000000000	0.174900850000000000000	0.178705310000000010000
547D	0.282831119999999990000	0.262694370000000010000	0.247950110000000000000	0.233328840000000010000	0.218492490000000010000	0.205374489999999990000	0.195850950000000000000	0.186299450000000010000	0.177309870000000010000	0.169507760000000010000	0.164794670000000000000	0.160894250000000020000	0.158927999999999990000	0.158860470000000000000	0.159761760000000000000	0.161464080000000010000	0.163402760000000010000	0.165645810000000000000	0.168229300000000000000	0.170867250000000000000	0.173484340000000010000
730D	0.266267240000000020000	0.245264819999999990000	0.232493410000000010000	0.219509290000000000000	0.208783830000000000000	0.197398760000000010000	0.190428380000000010000	0.183310030000000010000	0.175422910000000020000	0.169006070000000010000	0.165392790000000010000	0.162184479999999990000	0.160283700000000000000	0.159788820000000000000	0.160293590000000010000	0.161697189999999990000	0.163202420000000010000	0.164908920000000010000	0.166817120000000010000	0.168783120000000010000	0.170773390000000000000
1095D	0.229485310000000000000	0.218524070000000010000	0.208837830000000000000	0.200807810000000000000	0.193885320000000000000	0.187953270000000010000	0.182942100000000000000	0.178427320000000000000	0.174107220000000010000	0.169994490000000000000	0.166593390000000010000	0.163791200000000000000	0.161592840000000020000	0.160197790000000010000	0.159305549999999990000	0.159114490000000000000	0.159222389999999990000	0.159729220000000010000	0.160336670000000010000	0.160982879999999990000	0.161675299999999990000