Expiry/Strike	0.5	0.55	0.6	0.65	0.7	0.75	0.8	0.85	0.9	0.95	1.0	1.05	1.1	1.15	1.2	1.25	1.3	1.35	1.4	1.45	1.5
91D	0.361213662299999960000	0.337504351400000010000	0.314348153899999980000	0.291492224400000000000	0.268701047000000030000	0.245745227999999980000	0.222401525500000000000	0.198487604600000010000	0.174027983800000010000	0.149952357800000020000	0.130576920000000010000	0.125327034000000000000	0.134595022799999990000	0.148990857000000000000	0.163753502900000010000	0.177641892100000000000	0.190448441000000000000	0.202227974300000000000	0.213092284199999980000	0.223154515299999990000	0.232515077700000020000
182D	0.318756573499999970000	0.299575099600000010000	0.280992333600000030000	0.262836683000000020000	0.244970126699999980000	0.227290336000000010000	0.209749994600000020000	0.192414203900000000000	0.175609942800000000000	0.160275620000000010000	0.148481599999999990000	0.142890828400000000000	0.143827441100000010000	0.148827579900000010000	0.155567829699999990000	0.162828504900000000000	0.170076596000000020000	0.177094086300000010000	0.183800051100000000000	0.190173559100000000000	0.196219974299999990000
273D	0.302308469400000000000	0.284615204200000030000	0.267569965299999990000	0.251041698300000000000	0.234944572000000020000	0.219246296999999980000	0.203992964200000020000	0.189360450999999990000	0.175742955500000020000	0.163858745500000010000	0.154731910000000000000	0.149273742400000020000	0.147592477600000020000	0.148894236400000020000	0.152104781199999980000	0.156367194399999990000	0.161134167900000010000	0.166088027700000000000	0.171051948000000010000	0.175930146200000030000	0.180672696100000000000
365D	0.294750798799999990000	0.277392391900000030000	0.260773321600000000000	0.244796374200000000000	0.229419791500000000000	0.214665522000000000000	0.200636806400000010000	0.187542933800000010000	0.175720434500000020000	0.165622240700000010000	0.157731590000000000000	0.152389471799999980000	0.149625661700000020000	0.149135239200000020000	0.150417965100000000000	0.152953100600000000000	0.156304586299999990000	0.160148994300000010000	0.164262428000000020000	0.168495958200000020000	0.172753002800000000000
547D	0.276328881800000040000	0.259685073100000000000	0.244091790799999990000	0.229514592300000010000	0.215973676600000000000	0.203536808100000020000	0.192309751100000010000	0.182420910500000010000	0.173998584300000010000	0.167142765899999990000	0.161897870000000000000	0.158235211999999990000	0.156051757800000000000	0.155185093199999980000	0.155438079300000000000	0.156604402799999990000	0.158488545200000000000	0.160917802500000010000	0.163747176800000000000	0.166859341400000000000	0.170161888100000020000
730D	0.266203743700000000000	0.249753048399999980000	0.234696146300000020000	0.221002133699999990000	0.208673793700000000000	0.197731532800000000000	0.188198079299999990000	0.180084462300000000000	0.173378701200000010000	0.168038821000000000000	0.163991200000000000000	0.161134105599999990000	0.159345100699999990000	0.158490310000000000000	0.158433540399999990000	0.159043812099999990000	0.160200619300000010000	0.161796908300000010000	0.163740164100000000000	0.165952149100000000000	0.168367813600000000000
1095D	0.225161881400000010000	0.216300141000000000000	0.208036473800000010000	0.200336372200000000000	0.193199934100000000000	0.186661381299999980000	0.180786221799999980000	0.175659265400000010000	0.171357235800000010000	0.167910677100000020000	0.165277740000000010000	0.163351615100000010000	0.161994667900000000000	0.161072702500000000000	0.160473407200000000000	0.160110359300000000000	0.159919824599999980000	0.159855629899999990000	0.159884445299999980000	0.159982113200000000000	0.160130983400000010000