Expiry/Strike	0.5	0.55	0.6	0.65	0.7	0.75	0.8	0.85	0.9	0.95	1.0	1.05	1.1	1.15	1.2	1.25	1.3	1.35	1.4	1.45	1.5
91D	0.445663140000000010000	0.420056409999999990000	0.392948799999999990000	0.363803610000000000000	0.333589760000000010000	0.303875889999999980000	0.276021500000000030000	0.249675300000000020000	0.224923960000000010000	0.202523420000000010000	0.182539840000000010000	0.168664170000000000000	0.165037760000000010000	0.169385600000000000000	0.178215230000000000000	0.189357860000000020000	0.201102380000000000000	0.212593410000000010000	0.223445700000000000000	0.233629170000000000000	0.243178320000000000000
182D	0.391974500000000000000	0.368430810000000000000	0.343911040000000000000	0.318622670000000000000	0.294395789999999990000	0.271578729999999990000	0.250068820000000020000	0.231205680000000000000	0.212741100000000020000	0.196347180000000010000	0.181560520000000000000	0.170390980000000000000	0.165056670000000020000	0.165144110000000010000	0.168443620000000020000	0.173817000000000000000	0.180322189999999990000	0.187549440000000010000	0.195123090000000000000	0.202448999999999990000	0.209399690000000000000
273D	0.355553270000000030000	0.335754070000000020000	0.315683400000000000000	0.295463770000000010000	0.274440809999999980000	0.254487550000000010000	0.236190110000000010000	0.222785130000000000000	0.207015830000000010000	0.193717250000000010000	0.181812870000000020000	0.172557540000000010000	0.167323640000000000000	0.166152810000000010000	0.166927259999999990000	0.168850680000000000000	0.171687090000000010000	0.175182289999999990000	0.179374560000000020000	0.183648129999999990000	0.187830150000000000000
365D	0.333670079999999980000	0.315805050000000030000	0.298173550000000010000	0.280922370000000030000	0.262556130000000000000	0.244268430000000010000	0.228514620000000000000	0.217870260000000010000	0.203682759999999990000	0.192257940000000020000	0.182041079999999990000	0.173903310000000010000	0.168775110000000010000	0.166853790000000000000	0.166417609999999990000	0.166854410000000010000	0.168093150000000000000	0.169916520000000020000	0.172439500000000000000	0.175143159999999990000	0.177874229999999990000
547D	0.304967590000000010000	0.288842739999999990000	0.273804419999999990000	0.260224500000000030000	0.246961860000000010000	0.230735159999999990000	0.219613530000000000000	0.211514750000000000000	0.199367149999999990000	0.190495950000000000000	0.182496159999999990000	0.175838529999999990000	0.170938220000000000000	0.167991840000000000000	0.166474480000000010000	0.166058420000000010000	0.166444920000000000000	0.167359950000000010000	0.168635220000000000000	0.170062419999999990000	0.171588839999999990000
730D	0.286627570000000000000	0.271879609999999990000	0.258595799999999990000	0.247236550000000000000	0.236874560000000010000	0.222574600000000010000	0.214016060000000010000	0.207287260000000000000	0.196724520000000010000	0.189288170000000010000	0.182543340000000000000	0.176744960000000010000	0.172091710000000010000	0.168759810000000010000	0.166737109999999990000	0.165846470000000000000	0.165744960000000000000	0.166132740000000000000	0.166743389999999990000	0.167490060000000000000	0.168359700000000000000
1095D	0.247081140000000000000	0.237184700000000000000	0.228111239999999990000	0.220183770000000000000	0.213156390000000000000	0.206958410000000010000	0.201299910000000000000	0.196051580000000000000	0.190832980000000010000	0.185660830000000000000	0.181083700000000010000	0.176997270000000010000	0.173603790000000010000	0.170894510000000000000	0.168760940000000000000	0.167215190000000010000	0.166340280000000010000	0.165863390000000000000	0.165775980000000020000	0.165839900000000010000	0.165983259999999990000