Expiry/Strike	0.5	0.55	0.6	0.65	0.7	0.75	0.8	0.85	0.9	0.95	1.0	1.05	1.1	1.15	1.2	1.25	1.3	1.35	1.4	1.45	1.5
91D	0.449747783800000020000	0.419631463200000050000	0.390271375300000000000	0.361378558399999990000	0.332705903600000020000	0.304048007899999970000	0.275264590000000030000	0.246354574700000000000	0.217646471999999980000	0.190228682099999990000	0.166653970000000010000	0.151021727199999980000	0.146312339800000020000	0.151117307699999980000	0.161434758600000010000	0.174032576800000010000	0.187171138900000010000	0.200065946200000010000	0.212402374799999990000	0.224078595600000010000	0.235085948100000000000
182D	0.396483486100000000000	0.370319783299999980000	0.344986678100000000000	0.320291286399999990000	0.296106742699999980000	0.272385255700000000000	0.249193076200000000000	0.226776336400000000000	0.205661246300000020000	0.186755353099999990000	0.171321460000000010000	0.160619612700000000000	0.155253247200000000000	0.154780213499999990000	0.158020194700000010000	0.163672677600000010000	0.170699742000000020000	0.178399788900000020000	0.186339343400000000000	0.194264497099999990000	0.202032716100000010000
273D	0.367467572500000010000	0.343187890500000040000	0.319895745700000010000	0.297472123300000000000	0.275877031200000010000	0.255158100300000020000	0.235466303200000000000	0.217072010900000000000	0.200366939300000020000	0.185829453199999990000	0.173934560000000020000	0.165020526500000010000	0.159170487100000010000	0.156179494099999980000	0.155624635999999980000	0.156987580599999980000	0.159763100599999990000	0.163520960100000000000	0.167924790400000000000	0.172725675800000010000	0.177745910700000010000
365D	0.346108303800000020000	0.323898974900000030000	0.302711948199999970000	0.282454898600000000000	0.263108403599999980000	0.244728428400000000000	0.227450921800000010000	0.211491768299999990000	0.197132375400000000000	0.184681269099999990000	0.174410530000000010000	0.166483273500000000000	0.160902790999999990000	0.157508301399999990000	0.156016631399999990000	0.156085627600000000000	0.157371840999999980000	0.159567819499999990000	0.162418370000000010000	0.165722166600000000000	0.169325737400000010000
547D	0.319999130899999980000	0.300779419499999980000	0.282534536400000040000	0.265185871200000030000	0.248715717899999990000	0.233166088000000020000	0.218638278100000000000	0.205288156500000010000	0.193311061200000000000	0.182911617300000000000	0.174260140000000010000	0.167447435100000010000	0.162456199700000000000	0.159161732799999980000	0.157359589800000000000	0.156805520499999990000	0.157252003499999990000	0.158472881300000010000	0.160275336300000020000	0.162502533499999990000	0.165030934300000020000
730D	0.296296289699999990000	0.280257273700000030000	0.265050640800000010000	0.250599446999999980000	0.236876705600000010000	0.223905173000000010000	0.211758974599999980000	0.200562783200000010000	0.190482175199999990000	0.181698396099999990000	0.174366269999999990000	0.168566731200000010000	0.164276348600000010000	0.161370638300000010000	0.159657005800000000000	0.158917254000000010000	0.158941513000000010000	0.159547069800000000000	0.160584519700000010000	0.161936399200000000000	0.163512560000000000000
1095D	0.246766118900000000000	0.237230596400000020000	0.228296876099999990000	0.219901627899999980000	0.212007126400000000000	0.204598419100000010000	0.197682238900000000000	0.191286591799999990000	0.185459578399999990000	0.180265377499999990000	0.175774999999999990000	0.172050641000000000000	0.169126293799999990000	0.166992182500000000000	0.165591431600000010000	0.164831038600000010000	0.164600750900000010000	0.164790796000000020000	0.165303237100000000000	0.166056660500000010000	0.166986358800000010000