Expiry/Strike	0.5	0.55	0.6	0.65	0.7	0.75	0.8	0.85	0.9	0.95	1.0	1.05	1.1	1.15	1.2	1.25	1.3	1.35	1.4	1.45	1.5
91D	0.374133886199999990000	0.349636884800000050000	0.325733065500000030000	0.302169833200000020000	0.278718341100000040000	0.255166612999999990000	0.231328991300000010000	0.207100645900000020000	0.182657554799999980000	0.159134637500000010000	0.140426109999999990000	0.133599667600000000000	0.139715985800000000000	0.151987482300000000000	0.165645482799999990000	0.178977456600000000000	0.191506430700000010000	0.203155531800000010000	0.213970743699999990000	0.224030588199999990000	0.233416303000000020000
182D	0.343521302600000020000	0.321008481299999980000	0.299167230199999970000	0.277818611200000010000	0.256837678199999970000	0.236168173300000010000	0.215865067499999980000	0.196187306100000010000	0.177771270200000030000	0.161867932699999990000	0.150374790000000010000	0.145034708200000000000	0.145991543400000010000	0.151617250600000000000	0.159870575100000000000	0.169266606200000000000	0.178958414400000020000	0.188518009699999990000	0.197747118000000000000	0.206565325400000000000	0.214950991600000000000
273D	0.320527854600000000000	0.300562777600000000000	0.281313517600000010000	0.262648885800000010000	0.244498266199999980000	0.226867396000000000000	0.209874630200000020000	0.193814236199999990000	0.179240078600000020000	0.167007925800000010000	0.158115260000000010000	0.153224593400000000000	0.152200321300000000000	0.154204025899999990000	0.158205809899999990000	0.163359654100000000000	0.169092204800000010000	0.175050656000000030000	0.181028778700000000000	0.186910304300000000000	0.192632452600000000000
365D	0.306434781300000010000	0.287932684000000050000	0.270189164000000040000	0.253104294000000010000	0.236641965800000020000	0.220843442500000010000	0.205853551700000000000	0.191955976400000010000	0.179598285600000020000	0.169356921800000000000	0.161780110000000000000	0.157135952899999990000	0.155255197999999980000	0.155622868000000000000	0.157613715100000000000	0.160673868900000020000	0.164386286999999990000	0.168463318199999990000	0.172715744500000020000	0.177022426100000020000	0.181307297199999990000
547D	0.270652420499999990000	0.256060255999999990000	0.242282845199999990000	0.229265096100000010000	0.217002727900000000000	0.205542980000000010000	0.194986308299999990000	0.185484079800000010000	0.177224999100000000000	0.170403216700000000000	0.165168570000000010000	0.161574699399999990000	0.159551699800000000000	0.158919911100000010000	0.159435251499999990000	0.160840146699999990000	0.162899968199999990000	0.165420113300000000000	0.168248702899999990000	0.171271803900000020000	0.174406152600000000000
730D	0.250678297200000010000	0.238417533500000000000	0.227005005300000010000	0.216395960300000000000	0.206582283500000020000	0.197586793400000020000	0.189457212200000000000	0.182257890799999990000	0.176058032800000010000	0.170916601600000020000	0.166866270000000010000	0.163900679200000010000	0.161969334299999990000	0.160981951399999990000	0.160820325500000000000	0.161353266800000010000	0.162450177199999990000	0.163990696600000010000	0.165869942600000010000	0.168000183400000000000	0.170310194400000000000
1095D	0.230109283500000010000	0.220405082499999990000	0.211611484599999980000	0.203667395300000000000	0.196530825100000000000	0.190171344600000010000	0.184564167199999990000	0.179685493200000020000	0.175509032300000010000	0.172003734000000020000	0.169132730000000010000	0.166853395399999990000	0.165118307999999990000	0.163876797600000010000	0.163076752600000010000	0.162666388900000010000	0.162595773300000000000	0.162817986000000000000	0.163289895200000010000	0.163972574200000000000	0.164831425100000010000