Expiry/Strike	0.5	0.55	0.6	0.65	0.7	0.75	0.8	0.85	0.9	0.95	1.0	1.05	1.1	1.15	1.2	1.25	1.3	1.35	1.4	1.45	1.5
91D	0.377099750000000010000	0.355819979999999980000	0.334877739999999980000	0.313988240000000030000	0.291391830000000020000	0.266647709999999980000	0.239636660000000000000	0.211298610000000000000	0.184364279999999990000	0.161766060000000020000	0.144269550000000000000	0.137917920000000000000	0.144151050000000000000	0.156834880000000010000	0.171288250000000000000	0.185433519999999990000	0.198570429999999990000	0.210523010000000010000	0.221177669999999990000	0.231039190000000010000	0.240273770000000000000
182D	0.337106030000000000000	0.317923640000000010000	0.299252040000000000000	0.280297990000000000000	0.260431140000000010000	0.239399670000000010000	0.217300360000000000000	0.195641570000000010000	0.177699400000000010000	0.162713379999999990000	0.150935669999999990000	0.144785699999999990000	0.145776690000000010000	0.151423750000000000000	0.159592989999999990000	0.168865390000000000000	0.178105440000000000000	0.186786010000000000000	0.194754669999999990000	0.202223580000000010000	0.209268440000000000000
273D	0.311102770000000030000	0.292630510000000010000	0.275053160000000020000	0.257073840000000000000	0.239972760000000010000	0.223891330000000000000	0.207291850000000000000	0.190078240000000010000	0.176689850000000010000	0.165037810000000010000	0.156150800000000010000	0.150460280000000000000	0.149451649999999990000	0.152005590000000000000	0.156288029999999990000	0.161388830000000010000	0.166883670000000010000	0.172406580000000000000	0.177922050000000000000	0.183250460000000000000	0.188346710000000000000
365D	0.297093500000000010000	0.278973750000000020000	0.261971579999999980000	0.244496190000000000000	0.228936560000000010000	0.215627950000000010000	0.202044050000000000000	0.187203110000000010000	0.176177320000000000000	0.166200430000000010000	0.158721830000000010000	0.153248810000000010000	0.151275350000000000000	0.152298860000000010000	0.154590510000000010000	0.157474450000000020000	0.160913610000000010000	0.164660740000000000000	0.168775659999999990000	0.172869090000000000000	0.176831490000000010000
547D	0.264389949999999980000	0.249134120000000010000	0.235235430000000000000	0.222056069999999990000	0.210687840000000020000	0.201226240000000000000	0.192585029999999990000	0.182459500000000000000	0.174916619999999990000	0.167533720000000000000	0.161734290000000000000	0.157069700000000010000	0.154402110000000010000	0.153542199999999990000	0.153741510000000000000	0.154555090000000010000	0.155927710000000000000	0.157660210000000000000	0.159703360000000020000	0.161830680000000000000	0.163977420000000010000
730D	0.240578050000000020000	0.227775650000000000000	0.216475300000000010000	0.206987420000000010000	0.198814090000000000000	0.191803740000000000000	0.186431450000000000000	0.179488719999999990000	0.174067169999999990000	0.168258209999999990000	0.163379180000000010000	0.159271520000000000000	0.156325390000000010000	0.154426979999999990000	0.153539640000000010000	0.153339630000000000000	0.153650760000000000000	0.154273330000000010000	0.155033019999999990000	0.155896549999999990000	0.156859400000000010000
1095D	0.223378159999999990000	0.212910619999999990000	0.203734119999999990000	0.196285820000000000000	0.189948560000000020000	0.184701270000000000000	0.180180460000000010000	0.176029800000000010000	0.172195190000000000000	0.168579570000000010000	0.165496659999999990000	0.163205590000000010000	0.161556260000000010000	0.160357470000000000000	0.159798479999999990000	0.159669060000000000000	0.159949440000000000000	0.160439600000000020000	0.161029750000000000000	0.161673989999999990000	0.162362070000000000000