Expiry/Strike	0.5	0.55	0.6	0.65	0.7	0.75	0.8	0.85	0.9	0.95	1.0	1.05	1.1	1.15	1.2	1.25	1.3	1.35	1.4	1.45	1.5
91D	0.370740760000000000000	0.350045859999999990000	0.329800000000000040000	0.309900000000000010000	0.288700000000000010000	0.264300000000000030000	0.236600000000000000000	0.208100000000000010000	0.182200000000000000000	0.161200000000000010000	0.144900000000000000000	0.137899999999999990000	0.142300000000000010000	0.153300000000000020000	0.167600000000000000000	0.182000000000000000000	0.194800000000000000000	0.206200000000000020000	0.216300000000000020000	0.225649440000000010000	0.234419729999999990000
182D	0.342941500000000010000	0.324466099999999980000	0.305483129999999990000	0.285409819999999980000	0.263114010000000010000	0.239688070000000000000	0.216778650000000020000	0.196546040000000010000	0.179604380000000010000	0.165354340000000020000	0.153919790000000000000	0.147832870000000010000	0.148404790000000010000	0.153160049999999990000	0.160497820000000010000	0.169625059999999990000	0.179649870000000020000	0.189485020000000000000	0.198733280000000010000	0.207382210000000010000	0.215461840000000020000
273D	0.322294510000000030000	0.303626129999999990000	0.285230949999999980000	0.266877179999999990000	0.244804010000000020000	0.226214589999999990000	0.209147710000000010000	0.193184340000000010000	0.179874460000000010000	0.168676340000000010000	0.161145879999999990000	0.155819930000000000000	0.154739280000000010000	0.156823999999999990000	0.160362840000000010000	0.164930560000000000000	0.170120860000000010000	0.175698290000000010000	0.181502200000000000000	0.187129629999999990000	0.192488150000000000000
365D	0.311306890000000000000	0.292470569999999990000	0.274445910000000020000	0.257032600000000000000	0.235249580000000010000	0.219210320000000010000	0.205189690000000010000	0.191426870000000000000	0.179904280000000000000	0.170195700000000010000	0.164425930000000000000	0.159462999999999990000	0.157663009999999990000	0.158530280000000000000	0.160304310000000010000	0.162680670000000000000	0.165455060000000010000	0.168819070000000020000	0.172775070000000000000	0.176749920000000000000	0.180599530000000010000
547D	0.282358969999999990000	0.262108690000000030000	0.247349210000000010000	0.232741900000000000000	0.218024950000000000000	0.205088510000000000000	0.195603080000000010000	0.186137890000000000000	0.176997729999999990000	0.170066030000000010000	0.165204939999999990000	0.161348710000000010000	0.159548780000000000000	0.159439340000000010000	0.160434020000000010000	0.162097570000000000000	0.164096010000000010000	0.166363660000000000000	0.168969880000000020000	0.171632819999999990000	0.174271790000000010000
730D	0.266621339999999980000	0.245430079999999990000	0.232537180000000010000	0.219517210000000020000	0.208829610000000000000	0.197608190000000020000	0.190601529999999990000	0.183421360000000010000	0.175518330000000000000	0.170000800000000010000	0.165595190000000000000	0.162288440000000010000	0.160488440000000010000	0.159894399999999990000	0.160499200000000010000	0.161803630000000000000	0.163408500000000010000	0.165115459999999990000	0.167024140000000020000	0.169001770000000000000	0.171002199999999990000
1095D	0.229705300000000000000	0.218645880000000010000	0.208838070000000010000	0.200708440000000020000	0.193885580000000000000	0.188053909999999990000	0.182943100000000000000	0.178427950000000000000	0.174207210000000000000	0.170000000000000010000	0.166594490000000010000	0.163891200000000010000	0.161792839999999990000	0.160397240000000000000	0.159604990000000000000	0.159313929999999990000	0.159521820000000010000	0.159929210000000020000	0.160636069999999990000	0.161437840000000000000	0.162265660000000010000