Expiry/Strike	0.5	0.55	0.6	0.65	0.7	0.75	0.8	0.85	0.9	0.95	1.0	1.05	1.1	1.15	1.2	1.25	1.3	1.35	1.4	1.45	1.5
91D	0.361033567399999980000	0.337470614600000000000	0.314481887899999980000	0.291824767699999990000	0.269279773200000020000	0.246644247799999990000	0.223742421800000010000	0.200481440800000020000	0.177058811200000000000	0.154681820299999990000	0.137512120000000020000	0.132821609499999990000	0.140710374500000010000	0.153885089600000000000	0.167933758500000000000	0.181426540199999990000	0.194014359700000000000	0.205675399400000010000	0.216480405999999990000	0.226519658099999990000	0.235880231100000000000
182D	0.324752875700000000000	0.304837777300000000000	0.285540875700000030000	0.266689859199999990000	0.248151253699999990000	0.229836180499999990000	0.211726972500000000000	0.193947865000000000000	0.176931748500000010000	0.161755406300000020000	0.150488459999999990000	0.145442172700000010000	0.146775796800000020000	0.152274405000000000000	0.159698078599999990000	0.167754376799999990000	0.175835573000000020000	0.183679484700000010000	0.191183474900000010000	0.198317451100000010000	0.205084062000000010000
273D	0.302648019800000000000	0.284949927400000020000	0.267906669300000010000	0.251389422500000010000	0.235315837700000000000	0.219659020999999980000	0.204473318100000020000	0.189946691499999990000	0.176488857300000020000	0.164831246500000000000	0.155993520000000000000	0.150853837899999980000	0.149480816200000010000	0.151064496500000010000	0.154532740199999990000	0.159033458900000010000	0.164022364199999990000	0.169183556300000010000	0.174341517100000010000	0.179401618300000010000	0.184315010199999990000
365D	0.291839766499999990000	0.274950811900000040000	0.258786942899999980000	0.243251783799999980000	0.228302596800000010000	0.213958399499999980000	0.200317663700000010000	0.187583967100000000000	0.176089375800000000000	0.166286213800000000000	0.158659920000000010000	0.153548258899999980000	0.150965122799999990000	0.150584489200000000000	0.151895232599999990000	0.154381521899999980000	0.157622307699999990000	0.161311611299999990000	0.165240915900000010000	0.169273163600000000000	0.173320285800000000000
547D	0.281527301200000020000	0.264941060800000020000	0.249277296900000000000	0.234485772100000020000	0.220573501199999990000	0.207602674200000000000	0.195687211599999990000	0.184982647000000000000	0.175664147600000010000	0.167891176600000000000	0.161765550000000010000	0.157298070999999980000	0.154398971400000000000	0.152895903700000000000	0.152569044200000000000	0.153187486699999990000	0.154535985100000000000	0.156429194500000010000	0.158715886000000000000	0.161277115200000020000	0.164021650699999990000
730D	0.276101286200000020000	0.259405951600000020000	0.243891878799999990000	0.229519721799999990000	0.216293530299999980000	0.204248481000000010000	0.193437727499999990000	0.183917699299999990000	0.175732707900000010000	0.168901059400000000000	0.163405420000000000000	0.159189516099999980000	0.156161568199999990000	0.154202975599999990000	0.153179595099999980000	0.152952893099999990000	0.153389048499999990000	0.154365169599999990000	0.155772687899999980000	0.157518493300000010000	0.159524526499999990000
1095D	0.228777176899999990000	0.218909368499999980000	0.209877945700000010000	0.201636267700000010000	0.194160191500000000000	0.187440159199999980000	0.181474010999999990000	0.176260237400000020000	0.171791952300000020000	0.168052221100000010000	0.165011410000000000000	0.162626899300000020000	0.160844970800000010000	0.159604192000000010000	0.158839392800000010000	0.158485416900000010000	0.158480114000000010000	0.158766366500000010000	0.159293196499999980000	0.160016132600000000000	0.160897058799999990000