Expiry/Strike	0.5	0.55	0.6	0.65	0.7	0.75	0.8	0.85	0.9	0.95	1.0	1.05	1.1	1.15	1.2	1.25	1.3	1.35	1.4	1.45	1.5
91D	0.492850730000000010000	0.466082170000000020000	0.437578020000000010000	0.406245260000000000000	0.371665640000000020000	0.336365780000000000000	0.301601920000000020000	0.268150160000000030000	0.237082380000000010000	0.209062560000000010000	0.183771140000000000000	0.168548450000000020000	0.169764610000000010000	0.180448440000000020000	0.195448440000000000000	0.211564599999999990000	0.227316140000000000000	0.242019390000000000000	0.255254990000000010000	0.267510410000000030000	0.278968480000000020000
182D	0.375253930000000010000	0.348912410000000010000	0.324296370000000000000	0.301706590000000000000	0.280994610000000030000	0.261110420000000010000	0.241937900000000010000	0.223800959999999990000	0.207150320000000000000	0.191734800000000010000	0.177717690000000010000	0.166977210000000010000	0.161333720000000010000	0.160188009999999990000	0.162065900000000010000	0.166310720000000000000	0.171972299999999990000	0.178965470000000020000	0.188797109999999990000	0.197893350000000000000	0.206396710000000010000
273D	0.312579780000000030000	0.294175240000000000000	0.275733690000000030000	0.257472250000000010000	0.240473360000000000000	0.225489159999999990000	0.212694420000000000000	0.201743079999999990000	0.192013519999999990000	0.182832260000000000000	0.175335610000000000000	0.170469570000000010000	0.168608960000000000000	0.169163750000000000000	0.170829020000000000000	0.173197999999999990000	0.176314320000000000000	0.180138060000000020000	0.184563370000000000000	0.188987180000000000000	0.193259910000000010000
365D	0.276673790000000030000	0.261726770000000000000	0.247500000000000030000	0.234300000000000010000	0.222100000000000020000	0.211300000000000020000	0.201900000000000000000	0.193600000000000020000	0.186100000000000020000	0.178500000000000020000	0.172000000000000010000	0.167200000000000020000	0.164300000000000000000	0.163099999999999990000	0.163099999999999990000	0.163600000000000000000	0.164700000000000010000	0.166200000000000010000	0.168200000000000020000	0.170361349999999990000	0.172578780000000010000
547D	0.244001200000000000000	0.231707600000000010000	0.220600000000000020000	0.211100000000000010000	0.202700000000000020000	0.195400000000000020000	0.188900000000000010000	0.182900000000000010000	0.177500000000000020000	0.171700000000000020000	0.166700000000000010000	0.162900000000000020000	0.160100000000000020000	0.158500000000000000000	0.158100000000000020000	0.158200000000000010000	0.158600000000000020000	0.159200000000000010000	0.160000000000000000000	0.160937630000000000000	0.161989899999999990000
730D	0.232912090000000020000	0.221057360000000010000	0.209999999999999990000	0.200200000000000020000	0.192000000000000000000	0.185400000000000010000	0.179800000000000020000	0.174800000000000010000	0.170400000000000000000	0.166000000000000010000	0.162599999999999990000	0.160300000000000000000	0.159200000000000010000	0.159000000000000000000	0.159800000000000000000	0.161300000000000000000	0.162800000000000000000	0.164400000000000020000	0.166200000000000010000	0.168064240000000000000	0.169953259999999990000
1095D	0.223017980000000000000	0.211976470000000000000	0.201100000000000000000	0.190800000000000000000	0.182400000000000010000	0.176100000000000010000	0.171300000000000010000	0.167200000000000020000	0.164000000000000010000	0.161300000000000000000	0.159700000000000010000	0.159100000000000020000	0.159500000000000000000	0.160600000000000020000	0.162400000000000020000	0.164600000000000000000	0.166900000000000020000	0.169200000000000020000	0.171600000000000000000	0.173942130000000000000	0.176180129999999990000