Expiry/Strike	0.5	0.55	0.6	0.65	0.7	0.75	0.8	0.85	0.9	0.95	1.0	1.05	1.1	1.15	1.2	1.25	1.3	1.35	1.4	1.45	1.5
91D	0.495301529999999990000	0.468268420000000020000	0.438162019999999990000	0.403908510000000000000	0.367733840000000030000	0.332860309999999990000	0.299864440000000010000	0.267478239999999980000	0.235815340000000010000	0.206336940000000000000	0.178758690000000000000	0.160372850000000010000	0.159458710000000000000	0.169548830000000010000	0.183943410000000000000	0.199572050000000000000	0.215028589999999990000	0.229419640000000010000	0.242341950000000000000	0.254307110000000000000	0.265498640000000010000
182D	0.405614850000000030000	0.378264830000000000000	0.350933560000000030000	0.324178610000000030000	0.299802049999999990000	0.276707670000000020000	0.254208570000000020000	0.232704800000000020000	0.212888490000000010000	0.194151099999999990000	0.176908220000000000000	0.163639700000000000000	0.157623089999999990000	0.157867360000000010000	0.162082770000000010000	0.168888520000000010000	0.176805920000000010000	0.185430929999999990000	0.194262900000000020000	0.202705230000000010000	0.210651630000000010000
273D	0.345505490000000030000	0.321341700000000010000	0.300446940000000000000	0.283564580000000010000	0.267482410000000000000	0.251427249999999990000	0.235594410000000000000	0.220368390000000000000	0.205916640000000010000	0.191155300000000000000	0.177495610000000000000	0.166209330000000020000	0.159249560000000010000	0.156138130000000010000	0.155132410000000000000	0.155892320000000000000	0.158312640000000000000	0.161816810000000010000	0.165916380000000000000	0.170053970000000000000	0.174107879999999990000
365D	0.320195310000000010000	0.299925969999999990000	0.282100000000000020000	0.267300000000000040000	0.253300000000000030000	0.239800000000000010000	0.226900000000000020000	0.214700000000000000000	0.202800000000000010000	0.190400000000000010000	0.179100000000000010000	0.169700000000000020000	0.163400000000000020000	0.160100000000000020000	0.159000000000000000000	0.159100000000000020000	0.160200000000000010000	0.162099999999999990000	0.164500000000000010000	0.167030240000000000000	0.169607420000000010000
547D	0.284418380000000030000	0.269254900000000020000	0.255688670000000010000	0.244143429999999990000	0.233396430000000020000	0.223447700000000000000	0.214095200000000010000	0.205343040000000000000	0.196684970000000010000	0.187431480000000010000	0.179074170000000000000	0.171906480000000000000	0.166621660000000000000	0.163219489999999990000	0.161406479999999990000	0.160589220000000000000	0.160378470000000000000	0.160761350000000000000	0.161544300000000000000	0.162510930000000000000	0.163612929999999990000
730D	0.258386540000000000000	0.246741110000000010000	0.236300000000000010000	0.227400000000000020000	0.219200000000000010000	0.211700000000000000000	0.204600000000000000000	0.198100000000000000000	0.191400000000000010000	0.184300000000000020000	0.177900000000000000000	0.172200000000000020000	0.167600000000000000000	0.164100000000000000000	0.161700000000000010000	0.160100000000000020000	0.159400000000000010000	0.159000000000000000000	0.159000000000000000000	0.159218970000000020000	0.159583119999999990000
1095D	0.242127200000000010000	0.233057060000000010000	0.224196819999999990000	0.215796590000000010000	0.208395920000000010000	0.201896140000000000000	0.196197050000000010000	0.190997950000000000000	0.185900000000000010000	0.180902740000000010000	0.176605050000000010000	0.172707589999999990000	0.169210160000000000000	0.166212270000000000000	0.163713920000000010000	0.162014640000000020000	0.160914880000000010000	0.160215109999999990000	0.159815120000000000000	0.159544629999999990000	0.159359530000000000000