Expiry/Strike	0.5	0.55	0.6	0.65	0.7	0.75	0.8	0.85	0.9	0.95	1.0	1.05	1.1	1.15	1.2	1.25	1.3	1.35	1.4	1.45	1.5
91D	0.385465722200000030000	0.360259240200000000000	0.335698329200000030000	0.311538217900000030000	0.287568640200000000000	0.263614640800000020000	0.239561439000000010000	0.215438251599999990000	0.191659611100000020000	0.169652029300000010000	0.152937040000000000000	0.146408817600000020000	0.150717076900000000000	0.161277286600000010000	0.174003422200000010000	0.186965894800000000000	0.199445663400000000000	0.211219542099999990000	0.222252890400000010000	0.232579852200000020000	0.242256757800000000000
182D	0.352196272000000030000	0.328915391000000000000	0.306395630500000020000	0.284478823500000030000	0.263075376600000020000	0.242183819899999990000	0.221936311100000010000	0.202681220300000020000	0.185102897999999990000	0.170317358900000020000	0.159740849999999990000	0.154493347600000000000	0.154627991899999980000	0.159054970100000000000	0.166255511999999990000	0.174941602800000010000	0.184253125999999990000	0.193684549799999990000	0.202960989900000000000	0.211943167299999980000	0.220568013099999990000
273D	0.326881486400000030000	0.305942963999999980000	0.285859268800000010000	0.266532660700000030000	0.247942550000000010000	0.230161192800000000000	0.213380513700000000000	0.197942400900000010000	0.184348620699999990000	0.173204485700000020000	0.165056010000000000000	0.160163346799999990000	0.158364666500000000000	0.159146898900000000000	0.161852297199999990000	0.165862835500000000000	0.170687814200000010000	0.175974183200000020000	0.181482456099999990000	0.187056121199999980000	0.192595698700000010000
365D	0.314688769400000010000	0.294599914699999970000	0.275487688900000030000	0.257294825600000000000	0.240042879899999980000	0.223837941500000000000	0.208875548300000020000	0.195433737900000020000	0.183839575699999980000	0.174400174100000000000	0.167311569999999990000	0.162586570800000000000	0.160043553499999990000	0.159360221700000000000	0.160156117900000010000	0.162062955900000000000	0.164764531400000000000	0.168009380300000010000	0.171607190100000000000	0.175418510000000000000	0.179343356800000020000
547D	0.281072969300000030000	0.263851336599999990000	0.247895382299999990000	0.233178392800000020000	0.219721281100000000000	0.207579228700000010000	0.196826500800000000000	0.187538612800000000000	0.179773021200000020000	0.173551433500000020000	0.168847760000000010000	0.165584838900000000000	0.163640520300000010000	0.162860762900000010000	0.163075648600000010000	0.164114324400000010000	0.165816332300000010000	0.168038543600000010000	0.170658187700000020000	0.173573045900000000000	0.176699923000000010000
730D	0.262364299299999990000	0.246834897000000000000	0.232753269800000020000	0.220082740100000010000	0.208812051200000020000	0.198939064500000010000	0.190456698200000000000	0.183341845399999980000	0.177548335200000020000	0.173004602100000020000	0.169615870000000000000	0.167269760900000010000	0.165843693200000000000	0.165212424599999990000	0.165254500800000010000	0.165856969700000000000	0.166918246200000010000	0.168349375600000020000	0.170074092500000020000	0.172028093100000000000	0.174157866600000020000
1095D	0.229664118100000010000	0.220749605600000010000	0.212550378299999980000	0.205018569300000010000	0.198128931700000010000	0.191872788800000000000	0.186252503999999990000	0.181275811499999990000	0.176949875900000030000	0.173275492400000010000	0.170242289999999990000	0.167825912600000020000	0.165987795800000000000	0.164677441499999990000	0.163836391700000000000	0.163402769700000010000	0.163315386000000010000	0.163516813900000000000	0.163955281100000020000	0.164585520200000000000	0.165368855600000000000