Expiry/Strike	0.5	0.55	0.6	0.65	0.7	0.75	0.8	0.85	0.9	0.95	1.0	1.05	1.1	1.15	1.2	1.25	1.3	1.35	1.4	1.45	1.5
91D	0.435097579199999970000	0.408397387599999990000	0.382495274400000030000	0.357142638900000030000	0.332129086600000010000	0.307276957500000000000	0.282448509000000010000	0.257577181699999990000	0.232752754900000000000	0.208428617300000010000	0.185858980000000010000	0.167658049800000010000	0.157239578899999980000	0.155838712599999980000	0.161122440400000010000	0.169888770700000000000	0.180015885500000000000	0.190430290400000010000	0.200646038700000000000	0.210460707400000000000	0.219803449599999980000
182D	0.402664391100000020000	0.377119866600000020000	0.352473150900000030000	0.328544079699999990000	0.305217130199999960000	0.282449615300000010000	0.260295739000000030000	0.238950666000000010000	0.218814853199999990000	0.200559033600000020000	0.185122289999999990000	0.173527256200000010000	0.166476044400000000000	0.163968642200000010000	0.165302261800000020000	0.169437881700000010000	0.175382293500000010000	0.182369912499999980000	0.189877390099999990000	0.197570979499999990000	0.205247117300000000000
273D	0.374846070300000000000	0.351146709500000040000	0.328421415100000000000	0.306543255899999980000	0.285459112500000000000	0.265197551000000030000	0.245885117699999990000	0.227766007999999990000	0.211212264399999990000	0.196700642000000010000	0.184729940000000010000	0.175680583000000000000	0.169675725900000020000	0.166531214099999990000	0.165825406900000000000	0.167032671299999990000	0.169641494100000010000	0.173219704400000010000	0.177432574800000020000	0.182034579700000000000	0.186851738999999990000
365D	0.353321517900000050000	0.331551761900000020000	0.310774311899999990000	0.290889641699999980000	0.271869312500000020000	0.253760026899999990000	0.236691272700000010000	0.220879742699999990000	0.206619048000000000000	0.194241014999999990000	0.184043520000000020000	0.176203492200000010000	0.170716356900000000000	0.167395798900000000000	0.165929534100000000000	0.165955421800000000000	0.167123650399999990000	0.169131650400000000000	0.171735494900000010000	0.174747245900000010000	0.178026273700000020000
547D	0.319610345999999990000	0.301301592299999980000	0.283983668800000030000	0.267580449900000020000	0.252071655600000000000	0.237489574000000010000	0.223916246099999990000	0.211477101899999990000	0.200326735400000010000	0.190624029500000010000	0.182498529999999990000	0.176016675800000020000	0.171160392200000010000	0.167826799700000000000	0.165847825499999990000	0.165019941500000020000	0.165132789000000000000	0.165989826300000000000	0.167419565300000020000	0.169279279600000000000	0.171454001900000010000
730D	0.297698052200000010000	0.281870328400000040000	0.267011850000000000000	0.253051464999999980000	0.239961169400000010000	0.227749779200000000000	0.216457207200000000000	0.206147328900000010000	0.196897893200000010000	0.188786928899999980000	0.181876780000000020000	0.176198803700000020000	0.171742765600000010000	0.168454076400000010000	0.166239384900000010000	0.164978174499999990000	0.164536515200000010000	0.164779498500000010000	0.165580373300000000000	0.166825960200000010000	0.168418919899999990000
1095D	0.256729560600000020000	0.246812633499999990000	0.237530966000000010000	0.228815895500000000000	0.220623632099999990000	0.212931343100000000000	0.205734834900000020000	0.199046930200000000000	0.192895641700000010000	0.187321128000000000000	0.182370410000000010000	0.178089261500000010000	0.174511863400000020000	0.171650518900000020000	0.169488901500000010000	0.167981615800000010000	0.167060219200000000000	0.166643069000000000000	0.166645388700000010000	0.166986971500000000000	0.167596687200000010000