Expiry/Strike	0.5	0.55	0.6	0.65	0.7	0.75	0.8	0.85	0.9	0.95	1.0	1.05	1.1	1.15	1.2	1.25	1.3	1.35	1.4	1.45	1.5
91D	0.346548114300000040000	0.323873943900000020000	0.301735170599999990000	0.279891500399999990000	0.258120182500000020000	0.236205973600000010000	0.213942564799999980000	0.191168866299999990000	0.167934536900000010000	0.145179926100000020000	0.127083170000000000000	0.122464687399999990000	0.131465307000000000000	0.145269263800000020000	0.159420068799999980000	0.172744057800000020000	0.185040447599999990000	0.196358520600000000000	0.206802985400000000000	0.216480672800000000000	0.225486782299999990000
182D	0.315745979700000010000	0.296490111199999960000	0.277821817000000030000	0.259568319699999990000	0.241590573499999990000	0.223786099900000010000	0.206110148000000020000	0.188637816600000010000	0.171725100400000020000	0.156381373100000000000	0.144799590000000010000	0.139709431000000000000	0.141321332200000010000	0.147025649100000020000	0.154428660000000000000	0.162290140599999990000	0.170077060900000020000	0.177577948900000000000	0.184719579400000000000	0.191488094500000010000	0.197894874800000010000
273D	0.302318372899999970000	0.284318944400000050000	0.266955850800000010000	0.250093044800000000000	0.233639515400000000000	0.217558161700000000000	0.201892584400000020000	0.186823982400000000000	0.172773026200000010000	0.160530222700000000000	0.151253680000000000000	0.145986677200000030000	0.144829773800000010000	0.146842399200000000000	0.150805544500000000000	0.155785550199999980000	0.161208845600000010000	0.166754830100000000000	0.172252080700000000000	0.177612261600000020000	0.182792665199999980000
365D	0.296160454599999960000	0.278458067500000020000	0.261465800600000020000	0.245076873499999990000	0.229239390399999990000	0.213966343899999990000	0.199357895600000000000	0.185636292399999990000	0.173184322500000020000	0.162552107800000010000	0.154362670000000010000	0.149075102600000010000	0.146730102800000010000	0.146917198600000020000	0.148991773700000020000	0.152321810199999990000	0.156411338900000000000	0.160914990000000010000	0.165607420600000000000	0.170347001000000030000	0.175047048600000000000
547D	0.278121248500000030000	0.261340506000000030000	0.245532953899999990000	0.230660107200000020000	0.216742593900000000000	0.203856094000000020000	0.192124337900000000000	0.181704077100000000000	0.172758441800000020000	0.165420215099999990000	0.159754360000000010000	0.155734148200000010000	0.153241292499999990000	0.152088780300000000000	0.152054824099999990000	0.152914701200000000000	0.154462756099999990000	0.156523404300000000000	0.158953764800000010000	0.161641381800000010000	0.164499784400000020000
730D	0.267811093499999990000	0.251087641500000010000	0.235778438700000010000	0.221849695099999990000	0.209297222800000020000	0.198129318599999990000	0.188351515000000000000	0.179954120800000010000	0.172903869200000000000	0.167140547100000010000	0.162578510000000010000	0.159111983600000010000	0.156622461800000000000	0.154986476600000010000	0.154082422700000000000	0.153795715599999990000	0.154022103100000000000	0.154669325700000000000	0.155657497799999990000	0.156918619600000000000	0.158395573200000000000
1095D	0.226249689900000000000	0.216697958799999980000	0.207982102400000010000	0.200055788300000010000	0.192893891500000000000	0.186484565299999990000	0.180822158500000000000	0.175900759700000020000	0.171708666800000020000	0.168224349100000000000	0.165414430000000000000	0.163233872199999990000	0.161628067200000000000	0.160536137100000000000	0.159894619599999980000	0.159640831399999990000	0.159715478999999990000	0.160064376900000000000	0.160639338900000010000	0.161398420300000010000	0.162305710600000010000