Expiry/Strike	0.5	0.55	0.6	0.65	0.7	0.75	0.8	0.85	0.9	0.95	1.0	1.05	1.1	1.15	1.2	1.25	1.3	1.35	1.4	1.45	1.5
91D	0.487565250000000010000	0.452750930000000000000	0.417330910000000000000	0.382120090000000020000	0.351089829999999990000	0.323485479999999990000	0.297543359999999980000	0.271748500000000000000	0.245105340000000000000	0.218356250000000000000	0.192623099999999990000	0.171258300000000000000	0.161683849999999990000	0.164035380000000010000	0.171591600000000010000	0.181889570000000000000	0.193355400000000010000	0.205008170000000020000	0.216479759999999990000	0.227342700000000010000	0.237523430000000010000
182D	0.425465710000000000000	0.400559300000000010000	0.374207730000000020000	0.346402990000000020000	0.318693710000000020000	0.292693270000000010000	0.269499409999999990000	0.248899769999999990000	0.229220140000000020000	0.210060970000000010000	0.192100000000000020000	0.177481329999999990000	0.169336180000000000000	0.167984050000000000000	0.170685960000000000000	0.175578370000000010000	0.181478690000000000000	0.188158350000000000000	0.195443690000000000000	0.202595200000000000000	0.209428770000000010000
273D	0.385226550000000000000	0.369478790000000000000	0.349731710000000030000	0.325196629999999990000	0.297250999999999990000	0.270671360000000030000	0.249920630000000000000	0.234823330000000000000	0.220421490000000000000	0.205689080000000000000	0.192100000000000020000	0.181053390000000010000	0.174055280000000010000	0.171554470000000010000	0.171249180000000000000	0.172214040000000010000	0.174126389999999990000	0.176857569999999990000	0.180519650000000000000	0.184364930000000010000	0.188179779999999990000
365D	0.360413260000000010000	0.347388800000000000000	0.330415120000000010000	0.308552710000000010000	0.283139560000000010000	0.258534250000000020000	0.240684390000000000000	0.226657959999999990000	0.214845869999999990000	0.202447030000000000000	0.191065870000000000000	0.181653420000000010000	0.175126470000000010000	0.171882709999999990000	0.170318210000000000000	0.169878500000000020000	0.170388929999999990000	0.171605079999999990000	0.173681329999999990000	0.176010670000000010000	0.178411680000000020000
547D	0.330197400000000030000	0.317061629999999980000	0.302039950000000000000	0.284263820000000000000	0.264995089999999990000	0.245391490000000020000	0.232530910000000010000	0.217298850000000020000	0.207933060000000000000	0.197980710000000000000	0.188833069999999990000	0.180909280000000010000	0.174754419999999990000	0.170553769999999990000	0.167978999999999990000	0.166794770000000010000	0.166666999999999980000	0.167032180000000000000	0.167938360000000010000	0.169077420000000010000	0.170348069999999990000
730D	0.308154829999999990000	0.295162800000000000000	0.281598400000000030000	0.266809809999999980000	0.251689990000000030000	0.235961050000000010000	0.225970620000000010000	0.211764140000000020000	0.203810410000000000000	0.195325610000000010000	0.187527810000000020000	0.180600000000000010000	0.174890180000000010000	0.170479259999999990000	0.167548330000000000000	0.166013840000000000000	0.165527680000000010000	0.165476080000000000000	0.165807390000000000000	0.166347899999999990000	0.167038750000000010000
1095D	0.261557440000000030000	0.249883850000000020000	0.239525569999999990000	0.230881480000000000000	0.223135920000000020000	0.216246260000000000000	0.209809680000000000000	0.203700610000000000000	0.197546460000000010000	0.191270700000000020000	0.185595500000000000000	0.180595310000000010000	0.176367560000000010000	0.172911950000000010000	0.170293240000000010000	0.168537240000000000000	0.167528029999999990000	0.167110210000000010000	0.167000120000000000000	0.167049660000000020000	0.167231999999999990000