Expiry/Strike	0.5	0.55	0.6	0.65	0.7	0.75	0.8	0.85	0.9	0.95	1.0	1.05	1.1	1.15	1.2	1.25	1.3	1.35	1.4	1.45	1.5
91D	0.319318539999999980000	0.301875730000000010000	0.284795610000000030000	0.267979720000000030000	0.249903249999999990000	0.228700450000000000000	0.205404260000000010000	0.183345550000000000000	0.164206170000000010000	0.149186290000000000000	0.138189840000000010000	0.133601300000000010000	0.136225860000000000000	0.143521999999999980000	0.153486290000000000000	0.164202970000000000000	0.174354950000000010000	0.183746170000000010000	0.192274850000000000000	0.200205990000000000000	0.207637980000000000000
182D	0.277772640000000020000	0.261857249999999990000	0.246409350000000000000	0.230863750000000010000	0.215584710000000010000	0.199079060000000000000	0.182588610000000010000	0.169033160000000020000	0.159019600000000010000	0.151577690000000010000	0.146655590000000000000	0.144873339999999990000	0.146129189999999990000	0.149580650000000010000	0.154656350000000000000	0.161224800000000000000	0.168691800000000000000	0.176234630000000000000	0.183127690000000010000	0.189535590000000000000	0.195553490000000000000
273D	0.271952010000000020000	0.253036390000000000000	0.234899180000000010000	0.215775860000000010000	0.202082380000000010000	0.190153160000000020000	0.179070499999999990000	0.169984600000000010000	0.163020660000000010000	0.157381830000000000000	0.153477410000000010000	0.151740370000000010000	0.152067769999999990000	0.154022010000000010000	0.157085370000000000000	0.161009020000000000000	0.165473810000000000000	0.170174970000000010000	0.174632029999999990000	0.178879330000000000000	0.182955999999999980000
365D	0.268961789999999980000	0.248458370000000010000	0.228860680000000010000	0.207732450000000010000	0.194901410000000000000	0.185477790000000000000	0.177265560000000020000	0.170463530000000000000	0.165006260000000020000	0.160235820000000000000	0.156812930000000020000	0.155095970000000000000	0.154983139999999990000	0.156219050000000000000	0.158299040000000000000	0.160899840000000020000	0.163823090000000000000	0.167028210000000010000	0.170176209999999990000	0.173243430000000000000	0.176245740000000010000
547D	0.264203610000000030000	0.241957820000000020000	0.221168730000000010000	0.199123579999999990000	0.187751010000000000000	0.181025999999999990000	0.175730230000000020000	0.171208550000000010000	0.167269730000000010000	0.163432570000000000000	0.160577670000000010000	0.158955640000000010000	0.158494730000000000000	0.159075120000000010000	0.160245730000000000000	0.161626099999999990000	0.163116200000000020000	0.164877210000000000000	0.166728670000000000000	0.168608869999999990000	0.170516439999999990000
730D	0.251346340000000000000	0.227420200000000020000	0.208002870000000010000	0.192898999999999990000	0.185551460000000000000	0.180562050000000000000	0.176543310000000010000	0.173127560000000010000	0.170180780000000000000	0.167338099999999990000	0.165362710000000000000	0.164210589999999990000	0.163984770000000000000	0.164447530000000010000	0.165441700000000000000	0.166704390000000010000	0.168135540000000000000	0.169661580000000010000	0.171219609999999990000	0.172809450000000000000	0.174433019999999990000
1095D	0.222452120000000000000	0.207395610000000010000	0.195716140000000010000	0.188030420000000000000	0.183423000000000000000	0.179819320000000000000	0.177001850000000020000	0.174666250000000000000	0.172773180000000000000	0.171090629999999990000	0.170167150000000020000	0.169675970000000010000	0.169919590000000010000	0.170515580000000000000	0.171504270000000010000	0.172811529999999990000	0.174296510000000020000	0.175740690000000000000	0.177229479999999990000	0.178718039999999990000	0.180185299999999990000