Expiry/Strike	0.5	0.55	0.6	0.65	0.7	0.75	0.8	0.85	0.9	0.95	1.0	1.05	1.1	1.15	1.2	1.25	1.3	1.35	1.4	1.45	1.5
91D	0.301603899999999980000	0.284514180000000010000	0.267862130000000030000	0.251640590000000000000	0.234912900000000010000	0.216979360000000010000	0.196993060000000000000	0.175166500000000000000	0.155405630000000020000	0.141294120000000000000	0.132298329999999990000	0.130661040000000010000	0.135608540000000000000	0.145232760000000020000	0.156827840000000000000	0.167881040000000010000	0.178080110000000010000	0.187356620000000000000	0.195865390000000000000	0.203809280000000010000	0.211248560000000000000
182D	0.275428590000000030000	0.259494710000000020000	0.244159550000000000000	0.228481900000000020000	0.213489850000000010000	0.196072500000000010000	0.179360590000000010000	0.165199430000000010000	0.154883880000000000000	0.147206720000000010000	0.142188260000000010000	0.140664260000000010000	0.142272390000000000000	0.146200120000000020000	0.151755130000000020000	0.158863030000000020000	0.166787920000000010000	0.174414140000000000000	0.181298280000000010000	0.187698950000000000000	0.193711990000000000000
273D	0.273598540000000000000	0.254337670000000020000	0.236218820000000000000	0.215726510000000010000	0.202374780000000000000	0.185852010000000010000	0.174883920000000000000	0.165808010000000010000	0.159042410000000000000	0.153760540000000000000	0.150396909999999990000	0.149367090000000010000	0.150436210000000010000	0.153021640000000010000	0.156709640000000010000	0.161174700000000000000	0.166137480000000000000	0.171049720000000020000	0.175672190000000010000	0.180080889999999990000	0.184305410000000000000
365D	0.272671380000000020000	0.251698020000000020000	0.232113030000000000000	0.209001770000000000000	0.196533650000000000000	0.180480710000000020000	0.172583270000000010000	0.166113940000000020000	0.161097990000000000000	0.156960530000000010000	0.154369399999999990000	0.153567220000000000000	0.154387920000000010000	0.156347490000000010000	0.159148690000000010000	0.162327500000000010000	0.165808630000000010000	0.169328430000000000000	0.172766709999999990000	0.176115840000000000000	0.179376769999999990000
547D	0.269987110000000030000	0.247105850000000020000	0.226308480000000010000	0.201293420000000000000	0.190205820000000000000	0.175532930000000000000	0.170771230000000000000	0.166886189999999990000	0.163585559999999990000	0.160569010000000010000	0.158727760000000000000	0.158127830000000000000	0.158685910000000010000	0.160027389999999990000	0.161952530000000010000	0.163902830000000000000	0.165961550000000010000	0.168104019999999990000	0.170338600000000010000	0.172593700000000020000	0.174847919999999990000
730D	0.256279189999999990000	0.231144199999999990000	0.211898969999999990000	0.192199390000000000000	0.185027490000000020000	0.177234330000000000000	0.173473450000000000000	0.170414660000000000000	0.167823760000000020000	0.165399830000000000000	0.163973990000000010000	0.163374180000000010000	0.163635610000000010000	0.164562080000000000000	0.165954320000000020000	0.167549720000000010000	0.169312949999999990000	0.171042219999999990000	0.172805160000000010000	0.174598790000000000000	0.176412569999999990000
1095D	0.225407520000000000000	0.207998560000000000000	0.196279050000000010000	0.186348299999999990000	0.181896270000000000000	0.178488620000000010000	0.175685559999999990000	0.173462540000000000000	0.171683660000000020000	0.170133330000000000000	0.169358270000000010000	0.169100740000000000000	0.169416210000000010000	0.170225820000000000000	0.171329260000000010000	0.172750889999999990000	0.174372470000000000000	0.175916090000000000000	0.177441540000000010000	0.178952920000000020000	0.180443190000000000000