Expiry/Strike	0.5	0.55	0.6	0.65	0.7	0.75	0.8	0.85	0.9	0.95	1.0	1.05	1.1	1.15	1.2	1.25	1.3	1.35	1.4	1.45	1.5
91D	0.327710459999999980000	0.310017190000000000000	0.292295550000000020000	0.274324190000000020000	0.255041069999999980000	0.233494220000000000000	0.210700390000000020000	0.189241410000000000000	0.170889750000000010000	0.156408020000000010000	0.145692039999999990000	0.140718640000000010000	0.142170880000000000000	0.148184780000000020000	0.156882630000000000000	0.166799740000000000000	0.176547280000000000000	0.185514690000000010000	0.194087050000000010000	0.202177930000000010000	0.209750490000000010000
182D	0.276784310000000030000	0.262464470000000010000	0.247897759999999990000	0.232618120000000010000	0.215562410000000010000	0.198136470000000010000	0.182464700000000010000	0.169513570000000000000	0.159516980000000000000	0.151485910000000000000	0.145719140000000000000	0.142915400000000000000	0.143167120000000010000	0.145741210000000010000	0.149676770000000010000	0.155068180000000000000	0.161366970000000000000	0.168085349999999990000	0.174929090000000010000	0.181444860000000010000	0.187542390000000000000
273D	0.247151850000000010000	0.234805660000000000000	0.222172700000000000000	0.208942170000000010000	0.194769460000000010000	0.181326110000000010000	0.170576940000000010000	0.162498950000000000000	0.156242190000000000000	0.151043800000000010000	0.147546320000000010000	0.146406239999999990000	0.147536250000000010000	0.149866230000000020000	0.152779059999999990000	0.156232189999999990000	0.160471129999999990000	0.165284490000000010000	0.170644330000000010000	0.175876860000000000000	0.180809300000000010000
365D	0.235536930000000010000	0.224001700000000000000	0.212115680000000000000	0.199770680000000010000	0.187573209999999990000	0.177185420000000010000	0.169275220000000000000	0.163338800000000010000	0.158589189999999990000	0.154337329999999990000	0.151674520000000010000	0.150991790000000010000	0.152283119999999990000	0.154568730000000020000	0.157254380000000000000	0.160037249999999990000	0.163211720000000000000	0.166680720000000000000	0.170736009999999990000	0.174790610000000010000	0.178669280000000010000
547D	0.217737490000000010000	0.207379670000000020000	0.197100000000000000000	0.187300000000000020000	0.179400000000000000000	0.173500000000000020000	0.169000000000000010000	0.165400000000000020000	0.162599999999999990000	0.160100000000000020000	0.158700000000000010000	0.158500000000000000000	0.159400000000000010000	0.161100000000000020000	0.163099999999999990000	0.165200000000000010000	0.167500000000000010000	0.169700000000000020000	0.172100000000000000000	0.174547349999999990000	0.176974020000000010000
730D	0.212009580000000000000	0.202204529999999990000	0.193200000000000010000	0.185500000000000000000	0.179500000000000020000	0.174900000000000000000	0.171400000000000000000	0.168400000000000020000	0.166000000000000010000	0.163800000000000000000	0.162599999999999990000	0.162300000000000000000	0.162700000000000010000	0.163800000000000000000	0.165300000000000000000	0.167000000000000010000	0.168899999999999990000	0.170700000000000020000	0.172600000000000000000	0.174541880000000010000	0.176489550000000000000
1095D	0.207534000000000000000	0.198169500000000000000	0.190200000000000010000	0.184200000000000000000	0.179700000000000000000	0.176100000000000010000	0.173200000000000020000	0.170800000000000010000	0.168800000000000010000	0.167100000000000000000	0.166000000000000010000	0.165700000000000010000	0.165800000000000000000	0.166500000000000010000	0.167600000000000000000	0.169200000000000020000	0.170800000000000010000	0.172200000000000020000	0.173800000000000010000	0.175450410000000000000	0.177082120000000010000