Expiry/Strike	0.5	0.55	0.6	0.65	0.7	0.75	0.8	0.85	0.9	0.95	1.0	1.05	1.1	1.15	1.2	1.25	1.3	1.35	1.4	1.45	1.5
91D	0.444598276100000020000	0.415162652300000050000	0.386516036299999980000	0.358389292100000030000	0.330561066200000030000	0.302860614599999970000	0.275194050800000030000	0.247616722200000000000	0.220499898800000010000	0.194862516300000010000	0.172826690000000010000	0.157549286600000000000	0.151418197000000000000	0.153782758599999990000	0.161722031699999990000	0.172427465600000020000	0.184145228199999980000	0.195971526000000010000	0.207485457500000030000	0.218510017499999990000	0.228986336200000000000
182D	0.392422922800000020000	0.367047312299999980000	0.342522620600000050000	0.318665703500000010000	0.295357048699999960000	0.272550504700000030000	0.250300823900000020000	0.228815021400000010000	0.208529650900000000000	0.190191849900000020000	0.174859080000000000000	0.163667538800000010000	0.157334369400000010000	0.155733627299999980000	0.157978268199999990000	0.162897800900000000000	0.169451998600000010000	0.176883833200000010000	0.184699868100000000000	0.192598392300000000000	0.200402885700000010000
273D	0.366412380300000010000	0.343274893400000000000	0.321025513600000030000	0.299524844999999980000	0.278701809900000040000	0.258562886499999980000	0.239212719100000000000	0.220883496000000010000	0.203961378300000020000	0.188980373200000000000	0.176539460000000010000	0.167126188200000000000	0.160920951000000010000	0.157720214400000000000	0.157033449899999980000	0.158263419399999990000	0.160851653400000020000	0.164346333600000010000	0.168411701200000010000	0.172810517000000020000	0.177380187900000010000
365D	0.346487744500000030000	0.325321787400000010000	0.305056557899999970000	0.285578620200000020000	0.266840224100000020000	0.248865160000000000000	0.231761069800000000000	0.215732915199999990000	0.201085573300000010000	0.188195714699999990000	0.177435910000000000000	0.169062621900000020000	0.163122712400000010000	0.159438118500000000000	0.157672941799999990000	0.157431670299999990000	0.158337095300000010000	0.160070321399999990000	0.162380726100000010000	0.165079910100000000000	0.168030017000000000000
547D	0.312391706400000020000	0.294951617299999970000	0.278401328900000020000	0.262655795299999990000	0.247682300599999990000	0.233499413900000010000	0.220177963799999990000	0.207840135500000020000	0.196651172099999990000	0.186797745999999990000	0.178450940000000000000	0.171721403500000010000	0.166624259700000000000	0.163070824300000000000	0.160889917100000000000	0.159865611699999990000	0.159774029699999990000	0.160408756000000010000	0.161593344200000020000	0.163184269600000010000	0.165068520500000010000
730D	0.290421890500000000000	0.275588485800000000000	0.261619008300000010000	0.248437605000000010000	0.236008894900000020000	0.224333393699999990000	0.213444168500000000000	0.203402646000000020000	0.194291466700000000000	0.186202704899999990000	0.179221270000000020000	0.173405937400000020000	0.168773081500000010000	0.165288674000000000000	0.162871318900000010000	0.161404529200000010000	0.160753208400000010000	0.160779135300000010000	0.161352323600000010000	0.162357548699999990000	0.163696867800000010000
1095D	0.248763082000000000000	0.240062109700000000000	0.231898599100000020000	0.224203394899999990000	0.216927955499999990000	0.210040910799999980000	0.203526393000000000000	0.197383599299999990000	0.191627088100000010000	0.186287097200000000000	0.181408660000000000000	0.177047654800000010000	0.173261803000000020000	0.170096308500000020000	0.167567923200000000000	0.165655062600000010000	0.164300028300000010000	0.163421940000000020000	0.162932865500000000000	0.162750259300000010000	0.162803408300000010000