Expiry/Strike	0.5	0.55	0.6	0.65	0.7	0.75	0.8	0.85	0.9	0.95	1.0	1.05	1.1	1.15	1.2	1.25	1.3	1.35	1.4	1.45	1.5
91D	0.411677471300000040000	0.384465299099999990000	0.357922434500000050000	0.331777812200000020000	0.305793260700000010000	0.279761333700000000000	0.253526094799999990000	0.227061135899999990000	0.200705104000000020000	0.175802799900000000000	0.155932070000000010000	0.146581675100000000000	0.149241902800000020000	0.159262517599999990000	0.172018357000000010000	0.185233044399999990000	0.198036440799999990000	0.210145657099999990000	0.221503366600000000000	0.232135858300000000000	0.242097611800000000000
182D	0.366546888899999980000	0.342422519500000020000	0.319032338199999990000	0.296189861599999990000	0.273767760100000030000	0.251712272199999980000	0.230083336500000010000	0.209136667500000010000	0.189463855599999980000	0.172159191000000020000	0.158809350000000020000	0.150917638700000000000	0.148879764300000020000	0.151659090899999990000	0.157590795600000000000	0.165233622800000010000	0.173633486000000000000	0.182237470200000000000	0.190747803200000010000	0.199013475800000010000	0.206964564800000000000
273D	0.335957378700000030000	0.314191007700000020000	0.293244571999999980000	0.272997952500000030000	0.253404301000000000000	0.234506030000000000000	0.216465437699999990000	0.199606268100000010000	0.184446157400000000000	0.171668721600000020000	0.161967370000000000000	0.155769260299999990000	0.153014518999999990000	0.153186771499999990000	0.155553380100000000000	0.159405806799999990000	0.164179879199999990000	0.169473156600000010000	0.175016272400000010000	0.180635799399999990000	0.186223174800000000000
365D	0.322541875900000000000	0.300982594699999990000	0.280455528800000020000	0.260903610900000030000	0.242353216999999980000	0.224918626300000010000	0.208804726200000010000	0.194297262200000010000	0.181727845400000000000	0.171407327600000020000	0.163540530000000020000	0.158157508000000000000	0.155097485000000010000	0.154052193700000010000	0.154641079600000010000	0.156481878699999990000	0.159235849200000000000	0.162626399800000020000	0.166439640800000010000	0.170516090700000010000	0.174739769200000010000
547D	0.277798513200000040000	0.262179649000000010000	0.247469833400000010000	0.233617497200000020000	0.220622327099999990000	0.208531725200000020000	0.197436240600000010000	0.187459874199999990000	0.178741570500000000000	0.171407126300000020000	0.165536629999999990000	0.161138375000000000000	0.158140305300000010000	0.156402263200000000000	0.155742174600000010000	0.155964715300000000000	0.156883713300000010000	0.158335234100000000000	0.160182558500000020000	0.162315850600000010000	0.164649115300000010000
730D	0.245071685500000000000	0.234385268400000010000	0.224362682799999990000	0.214944335599999980000	0.206101132100000000000	0.197831630700000010000	0.190160480600000010000	0.183136407400000010000	0.176827563600000020000	0.171311894300000020000	0.166661330000000000000	0.162921955200000000000	0.160096683900000010000	0.158138439899999980000	0.156957337400000010000	0.156437785400000000000	0.156457364800000000000	0.156901142800000000000	0.157669449399999990000	0.158680278699999980000	0.159868438199999990000
1095D	0.226607569200000000000	0.217513406999999990000	0.209091427600000020000	0.201313786800000010000	0.194183050900000010000	0.187724574099999990000	0.181974625000000000000	0.176963102300000010000	0.172694578600000010000	0.169136183900000010000	0.166219210000000010000	0.163852677400000010000	0.161940209199999990000	0.160392653299999990000	0.159134227100000000000	0.158103712600000000000	0.157253045000000010000	0.156545001599999980000	0.155950880299999980000	0.155448516300000010000	0.155020706799999990000