Expiry/Strike	0.5	0.55	0.6	0.65	0.7	0.75	0.8	0.85	0.9	0.95	1.0	1.05	1.1	1.15	1.2	1.25	1.3	1.35	1.4	1.45	1.5
91D	0.528608199999999970000	0.498447069999999990000	0.468601560000000030000	0.438893050000000010000	0.407440379999999990000	0.371355539999999980000	0.330239920000000020000	0.288542960000000010000	0.251699720000000020000	0.220636270000000000000	0.196344789999999990000	0.190614620000000010000	0.203218630000000010000	0.222724400000000020000	0.245136350000000000000	0.267967600000000030000	0.288931649999999980000	0.307307449999999980000	0.323406079999999980000	0.338243600000000030000	0.352102790000000000000
182D	0.429480040000000010000	0.404988469999999990000	0.378959780000000020000	0.351019040000000000000	0.322715279999999990000	0.295250860000000000000	0.269955969999999990000	0.247543700000000010000	0.228066860000000010000	0.210663130000000000000	0.196021119999999990000	0.187324099999999990000	0.186035210000000010000	0.190140370000000000000	0.197098059999999990000	0.205931759999999990000	0.216035229999999990000	0.226499610000000020000	0.236951860000000010000	0.246884090000000000000	0.256196140000000020000
273D	0.350549150000000030000	0.330582539999999980000	0.309266810000000000000	0.286281869999999990000	0.263633569999999980000	0.248618800000000000000	0.235322850000000000000	0.223655529999999990000	0.212923539999999990000	0.202421650000000010000	0.193537530000000010000	0.187200000000000010000	0.183725470000000000000	0.183089400000000010000	0.183679999999999980000	0.185091179999999990000	0.187316040000000020000	0.190143070000000000000	0.193662760000000020000	0.200204130000000010000	0.207710330000000000000
365D	0.351626539999999990000	0.330604860000000000000	0.309800000000000020000	0.289600000000000020000	0.271200000000000000000	0.255000000000000000000	0.240700000000000030000	0.228100000000000000000	0.216000000000000000000	0.204000000000000010000	0.194100000000000020000	0.187400000000000010000	0.184600000000000010000	0.185400000000000010000	0.188200000000000010000	0.191600000000000020000	0.195400000000000020000	0.199600000000000000000	0.204200000000000020000	0.208778780000000000000	0.213228150000000010000
547D	0.329672379999999990000	0.311088069999999990000	0.292756169999999980000	0.275069469999999980000	0.259183720000000010000	0.245485370000000010000	0.233476190000000000000	0.222857959999999990000	0.212638770000000000000	0.202422940000000000000	0.194293529999999990000	0.188839050000000010000	0.186745590000000020000	0.187621650000000000000	0.190378460000000000000	0.193739970000000010000	0.197403920000000010000	0.201270240000000020000	0.205430550000000020000	0.209561560000000010000	0.213572820000000000000
730D	0.286271559999999980000	0.270830510000000020000	0.256800000000000030000	0.244800000000000020000	0.234600000000000000000	0.225900000000000020000	0.218300000000000020000	0.211600000000000010000	0.205200000000000020000	0.198900000000000020000	0.194000000000000010000	0.190600000000000020000	0.188800000000000000000	0.188600000000000020000	0.189400000000000010000	0.191000000000000000000	0.193000000000000000000	0.195300000000000000000	0.197600000000000000000	0.199891030000000000000	0.202191929999999990000
1095D	0.237978920000000010000	0.226962040000000000000	0.217678380000000000000	0.210777100000000000000	0.205475170000000010000	0.201175610000000000000	0.197576489999999990000	0.194377579999999990000	0.191678670000000000000	0.189279969999999990000	0.187680850000000010000	0.186381940000000000000	0.185282809999999990000	0.184483690000000010000	0.184083910000000020000	0.184283690000000000000	0.184883250000000000000	0.185782590000000000000	0.186682160000000010000	0.187575570000000000000	0.188481509999999990000