Expiry/Strike	0.5	0.55	0.6	0.65	0.7	0.75	0.8	0.85	0.9	0.95	1.0	1.05	1.1	1.15	1.2	1.25	1.3	1.35	1.4	1.45	1.5
91D	0.385139873999999990000	0.359779905700000010000	0.335040421600000030000	0.310665573600000020000	0.286428023200000050000	0.262125211000000020000	0.237595727900000000000	0.212787790399999980000	0.187979955199999990000	0.164431998700000000000	0.145790019999999990000	0.137952219200000000000	0.142192007800000020000	0.153161179099999990000	0.166231845600000010000	0.179389917000000010000	0.191951237299999990000	0.203732346300000010000	0.214726288500000000000	0.224984853099999990000	0.234575479700000010000
182D	0.333965474200000000000	0.313442006599999990000	0.293572822399999990000	0.274187925100000010000	0.255161677799999990000	0.236421280400000020000	0.217977701799999980000	0.200000708100000010000	0.182978568099999990000	0.167990801200000010000	0.156882050000000000000	0.151510475399999980000	0.151996558300000000000	0.156576057699999990000	0.163286067000000010000	0.170857346900000010000	0.178626728100000020000	0.186277075099999990000	0.193666226800000010000	0.200737851000000020000	0.207477446400000020000
273D	0.305653892499999970000	0.287681652000000010000	0.270413074000000030000	0.253733089700000030000	0.237581679000000020000	0.221966332100000000000	0.206991260100000020000	0.192908301700000010000	0.180184159299999980000	0.169534871199999990000	0.161796000000000000000	0.157525847199999990000	0.156606500000000010000	0.158316343400000000000	0.161768436300000010000	0.166234462000000000000	0.171220217600000000000	0.176420184200000020000	0.181654171499999990000	0.186819131099999980000	0.191858162400000000000
365D	0.291481005899999980000	0.274413763700000040000	0.258158579499999980000	0.242644487800000000000	0.227863895900000000000	0.213881111599999980000	0.200846300100000010000	0.189007726999999990000	0.178705954800000010000	0.170324833900000000000	0.164184810000000010000	0.160412844500000010000	0.158873930700000000000	0.159218862200000010000	0.161005963400000010000	0.163812045900000010000	0.167289930199999990000	0.171179983900000000000	0.175298595000000000000	0.179520329000000010000	0.183761494100000010000
547D	0.262282722100000030000	0.248298819000000000000	0.235174344900000000000	0.222869161200000000000	0.211392690299999990000	0.200801546200000010000	0.191195821900000010000	0.182709334899999990000	0.175489188300000020000	0.169663390100000010000	0.165303079999999990000	0.162394000099999990000	0.160831481899999990000	0.160441244300000010000	0.161014339300000000000	0.162340538799999990000	0.164230688099999990000	0.166526845799999990000	0.169103618200000000000	0.171864790100000030000	0.174738237100000000000
730D	0.244673097699999980000	0.232386907500000020000	0.221115007899999990000	0.210809273699999990000	0.201451185300000000000	0.193042928499999990000	0.185599146500000010000	0.179138705100000020000	0.173676495200000000000	0.169215877800000000000	0.165742740000000000000	0.163222143300000010000	0.161598128600000000000	0.160796551200000000000	0.160730131700000000000	0.161304523700000010000	0.162424210900000000000	0.163997382200000010000	0.165939377800000010000	0.168174693000000010000	0.170637768500000010000
1095D	0.228515765200000000000	0.219873583299999980000	0.211815120000000000000	0.204301173000000000000	0.197324732600000000000	0.190910673499999990000	0.185114535499999980000	0.180014709499999980000	0.175691164200000000000	0.172190581600000000000	0.169494680000000010000	0.167516448000000010000	0.166127626899999990000	0.165194440100000010000	0.164600702500000000000	0.164255293500000010000	0.164090469800000000000	0.164057073800000010000	0.164119694300000010000	0.164252769800000000000	0.164437720400000010000