Expiry/Strike	0.5	0.55	0.6	0.65	0.7	0.75	0.8	0.85	0.9	0.95	1.0	1.05	1.1	1.15	1.2	1.25	1.3	1.35	1.4	1.45	1.5
91D	0.555907308300000010000	0.514872717599999970000	0.476527514800000050000	0.441885263600000020000	0.409774695700000020000	0.378961586999999990000	0.347967059700000030000	0.316667957499999990000	0.286336456900000040000	0.257264571599999990000	0.229594857800000000000	0.207188577900000000000	0.196176553499999990000	0.196140429300000000000	0.203623237600000010000	0.214654979899999990000	0.226596406400000010000	0.238615529200000010000	0.250845255800000000000	0.262562513300000020000	0.273583954900000040000
182D	0.425730848599999990000	0.396591248600000000000	0.368757657899999980000	0.342846949800000020000	0.318730912400000010000	0.295949407000000000000	0.274607593700000040000	0.255005605700000030000	0.237039735900000020000	0.220075781000000000000	0.205017725900000000000	0.193422902900000000000	0.187215758799999990000	0.186186901200000000000	0.188607698500000000000	0.193257597600000000000	0.199308125800000010000	0.206294429900000020000	0.213881281900000000000	0.221288157099999990000	0.228337935400000000000
273D	0.351525874600000010000	0.328024078400000030000	0.305345530599999970000	0.283923792200000020000	0.263861965500000020000	0.244990012499999990000	0.227580185699999990000	0.217712475999999990000	0.208796960500000020000	0.200215238100000000000	0.192955414500000010000	0.187536978299999990000	0.184410413899999990000	0.183246750200000000000	0.183239495099999980000	0.183933594499999990000	0.185338752000000000000	0.187146367200000000000	0.189569630500000000000	0.192171826200000010000	0.194811254200000010000
365D	0.314213316500000010000	0.294707809200000000000	0.275935209000000010000	0.258237084800000020000	0.242152963700000000000	0.228052688400000010000	0.216136754299999980000	0.206617566400000010000	0.198187514099999990000	0.188535542199999990000	0.180329504700000000000	0.173597087100000020000	0.169310406000000000000	0.167237505499999990000	0.167232870600000000000	0.168193156900000000000	0.169373564700000010000	0.170996926800000000000	0.172893122000000010000	0.174896065100000030000	0.177032105400000000000
547D	0.278141462600000000000	0.262747899999999980000	0.247833157099999980000	0.233736120900000010000	0.220946562800000000000	0.209651238200000010000	0.199660018100000000000	0.190777416499999990000	0.182204979699999990000	0.172719037000000020000	0.164420594700000010000	0.157539883800000000000	0.153020686900000010000	0.150839391299999990000	0.150851512700000000000	0.151880101500000000000	0.153194449799999990000	0.154913870900000000000	0.156787250900000010000	0.158709520200000010000	0.160678757800000020000
730D	0.262612054900000000000	0.248908782299999990000	0.235550623400000020000	0.222797802300000010000	0.211073552299999990000	0.200563875300000000000	0.191082146300000010000	0.182400730500000000000	0.174133445400000000000	0.165060318500000000000	0.156890679300000000000	0.149951822300000010000	0.145138895800000000000	0.142571824800000020000	0.142230845200000010000	0.143110463400000030000	0.144383971900000020000	0.146064807600000010000	0.147939552200000020000	0.149867726600000000000	0.151828567299999990000
1095D	0.261789353100000010000	0.245944547299999980000	0.230383132600000010000	0.215484139100000000000	0.202174093900000020000	0.190559776800000000000	0.180743095999999990000	0.172125498300000010000	0.164208949900000010000	0.156005284700000000000	0.148798393500000010000	0.143278982300000020000	0.140033508100000010000	0.139553361900000010000	0.141343924700000010000	0.144418096400000000000	0.147592829100000020000	0.151264129100000010000	0.154936137099999980000	0.158429863700000010000	0.161752331500000010000