Expiry/Strike	0.5	0.55	0.6	0.65	0.7	0.75	0.8	0.85	0.9	0.95	1.0	1.05	1.1	1.15	1.2	1.25	1.3	1.35	1.4	1.45	1.5
91D	0.354627580000000000000	0.334331959999999980000	0.314450490000000030000	0.294968060000000030000	0.274869990000000010000	0.252985120000000010000	0.227955070000000010000	0.200054769999999990000	0.173682750000000000000	0.153012480000000010000	0.137974459999999990000	0.133642029999999990000	0.140476629999999990000	0.153548130000000000000	0.168801020000000000000	0.183149289999999990000	0.195859360000000010000	0.207070170000000000000	0.217189159999999990000	0.226609940000000010000	0.235435050000000010000
182D	0.331801970000000000000	0.313550979999999980000	0.294561620000000020000	0.274510420000000030000	0.253585410000000010000	0.232146410000000000000	0.210636600000000010000	0.190806439999999990000	0.173835419999999990000	0.159468959999999990000	0.147749789999999990000	0.141704940000000000000	0.142453169999999990000	0.147250430000000020000	0.154615880000000010000	0.163309970000000000000	0.172465079999999990000	0.181471369999999990000	0.189911510000000010000	0.197810660000000000000	0.205215990000000010000
273D	0.308864480000000000000	0.291527650000000030000	0.273460600000000000000	0.254537889999999990000	0.235777080000000000000	0.218004520000000010000	0.201805420000000010000	0.187756770000000020000	0.175449890000000000000	0.164013680000000000000	0.154439470000000000000	0.148454499999999990000	0.147039820000000020000	0.148820979999999990000	0.152303280000000010000	0.156950620000000010000	0.162473790000000010000	0.168470580000000010000	0.174528900000000010000	0.180342400000000010000	0.185860720000000010000
365D	0.291963590000000000000	0.274955540000000000000	0.257836320000000010000	0.240770580000000010000	0.224716250000000010000	0.210273450000000000000	0.197630830000000010000	0.186682670000000000000	0.176723150000000000000	0.166846350000000000000	0.158569619999999990000	0.153075450000000000000	0.151063809999999990000	0.151952170000000000000	0.154028950000000000000	0.156794220000000010000	0.160159620000000000000	0.164025129999999990000	0.168196470000000010000	0.172310099999999990000	0.176286300000000010000
547D	0.264184299999999980000	0.249069610000000000000	0.234699970000000010000	0.221519460000000000000	0.209837689999999990000	0.199555360000000010000	0.190670339999999990000	0.182881839999999990000	0.175692710000000000000	0.168102200000000010000	0.161710280000000010000	0.157013240000000000000	0.154310279999999990000	0.153603660000000000000	0.153897079999999990000	0.154891260000000000000	0.156484750000000010000	0.158476830000000010000	0.160669690000000000000	0.162905109999999990000	0.165151109999999990000
730D	0.246629290000000000000	0.232853910000000000000	0.220524690000000000000	0.210152640000000000000	0.201094620000000000000	0.193322660000000010000	0.186550739999999990000	0.180371830000000010000	0.174685910000000000000	0.168407050000000000000	0.163114110000000010000	0.158821170000000010000	0.155721169999999990000	0.154107050000000000000	0.153492950000000020000	0.153685910000000010000	0.154371840000000010000	0.155264800000000010000	0.156450750000000000000	0.157762600000000000000	0.159142800000000000000
1095D	0.227167420000000010000	0.216382300000000000000	0.206836920000000010000	0.199018450000000010000	0.192500000000000000000	0.186990780000000000000	0.182181570000000010000	0.177972360000000000000	0.173981570000000000000	0.170290780000000000000	0.167200000000000020000	0.164718450000000020000	0.163018450000000010000	0.161836929999999990000	0.161336929999999990000	0.161336929999999990000	0.161636930000000010000	0.162236930000000000000	0.163036930000000000000	0.163890659999999990000	0.164765960000000020000