Expiry/Strike	0.5	0.55	0.6	0.65	0.7	0.75	0.8	0.85	0.9	0.95	1.0	1.05	1.1	1.15	1.2	1.25	1.3	1.35	1.4	1.45	1.5
91D	0.470079780000000000000	0.442654920000000010000	0.412474700000000030000	0.379043809999999980000	0.345982590000000030000	0.315342899999999980000	0.286958390000000010000	0.259256600000000000000	0.232231390000000010000	0.207133590000000010000	0.183948820000000010000	0.167403410000000000000	0.163168340000000000000	0.168298210000000000000	0.178194060000000020000	0.190135250000000010000	0.202888420000000010000	0.215262979999999990000	0.226770770000000010000	0.237527640000000010000	0.247607170000000020000
182D	0.387178240000000010000	0.360846990000000030000	0.335183940000000010000	0.310791180000000000000	0.288520539999999990000	0.267513960000000000000	0.247165090000000000000	0.227803370000000010000	0.209935280000000000000	0.193285440000000000000	0.178031050000000000000	0.166138250000000020000	0.160080250000000010000	0.159288080000000000000	0.162037790000000010000	0.167116370000000010000	0.173574800000000000000	0.180786210000000000000	0.188463259999999990000	0.195903689999999990000	0.202944360000000020000
273D	0.338299999999999990000	0.314615729999999980000	0.293748590000000030000	0.276463350000000000000	0.260409039999999980000	0.244729840000000000000	0.229652639999999990000	0.215434370000000010000	0.202050399999999990000	0.188724670000000010000	0.176506100000000000000	0.166642120000000000000	0.160596679999999990000	0.158019780000000000000	0.157491480000000020000	0.158610119999999990000	0.161078210000000000000	0.164499360000000010000	0.168551230000000000000	0.172649990000000000000	0.176658960000000000000
365D	0.311655049999999990000	0.291982479999999990000	0.274591440000000020000	0.260081559999999990000	0.246548350000000000000	0.233651310000000000000	0.221655090000000000000	0.210359889999999990000	0.199641619999999990000	0.188475580000000000000	0.178422479999999990000	0.170233280000000010000	0.164670370000000010000	0.161858040000000010000	0.160933350000000000000	0.161171700000000000000	0.162273430000000000000	0.163863380000000000000	0.166129580000000000000	0.168587230000000000000	0.171084790000000010000
547D	0.274878910000000030000	0.259556910000000030000	0.246052300000000000000	0.234876320000000000000	0.224706010000000010000	0.215436290000000000000	0.206961880000000010000	0.199177310000000000000	0.191593560000000000000	0.183516349999999990000	0.176428980000000010000	0.170619860000000010000	0.166282770000000000000	0.163705750000000010000	0.162599999999999990000	0.162194250000000010000	0.162477040000000020000	0.163065580000000020000	0.163948410000000020000	0.164999979999999990000	0.166174460000000000000
730D	0.249716150000000000000	0.236858060000000010000	0.225704920000000000000	0.216776970000000010000	0.208959360000000010000	0.202041890000000000000	0.195824610000000010000	0.190097180000000000000	0.184559530000000000000	0.178642880000000000000	0.173505590000000020000	0.169257990000000000000	0.165989490000000020000	0.163800000000000000000	0.162599999999999990000	0.162089490000000000000	0.162089490000000000000	0.162478980000000000000	0.163068480000000020000	0.163778270000000000000	0.164594670000000000000
1095D	0.233008490000000010000	0.222398619999999990000	0.212652609999999990000	0.204152620000000010000	0.196849500000000010000	0.190846390000000000000	0.185746400000000010000	0.181149540000000000000	0.176854240000000000000	0.172865220000000010000	0.169474669999999990000	0.166682560000000010000	0.164387300000000010000	0.162690470000000000000	0.161492059999999990000	0.160888890000000010000	0.160782559999999990000	0.161076250000000000000	0.161471520000000010000	0.161903070000000010000	0.162372199999999990000