Expiry/Strike	0.5	0.55	0.6	0.65	0.7	0.75	0.8	0.85	0.9	0.95	1.0	1.05	1.1	1.15	1.2	1.25	1.3	1.35	1.4	1.45	1.5
91D	0.325317560000000010000	0.307750169999999990000	0.290118090000000000000	0.272139120000000010000	0.252653379999999980000	0.230910290000000020000	0.207824040000000020000	0.186062690000000000000	0.167013620000000000000	0.151643009999999990000	0.139839330000000010000	0.134171120000000000000	0.135618309999999990000	0.141922540000000010000	0.151014050000000010000	0.161032340000000000000	0.170680699999999990000	0.179746220000000010000	0.188121480000000010000	0.195945230000000000000	0.203281810000000010000
182D	0.277271090000000000000	0.262897209999999990000	0.248122340000000000000	0.232469460000000020000	0.215122540000000000000	0.197483510000000000000	0.181460380000000000000	0.168048129999999990000	0.157425340000000000000	0.148985350000000020000	0.142640110000000010000	0.139478610000000000000	0.139598040000000010000	0.142091529999999990000	0.146169980000000000000	0.151731610000000020000	0.158195809999999990000	0.164970759999999990000	0.171852070000000000000	0.178404460000000010000	0.184534010000000000000
273D	0.245065040000000010000	0.232801200000000010000	0.220348330000000010000	0.207381780000000020000	0.193345629999999990000	0.179928530000000000000	0.169071370000000000000	0.161027170000000000000	0.154812010000000000000	0.149710029999999990000	0.146372380000000000000	0.145398210000000000000	0.146708700000000000000	0.149141720000000010000	0.152201900000000000000	0.155806539999999990000	0.160179490000000010000	0.165200920000000000000	0.170702520000000000000	0.176042869999999990000	0.181070420000000010000
365D	0.233209200000000010000	0.221763070000000010000	0.210103530000000010000	0.198117610000000000000	0.186149430000000000000	0.175885400000000000000	0.168112890000000010000	0.162332420000000010000	0.157745610000000010000	0.153757969999999990000	0.151366590000000000000	0.151066600000000000000	0.152658930000000000000	0.155250350000000010000	0.158043720000000000000	0.161035240000000000000	0.164424020000000000000	0.168111040000000020000	0.172394510000000000000	0.176660610000000000000	0.180728370000000000000
547D	0.219139020000000020000	0.208667940000000000000	0.198302460000000010000	0.188449890000000010000	0.180493430000000010000	0.174524190000000000000	0.170044090000000010000	0.166459650000000010000	0.163373049999999990000	0.160779770000000020000	0.159384260000000000000	0.159082019999999990000	0.159775300000000010000	0.161361890000000010000	0.163252979999999990000	0.165344099999999990000	0.167437450000000020000	0.169630809999999990000	0.172017580000000000000	0.174431790000000000000	0.176825999999999980000
730D	0.212802099999999990000	0.202920950000000020000	0.193881190000000010000	0.186190190000000010000	0.180198490000000020000	0.175604550000000000000	0.172008350000000000000	0.169110640000000010000	0.166612940000000010000	0.164315230000000010000	0.163115230000000000000	0.162715230000000020000	0.163113700000000000000	0.164112170000000000000	0.165609880000000010000	0.167308349999999990000	0.169107590000000000000	0.171005309999999990000	0.172803790000000010000	0.174590190000000010000	0.176401170000000000000
1095D	0.208097270000000000000	0.198829300000000010000	0.190916480000000000000	0.184916490000000020000	0.180413040000000000000	0.176913039999999990000	0.174016490000000000000	0.171620650000000010000	0.169625530000000000000	0.167833230000000000000	0.166838149999999990000	0.166542390000000010000	0.166645220000000010000	0.167346639999999990000	0.168445920000000000000	0.169845210000000000000	0.171543780000000010000	0.173044480000000000000	0.174545179999999990000	0.176063790000000000000	0.177581330000000010000