Expiry/Strike	0.5	0.55	0.6	0.65	0.7	0.75	0.8	0.85	0.9	0.95	1.0	1.05	1.1	1.15	1.2	1.25	1.3	1.35	1.4	1.45	1.5
91D	0.479946820000000000000	0.440714100000000000000	0.406155600000000010000	0.377765369999999990000	0.352718530000000030000	0.329693100000000020000	0.305735790000000010000	0.278772469999999990000	0.249878519999999990000	0.221285470000000010000	0.193234860000000010000	0.168540280000000010000	0.153760540000000000000	0.153791440000000000000	0.162834590000000000000	0.172918259999999990000	0.183073660000000000000	0.193282110000000010000	0.203772139999999990000	0.213857380000000010000	0.223356410000000010000
182D	0.474130840000000000000	0.446106549999999990000	0.418564570000000020000	0.390971520000000020000	0.360367539999999990000	0.326616460000000000000	0.291598909999999990000	0.258099379999999990000	0.227577200000000010000	0.198786130000000010000	0.172448030000000000000	0.159660899999999990000	0.165714119999999990000	0.179071170000000000000	0.195184580000000000000	0.212029820000000010000	0.228343850000000010000	0.243563329999999990000	0.257219770000000010000	0.269833160000000020000	0.281602540000000010000
273D	0.404918200000000010000	0.382178210000000020000	0.359295570000000010000	0.335603880000000020000	0.308758980000000020000	0.278760860000000000000	0.247740090000000000000	0.218423750000000000000	0.194638640000000000000	0.178748780000000000000	0.165946879999999990000	0.160733359999999990000	0.163903190000000000000	0.171074270000000000000	0.179087429999999990000	0.187866599999999990000	0.198993160000000000000	0.212372999999999980000	0.224304060000000000000	0.235305960000000010000	0.245564690000000000000
365D	0.303796469999999990000	0.287614220000000030000	0.270852230000000030000	0.253000380000000020000	0.233561700000000010000	0.215523040000000000000	0.203452109999999990000	0.193086390000000000000	0.184038750000000000000	0.175151730000000010000	0.167859910000000000000	0.163666940000000010000	0.162658620000000000000	0.163632660000000010000	0.165402529999999990000	0.167775210000000010000	0.170926050000000000000	0.178121790000000000000	0.185857590000000020000	0.193096570000000000000	0.199881620000000010000
547D	0.229955810000000010000	0.222998780000000010000	0.215842129999999990000	0.208472690000000020000	0.201234080000000010000	0.194322010000000020000	0.188029530000000000000	0.182150150000000010000	0.176377709999999990000	0.170100750000000000000	0.164239150000000000000	0.159092349999999990000	0.154976179999999990000	0.151892850000000000000	0.149942610000000000000	0.148801320000000010000	0.148160829999999990000	0.147529860000000010000	0.147391170000000020000	0.147496140000000000000	0.147730119999999990000
730D	0.260782220000000010000	0.246882999999999990000	0.233428319999999990000	0.220702310000000010000	0.208994940000000020000	0.198406000000000000000	0.189029360000000010000	0.180459029999999990000	0.172194970000000000000	0.163225609999999990000	0.155162570000000000000	0.148317140000000010000	0.143600280000000000000	0.141123040000000010000	0.140962880000000010000	0.141920090000000000000	0.143377709999999990000	0.145135729999999990000	0.147094140000000010000	0.149108629999999990000	0.151144460000000010000
1095D	0.263389550000000030000	0.247715010000000010000	0.232399310000000000000	0.217754649999999990000	0.204406880000000010000	0.192755120000000000000	0.182901850000000000000	0.174348000000000000000	0.166295450000000010000	0.157950060000000000000	0.150801949999999990000	0.145047780000000020000	0.141678539999999990000	0.140990990000000010000	0.142586720000000000000	0.145274170000000010000	0.148459719999999990000	0.151844440000000000000	0.155429360000000020000	0.158920399999999990000	0.162241090000000000000