Expiry/Strike	0.5	0.55	0.6	0.65	0.7	0.75	0.8	0.85	0.9	0.95	1.0	1.05	1.1	1.15	1.2	1.25	1.3	1.35	1.4	1.45	1.5
91D	0.364975623300000000000	0.341242591300000010000	0.318096122200000000000	0.295293784799999960000	0.272617643600000010000	0.249868647499999990000	0.226878138700000010000	0.203566641800000000000	0.180155294299999990000	0.157880116800000000000	0.140856330000000000000	0.136113005200000000000	0.143773059600000000000	0.156782229400000000000	0.170756726200000010000	0.184231789099999990000	0.196832930900000010000	0.208524218900000000000	0.219368703700000000000	0.229452354000000000000	0.238859754200000000000
182D	0.340348663100000000000	0.318191023000000020000	0.296687804099999950000	0.275658537700000040000	0.254973941200000000000	0.234569851100000000000	0.214489635699999990000	0.194980638500000000000	0.176684408600000010000	0.160917309900000000000	0.149738719999999990000	0.145013845200000020000	0.146723778600000020000	0.152952133899999980000	0.161546553000000010000	0.171064431100000030000	0.180734571999999980000	0.190188489100000000000	0.199266142799999990000	0.207910015100000010000	0.216111818099999990000
273D	0.330526030300000000000	0.309362414300000000000	0.288921998000000010000	0.269063920900000030000	0.249711690200000000000	0.230871465500000010000	0.212673353099999990000	0.195442634000000000000	0.179790668600000010000	0.166649320300000010000	0.157069080000000000000	0.151693519799999980000	0.150315193600000010000	0.152036547500000010000	0.155802383599999980000	0.160758170499999990000	0.166325363300000000000	0.172145885000000000000	0.178008366400000010000	0.183792036899999980000	0.189430435399999990000
365D	0.321296936000000030000	0.301034080799999990000	0.281553290200000030000	0.262744031900000010000	0.244565896399999980000	0.227064674400000000000	0.210402416300000010000	0.194896344599999990000	0.181042487700000000000	0.169467483000000000000	0.160748859999999990000	0.155152347299999990000	0.152488841399999990000	0.152223122200000010000	0.153711494700000010000	0.156380380299999980000	0.159792105400000000000	0.163639709600000020000	0.167717557000000020000	0.171891393700000010000	0.176075050900000000000
547D	0.288576646700000050000	0.272475931600000000000	0.257153525200000010000	0.242530128200000000000	0.228579343200000010000	0.215331665199999990000	0.202882828500000000000	0.191401868100000010000	0.181128891999999990000	0.172346813700000020000	0.165315250000000000000	0.160180788800000000000	0.156912696899999980000	0.155309572900000000000	0.155068584099999990000	0.155867006000000000000	0.157417005499999980000	0.159487333000000010000	0.161903426300000010000	0.164538284900000000000	0.167301497600000020000
730D	0.269651428899999990000	0.256067385099999990000	0.243227179100000000000	0.231061309500000010000	0.219541488999999980000	0.208679876500000000000	0.198530448000000000000	0.189189598699999990000	0.180791340899999990000	0.173491097200000000000	0.167434210000000000000	0.162714100300000000000	0.159337137500000000000	0.157213851100000000000	0.156181220300000010000	0.156041447400000010000	0.156597572200000010000	0.157675466800000000000	0.159132333299999980000	0.160856497800000000000	0.162763176700000010000
1095D	0.230438239700000020000	0.221172904199999990000	0.212643383899999980000	0.204798675700000020000	0.197610540500000010000	0.191067336100000010000	0.185168567399999980000	0.179919523000000030000	0.175325832400000020000	0.171388218700000010000	0.168098080000000010000	0.165434643999999990000	0.163364225199999990000	0.161841617700000000000	0.160813115200000000000	0.160220323000000000000	0.160003911200000020000	0.160106707200000000000	0.160475855200000020000	0.161064045100000000000	0.161829978700000020000