Expiry/Strike	0.5	0.55	0.6	0.65	0.7	0.75	0.8	0.85	0.9	0.95	1.0	1.05	1.1	1.15	1.2	1.25	1.3	1.35	1.4	1.45	1.5
91D	0.468066348700000020000	0.437671986299999980000	0.408093966300000000000	0.379043952600000010000	0.350275861900000040000	0.321582662899999980000	0.292812123399999960000	0.263921308000000020000	0.235118845300000020000	0.207195463600000020000	0.182134110000000020000	0.163531059000000010000	0.154964176300000010000	0.156462543200000000000	0.164622999100000000000	0.175961514400000020000	0.188374186599999990000	0.200839014700000010000	0.212910914600000000000	0.224418271899999990000	0.235314306200000020000
182D	0.418087385400000010000	0.391251024300000030000	0.365299390899999970000	0.340030123800000030000	0.315303738300000020000	0.291051639400000010000	0.267302289100000030000	0.244232823500000000000	0.222251959500000010000	0.202099352600000000000	0.184881450000000000000	0.171872775300000000000	0.163986872800000020000	0.161241308400000010000	0.162760990400000000000	0.167289279600000010000	0.173677819400000020000	0.181082744400000000000	0.188952667999999990000	0.196950325700000010000	0.204878143700000010000
273D	0.388221509899999980000	0.362972570700000000000	0.338811913400000000000	0.315614276799999980000	0.293330446400000000000	0.271990340200000010000	0.251711265000000020000	0.232706164000000020000	0.215282871900000010000	0.199821628400000010000	0.186719670000000000000	0.176305060800000020000	0.168745348800000000000	0.163992371000000000000	0.161791807400000020000	0.161749682400000010000	0.163419369300000010000	0.166373333200000000000	0.170244163300000000000	0.174738032700000020000	0.179631093100000000000
365D	0.363847264700000010000	0.340905914600000030000	0.319101054300000020000	0.298332730100000000000	0.278568048200000030000	0.259837906700000010000	0.242235247999999990000	0.225910625300000000000	0.211060308700000000000	0.197902883400000010000	0.186643770000000010000	0.177433378700000010000	0.170330723300000010000	0.165285358100000000000	0.162144066199999990000	0.160678341899999990000	0.160621243800000010000	0.161701661599999990000	0.163668798700000010000	0.166305394599999990000	0.169431864399999990000
547D	0.331438744100000020000	0.312312451900000010000	0.294222317600000010000	0.277077861600000030000	0.260840897600000010000	0.245520265399999990000	0.231167874600000020000	0.217873358100000000000	0.205754675700000000000	0.194942703500000010000	0.185559820000000010000	0.177695647000000010000	0.171386012400000010000	0.166601656500000000000	0.163250161499999990000	0.161189585500000010000	0.160248415300000000000	0.160245670000000010000	0.161006848300000010000	0.162374109100000000000	0.164211141400000010000
730D	0.306134862199999970000	0.290430065299999980000	0.275574405000000020000	0.261479761700000040000	0.248100231099999980000	0.235428592400000000000	0.223494774600000000000	0.212364078999999980000	0.202132373700000010000	0.192915223599999990000	0.184829100000000000000	0.177966384900000020000	0.172370889100000010000	0.168023243100000000000	0.164842226700000010000	0.162700387400000010000	0.161446213000000010000	0.160924659100000010000	0.160991469200000010000	0.161520687700000000000	0.162406956999999990000
1095D	0.256835249499999970000	0.247451750499999980000	0.238629328500000020000	0.230294206500000010000	0.222394721900000010000	0.214897917599999990000	0.207788178500000000000	0.201067428800000000000	0.194756471699999990000	0.188896764800000010000	0.183551130000000010000	0.178800587500000020000	0.174733454100000020000	0.171424474800000000000	0.168908599600000010000	0.167162719900000010000	0.166107946600000000000	0.165630940199999990000	0.165610246900000010000	0.165935220700000000000	0.166514432100000000000