Expiry/Strike	0.5	0.55	0.6	0.65	0.7	0.75	0.8	0.85	0.9	0.95	1.0	1.05	1.1	1.15	1.2	1.25	1.3	1.35	1.4	1.45	1.5
91D	0.315249229999999990000	0.297951650000000010000	0.280924989999999990000	0.264069910000000020000	0.246196940000000000000	0.225840060000000010000	0.202937600000000000000	0.180491060000000010000	0.160774470000000000000	0.145135160000000010000	0.133663730000000010000	0.129011350000000000000	0.131955939999999990000	0.139747810000000000000	0.149933089999999990000	0.160555140000000010000	0.170614130000000000000	0.179787630000000000000	0.188163589999999990000	0.195978370000000010000	0.203304810000000000000
182D	0.273042740000000010000	0.258722520000000010000	0.244353420000000020000	0.229566419999999990000	0.213229170000000000000	0.196185749999999990000	0.179849910000000000000	0.166213210000000000000	0.155799999999999990000	0.147624530000000000000	0.141802540000000000000	0.139126720000000010000	0.139790530000000000000	0.142600700000000000000	0.146970590000000010000	0.152901819999999990000	0.159735779999999990000	0.166705710000000010000	0.173326929999999990000	0.179543180000000000000	0.185377740000000010000
273D	0.251363239999999990000	0.238656530000000010000	0.225347980000000000000	0.211147550000000020000	0.196413499999999990000	0.182915070000000010000	0.171991190000000020000	0.163506719999999990000	0.156689319999999990000	0.150868859999999990000	0.146650510000000010000	0.144769010000000000000	0.145184070000000000000	0.146899919999999990000	0.149304810000000010000	0.152398239999999990000	0.156216490000000010000	0.160666250000000010000	0.165617860000000010000	0.170458350000000010000	0.175040530000000000000
365D	0.240631040000000020000	0.228637659999999990000	0.216215590000000010000	0.203267000000000000000	0.190567960000000010000	0.179775980000000000000	0.171556510000000000000	0.165113740000000010000	0.159757890000000010000	0.154991359999999990000	0.151713860000000010000	0.150613900000000000000	0.151391460000000010000	0.153457999999999980000	0.155835830000000010000	0.158508310000000010000	0.161475530000000010000	0.164934909999999990000	0.168786640000000020000	0.172591209999999990000	0.176247700000000010000
547D	0.227031320000000010000	0.215660230000000010000	0.204500000000000020000	0.194000000000000010000	0.185500000000000000000	0.179000000000000020000	0.173900000000000000000	0.169700000000000020000	0.166000000000000010000	0.162599999999999990000	0.160200000000000010000	0.159100000000000020000	0.159100000000000020000	0.160000000000000000000	0.161500000000000000000	0.163099999999999990000	0.164900000000000020000	0.166800000000000000000	0.168800000000000010000	0.170836320000000010000	0.172888270000000010000
730D	0.218699840000000010000	0.208199820000000010000	0.198700000000000020000	0.190700000000000010000	0.184300000000000020000	0.179400000000000000000	0.175500000000000020000	0.172200000000000020000	0.169300000000000010000	0.166600000000000000000	0.164700000000000010000	0.163800000000000000000	0.163800000000000000000	0.164300000000000000000	0.165400000000000020000	0.166900000000000020000	0.168400000000000020000	0.170000000000000010000	0.171600000000000000000	0.173219060000000010000	0.174871810000000020000
1095D	0.211013400000000020000	0.201483820000000010000	0.193500000000000010000	0.187600000000000020000	0.183000000000000000000	0.179400000000000000000	0.176500000000000020000	0.174100000000000000000	0.172000000000000010000	0.170100000000000000000	0.169000000000000010000	0.168400000000000020000	0.168500000000000010000	0.169000000000000010000	0.169900000000000000000	0.171200000000000020000	0.172700000000000020000	0.174100000000000000000	0.175500000000000020000	0.176913249999999990000	0.178331170000000010000