Expiry/Strike	0.5	0.55	0.6	0.65	0.7	0.75	0.8	0.85	0.9	0.95	1.0	1.05	1.1	1.15	1.2	1.25	1.3	1.35	1.4	1.45	1.5
91D	0.320786080000000030000	0.302711810000000030000	0.285052240000000010000	0.267816790000000030000	0.250049240000000010000	0.230406980000000010000	0.207697030000000000000	0.183578990000000000000	0.162067330000000010000	0.145785600000000020000	0.134497730000000010000	0.131220389999999990000	0.135874670000000000000	0.145509320000000000000	0.157713010000000010000	0.169958810000000020000	0.181147950000000000000	0.191037100000000020000	0.199904620000000010000	0.208151450000000020000	0.215883120000000010000
182D	0.266382550000000000000	0.252338690000000030000	0.237859720000000000000	0.222834520000000010000	0.207667410000000000000	0.192639580000000000000	0.178312429999999990000	0.165763570000000000000	0.155902700000000010000	0.148200000000000000000	0.142500519999999990000	0.139913139999999990000	0.140162449999999990000	0.142401439999999990000	0.146346339999999990000	0.151184950000000010000	0.156664169999999990000	0.162228570000000020000	0.167764080000000010000	0.173078250000000020000	0.178127510000000020000
273D	0.244135380000000010000	0.231769380000000000000	0.218692360000000000000	0.204752999999999990000	0.190973770000000010000	0.178815800000000000000	0.169070390000000010000	0.161486610000000000000	0.155280969999999990000	0.149751760000000010000	0.145522569999999990000	0.143447180000000010000	0.143285009999999990000	0.144394949999999990000	0.146008030000000010000	0.148207759999999990000	0.151094210000000010000	0.154609840000000000000	0.158625779999999990000	0.162596579999999990000	0.166390850000000010000
365D	0.235039760000000010000	0.223182490000000010000	0.210901420000000010000	0.198261660000000010000	0.186470400000000010000	0.176488510000000020000	0.168783380000000010000	0.162750090000000010000	0.157604789999999990000	0.152947190000000010000	0.149385610000000000000	0.147598490000000000000	0.147589930000000010000	0.148772800000000010000	0.150259990000000010000	0.152142950000000000000	0.154413260000000000000	0.157175290000000000000	0.160229180000000000000	0.163264800000000020000	0.166218919999999990000
547D	0.219558710000000020000	0.208647630000000000000	0.197978350000000000000	0.187992910000000010000	0.179895840000000000000	0.173565140000000010000	0.168626250000000010000	0.164561400000000000000	0.161092290000000000000	0.157618900000000010000	0.155136689999999990000	0.153641160000000000000	0.153327810000000010000	0.153801180000000010000	0.154779060000000000000	0.156052610000000010000	0.157335030000000010000	0.159004370000000010000	0.160682550000000010000	0.162362120000000000000	0.164075450000000010000
730D	0.209688400000000000000	0.199578709999999990000	0.190584030000000020000	0.183261600000000000000	0.177527600000000010000	0.172781860000000010000	0.169212110000000000000	0.165942449999999990000	0.163160699999999990000	0.160278990000000010000	0.158191200000000000000	0.156791199999999990000	0.156178999999999980000	0.156066800000000010000	0.156548540000000010000	0.157236380000000010000	0.158124240000000000000	0.159106050000000000000	0.160287900000000010000	0.161550379999999990000	0.162849840000000000000
1095D	0.205112270000000010000	0.195693850000000000000	0.187550050000000000000	0.181155420000000010000	0.175959450000000020000	0.171768850000000000000	0.168678290000000010000	0.165989119999999990000	0.163702729999999990000	0.161817790000000020000	0.160532960000000000000	0.159844050000000020000	0.159555200000000010000	0.159663600000000020000	0.160270620000000000000	0.161274830000000010000	0.162379050000000000000	0.163483280000000010000	0.164688920000000020000	0.165886520000000010000	0.167040579999999990000