Expiry/Strike	0.5	0.55	0.6	0.65	0.7	0.75	0.8	0.85	0.9	0.95	1.0	1.05	1.1	1.15	1.2	1.25	1.3	1.35	1.4	1.45	1.5
91D	0.310563939999999980000	0.293071320000000020000	0.276020780000000020000	0.259420900000000010000	0.242276720000000000000	0.223354510000000010000	0.201626400000000010000	0.178579190000000000000	0.158692420000000000000	0.144536749999999990000	0.135289600000000010000	0.133077510000000010000	0.137508330000000010000	0.146596700000000000000	0.158575590000000020000	0.170425520000000000000	0.181014380000000000000	0.190351660000000010000	0.198789450000000010000	0.206657480000000000000	0.214039930000000020000
182D	0.286159520000000000000	0.271236750000000030000	0.256068940000000020000	0.240240399999999990000	0.222764570000000000000	0.204605490000000000000	0.187991250000000000000	0.174594250000000010000	0.164172619999999990000	0.156007250000000010000	0.150239800000000010000	0.147527319999999990000	0.148059080000000010000	0.150798760000000000000	0.155124060000000010000	0.160823250000000000000	0.167619450000000000000	0.174920920000000010000	0.182081710000000010000	0.188831190000000010000	0.195149779999999990000
273D	0.265144170000000010000	0.251670569999999980000	0.237650040000000010000	0.222941570000000010000	0.208256120000000020000	0.194845860000000010000	0.183659480000000010000	0.174834900000000020000	0.167772880000000010000	0.161829520000000000000	0.157755600000000000000	0.156014199999999990000	0.156669620000000010000	0.158912080000000010000	0.161889670000000010000	0.165575279999999990000	0.169845020000000010000	0.174548440000000000000	0.179543440000000000000	0.184404900000000010000	0.189033930000000020000
365D	0.253028750000000020000	0.240379270000000010000	0.227009480000000010000	0.212971080000000010000	0.200067590000000020000	0.189597630000000020000	0.181520309999999990000	0.175085980000000000000	0.169693299999999990000	0.164833700000000000000	0.161588449999999990000	0.160360540000000000000	0.161153080000000000000	0.163260380000000010000	0.165690150000000010000	0.168441250000000010000	0.171412800000000000000	0.174691980000000000000	0.178460709999999990000	0.182235360000000010000	0.185880610000000000000
547D	0.232054600000000000000	0.220720119999999990000	0.209893429999999990000	0.200090910000000010000	0.192368860000000000000	0.186660899999999990000	0.182182120000000000000	0.178424550000000020000	0.175374360000000010000	0.172629150000000010000	0.171190869999999990000	0.170773990000000010000	0.171476070000000010000	0.172988690000000000000	0.175094980000000010000	0.177109810000000010000	0.179226870000000010000	0.181448320000000000000	0.183778610000000010000	0.186131560000000000000	0.188481920000000000000
730D	0.228922100000000020000	0.217952800000000000000	0.208194200000000000000	0.200201939999999990000	0.193907780000000000000	0.189111040000000010000	0.185113000000000000000	0.181813649999999990000	0.178813649999999990000	0.176113650000000010000	0.174313000000000000000	0.173410390000000000000	0.173407129999999990000	0.174003880000000000000	0.175199999999999990000	0.176697419999999990000	0.178295480000000010000	0.179992910000000010000	0.181790350000000020000	0.183621659999999990000	0.185469020000000010000
1095D	0.226343590000000010000	0.215977930000000010000	0.207285740000000000000	0.200791160000000000000	0.195495229999999990000	0.191301370000000000000	0.187810280000000000000	0.184719949999999990000	0.181831789999999990000	0.179444450000000010000	0.177655819999999990000	0.176366570000000000000	0.175873790000000000000	0.175879580000000010000	0.176383940000000020000	0.177385380000000010000	0.178686089999999990000	0.179888259999999990000	0.181289690000000000000	0.182749319999999990000	0.184201560000000010000