{
    "modelParam": {
        "moneyNessType": "spotMoneyNess", 
        "targetType": 1, 
        "dK": 0.01, 
        "pricingSchemeType": 1, 
        "backGFType": -1, 
        "calibrationType": "bootstrap", 
        "Kmin": 0.1, 
        "Kmax": 2.5, 
        "NMC": 32768, 
        "Ns": 241, 
        "mcOneTimeStep": 1095, 
        "GFType": -1
    }, 
    "repoRateCurve": "25\t-0.008857458\n56\t-0.008848807\n84\t-0.009323235\n147\t0.028325005\n238\t-0.003911282\n329\t0.008802298\n511\t0.004032409\n694\t0.005260404\n875\t0.004162298\n1061\t0.004423197\n1243\t0.002615658\n1427\t0.002711188\n1792\t-0.012862688\n2156\t-0.000720733\n2520\t-0.008027754\n2888\t-0.010375813\n3253\t-0.012995928\n3618\t-0.005268827", 
    "evaluationDate": "2017-02-02", 
    "dividendCurve": "102\t0.000346059\n109\t0.000989128\n116\t0.000705082\n119\t0.000568638\n123\t0.002695837\n130\t0.001533829\n137\t3.65396E-05\n140\t0.000637623\n141\t0.005786701\n144\t0.006990157\n147\t0.005584469\n148\t0.000883768\n151\t0.003245004\n158\t7.71014E-05\n175\t0.000562038\n217\t0.000394521\n221\t0.000553437\n224\t0.000898114\n243\t0.000100605\n279\t1.25821E-06\n291\t2.47517E-07\n292\t3.30022E-06\n295\t5.19785E-06\n319\t1.13754E-05\n329\t1.07257E-06\n330\t1.51604E-06\n334\t6.80671E-06\n407\t1.84194E-05\n466\t0.000799468\n467\t9.61189E-06\n473\t0.001802911\n475\t0.000903332\n480\t0.001761576\n481\t0.00019823\n483\t3.18059E-05\n484\t1.57276E-05\n487\t0.001987971\n488\t4.43467E-07\n490\t1.5511E-05\n491\t0.000392799\n494\t0.004286152\n495\t7.41518E-06\n497\t0.000276394\n498\t0.000287697\n502\t0.005149778\n504\t8.66514E-05\n505\t0.000339551\n508\t0.002231548\n509\t9.86457E-05\n511\t0.000129596\n512\t0.000187463\n516\t0.00652397\n517\t5.94762E-05\n522\t0.00053214\n529\t8.59604E-05\n540\t0.000126656\n545\t2.18743E-05\n578\t0.000199406\n579\t0.000757184\n582\t2.19671E-06\n585\t0.001880971\n589\t4.68941E-05\n592\t2.23074E-05\n595\t8.41556E-06\n603\t6.80258E-05\n607\t5.98165E-07\n608\t4.88845E-06\n617\t1.14476E-06\n645\t1.13445E-06\n656\t1.44385E-07\n658\t1.85637E-06\n659\t3.02176E-06\n683\t6.73451E-06\n697\t2.34109E-06\n699\t7.80709E-06\n746\t5.67226E-07\n771\t2.10389E-05\n831\t0.000809895\n832\t1.07773E-05\n837\t6.97481E-05\n838\t0.001767516\n839\t0.000920411\n844\t0.001797641\n845\t1.76356E-06\n846\t0.000202902\n848\t3.9912E-05\n851\t0.002031503\n852\t2.80313E-05\n853\t5.05346E-07\n858\t0.000506089\n859\t0.004232317\n860\t1.15095E-05\n865\t0.000575703\n866\t0.005155409\n867\t1.75324E-07\n868\t7.1161E-07\n869\t9.73462E-05\n872\t0.002576565\n873\t3.85404E-05\n874\t5.17722E-05\n875\t8.58161E-05\n876\t0.000146241\n880\t0.006803643\n883\t5.55984E-05\n887\t0.000545114\n895\t8.36194E-05\n904\t1.28915E-06\n907\t0.000127894\n911\t2.01004E-05\n942\t0.000203139\n944\t0.00076824\n949\t2.47517E-06\n950\t0.001914654\n956\t7.50388E-05\n963\t7.52863E-06\n970\t6.53134E-05\n978\t5.50724E-06\n981\t1.27884E-06\n1021\t1.65011E-07\n1026\t5.31129E-06\n1050\t7.54926E-06\n1061\t2.45454E-06\n1065\t8.54964E-06\n1111\t7.63176E-07\n1138\t2.30706E-05\n1161\t5.56912E-07\n1194\t0.000289615\n1195\t0.000393324\n1196\t0.000146024\n1197\t2.58861E-06\n1201\t3.51164E-05\n1202\t3.41882E-05\n1203\t0.00180025\n1204\t0.000936737\n1208\t4.92558E-05\n1209\t0.001778675\n1210\t6.54888E-06\n1211\t0.000207646\n1215\t0.001621574\n1216\t0.000460041\n1217\t4.63165E-05\n1218\t3.08983E-05\n1219\t5.56912E-07\n1222\t4.81729E-05\n1223\t0.000462351\n1224\t0.004283099\n1225\t6.49731E-06\n1226\t2.62986E-06\n1229\t0.000587017\n1231\t0.005169332\n1233\t1.95951E-07\n1236\t0.000648607\n1237\t0.002101911\n1238\t9.28187E-06\n1240\t9.18699E-05\n1243\t0.000306611\n1244\t0.00308517\n1246\t0.003748515\n1250\t5.20713E-05\n1252\t0.000556211\n1253\t5.36286E-07\n1261\t8.13711E-05\n1271\t0.000131431\n1278\t1.84606E-05\n1306\t0.0002068\n1309\t0.00077845\n1313\t2.733E-06\n1315\t0.001942892\n1316\t3.83651E-06\n1320\t8.07729E-05\n1327\t7.77615E-06\n1335\t7.01091E-05\n1336\t7.4255E-07\n1341\t6.08478E-06\n1348\t1.37165E-06\n1387\t1.85637E-07\n1390\t5.68257E-06", 
    "spot": 9696.32, 
    "volatilitySurface": {
        "strike": "0.5\t0.55\t0.6\t0.65\t0.7\t0.75\t0.8\t0.85\t0.9\t0.95\t1.0\t1.05\t1.1\t1.15\t1.2\t1.25\t1.3\t1.35\t1.4\t1.45\t1.5", 
        "moneyNessType": "spotMoneyness", 
        "data": "0.451335563\t0.421576803\t0.39231798\t0.363325027\t0.33436084\t0.304953796\t0.274741257\t0.243266202\t0.209390283\t0.174585421\t0.14557406\t0.152422127\t0.17772979\t0.202492912\t0.224126521\t0.243631498\t0.261022209\t0.276809665\t0.291252494\t0.30457332\t0.316915125\n0.398596347\t0.372611808\t0.34701554\t0.321866152\t0.297018816\t0.272328278\t0.247734099\t0.223347272\t0.199954663\t0.179890804\t0.165622745\t0.160985465\t0.165693471\t0.175633412\t0.187952142\t0.20080785\t0.213403257\t0.225400279\t0.236731473\t0.247420171\t0.257433506\n0.379349112\t0.354710441\t0.330258569\t0.306632306\t0.283970466\t0.262338336\t0.242006452\t0.223493368\t0.207742167\t0.19550094\t0.187593128\t0.184124385\t0.184736133\t0.188540615\t0.194418208\t0.201676353\t0.209649379\t0.217934538\t0.226253911\t0.234498156\t0.242466573\n0.378412332\t0.354379105\t0.330293683\t0.307303389\t0.285654343\t0.265483152\t0.24711511\t0.231020486\t0.217768617\t0.207737932\t0.200911475\t0.197214212\t0.196202418\t0.197308021\t0.199977074\t0.203740108\t0.208241383\t0.2131948\t0.218396849\t0.223754625\t0.229056019\n0.382685574\t0.358490237\t0.334184706\t0.311078486\t0.289565475\t0.269804812\t0.252164328\t0.237102621\t0.224966948\t0.215909999\t0.209703961\t0.206054339\t0.204490833\t0.204536671\t0.205761222\t0.207840194\t0.210511813\t0.213582366\t0.216903102\t0.220404601\t0.22393693\n0.359144844\t0.338554605\t0.318056687\t0.298991707\t0.281710006\t0.266188625\t0.252577586\t0.24100204\t0.231502922\t0.224077763\t0.218545258\t0.214739727\t0.212429196\t0.211374502\t0.211337272\t0.212101113\t0.213497404\t0.21537523\t0.217602419\t0.220127286\t0.222772156\n0.350517969\t0.332118126\t0.313770121\t0.296825036\t0.281589391\t0.267977593\t0.256059323\t0.245869433\t0.237383191\t0.230544833\t0.225204393\t0.221227365\t0.21843922\t0.216668377\t0.215747273\t0.215518843\t0.215857041\t0.216648342\t0.217789206\t0.219234362\t0.220847438\n0.3317215\t0.316705188\t0.301836772\t0.288251505\t0.276149211\t0.265408484\t0.256008205\t0.247901009\t0.241025001\t0.235299952\t0.230610385\t0.226863886\t0.223948218\t0.221756217\t0.220188895\t0.219153844\t0.218566602\t0.218356901\t0.218456372\t0.218836083\t0.219393388", 
        "expiry": "30\t91\t182\t273\t365\t547\t730\t1095"
    }, 
    "zeroCurve": "0.24384 \t0.009941541\n0.49589 \t0.010686783\n0.74795 \t0.011586512\n1.00000 \t0.012587537\n2.00548 \t0.015802717\n3.00274 \t0.01823147\n5.00822 \t0.021509447\n7.00274 \t0.023483567\n10.00548 \t0.025501555"
}